<?xml version="1.0" encoding="utf-8"?>
<!-- Generator: Adobe Illustrator 21.0.0, SVG Export Plug-In . SVG Version: 6.00 Build 0)  -->
<svg version="1.1" xmlns="http://www.w3.org/2000/svg" xmlns:xlink="http://www.w3.org/1999/xlink" x="0px" y="0px"
	 viewBox="0 0 1920 1080" style="enable-background:new 0 0 1920 1080;" xml:space="preserve">
<style type="text/css">
	.st0{fill:#F2F0F0;}
	.st1{fill:#FFFFFF;}
	.st2{fill:#E2B5B5;}
	.st3{fill:#CE1B1B;}
	.st4{fill:#211915;}
	.st5{fill:#F46262;}
	.st6{fill:#D1D1D1;}
	.st7{fill:#ADADAD;}
	.st8{fill:#C3E0B6;}
	.st9{fill:#67D354;}
	.st10{fill:#98F482;}
	.st11{fill:none;stroke:#070707;stroke-width:6.0459;stroke-linecap:round;stroke-linejoin:round;stroke-miterlimit:10;}
	.st12{fill:#96842A;}
	.st13{fill:#DDCA47;}
	.st14{fill:#B4A135;}
	.st15{fill:#786724;}
	.st16{fill:#EDD974;}
	.st17{fill:#B8A63A;}
	.st18{fill:#150D16;}
	.st19{fill:#7A7A7A;}
	.st20{fill:#070707;}
	.st21{fill:#EAB447;}
	.st22{fill:#0C0903;}
	.st23{fill:#D8A127;}
	.st24{fill:#CC9423;}
	.st25{fill:#BC881E;}
	.st26{fill:#682C0F;}
	.st27{fill:#4C1D0A;}
	.st28{fill:#F7E93E;}
	.st29{fill:#E0CF38;}
	.st30{fill:#C90000;}
	.st31{fill:#B70000;}
	.st32{fill:#57A02B;}
	.st33{fill:#478420;}
	.st34{fill:#1A763D;}
	.st35{fill:#070208;}
	.st36{fill:#11582F;}
	.st37{fill:#0A090A;}
	.st38{fill:#0E5B31;}
	.st39{fill:#F8EEDF;}
	.st40{fill:#C12D1B;}
	.st41{fill:#1D0F10;}
	.st42{fill:#003E1E;}
	.st43{fill:#DBCFC1;}
	.st44{fill:#A0241A;}
	.st45{fill:#2D4484;}
	.st46{fill:#050502;}
	.st47{fill:#1B3163;}
	.st48{fill:#0B1938;}
	.st49{fill:#9C9CA0;}
	.st50{fill:#717177;}
	.st51{fill:#C9C39D;}
	.st52{fill:#FCF9D4;}
	.st53{fill:#F4EFC3;}
	.st54{fill:#C23517;}
	.st55{fill:#A0241B;}
	.st56{fill:#F3E4E5;}
	.st57{fill:#2D1423;}
	.st58{fill:#8A191D;}
	.st59{fill:#6E191C;}
	.st60{fill:#C85D56;}
	.st61{fill:none;}
	.st62{fill:#101B46;}
	.st63{fill:#50A8C9;}
	.st64{fill:#538795;}
	.st65{fill:#101B46;stroke:#070208;stroke-width:2.0705;stroke-miterlimit:10;}
	.st66{fill:#0C0C11;}
	.st67{fill:#7B8A7C;stroke:#0A080A;stroke-width:1.7794;stroke-linecap:round;stroke-linejoin:round;stroke-miterlimit:10;}
	.st68{fill:#7B8A7C;stroke:#0A080A;stroke-width:1.8591;stroke-linecap:round;stroke-linejoin:round;stroke-miterlimit:10;}
	.st69{fill:#87BED5;}
	.st70{fill:#7A7A7A;stroke:#070707;stroke-width:2.8529;stroke-linecap:round;stroke-linejoin:round;stroke-miterlimit:10;}
	.st71{fill:none;stroke:#CE1B1B;stroke-width:15.2467;stroke-linecap:round;stroke-linejoin:round;stroke-miterlimit:10;}
</style>
<g id="BG">
	<g>
		<rect x="-0.9" y="-0.2" class="st0" width="1919.8" height="1086.5"/>
		<g>
			<polygon class="st1" points="1634.2,1023.4 1634.2,922.1 1546.5,871.4 1458.7,922.1 1458.7,1023.4 1546.5,1074.1 			"/>
			<polygon class="st1" points="1444.7,1023.4 1444.7,922.1 1357,871.4 1269.2,922.1 1269.2,1023.4 1357,1074.1 			"/>
			<polygon class="st1" points="1255.2,1023.4 1255.2,922.1 1167.5,871.4 1079.7,922.1 1079.7,1023.4 1167.5,1074.1 			"/>
			<polygon class="st1" points="1065.7,1023.4 1065.7,922.1 978,871.4 890.2,922.1 890.2,1023.4 978,1074.1 			"/>
			<polygon class="st1" points="876.2,1023.4 876.2,922.1 788.4,871.4 700.7,922.1 700.7,1023.4 788.4,1074.1 			"/>
			<polygon class="st1" points="686.7,1023.4 686.7,922.1 598.9,871.4 511.2,922.1 511.2,1023.4 598.9,1074.1 			"/>
			<polygon class="st1" points="497.2,1023.4 497.2,922.1 409.4,871.4 321.7,922.1 321.7,1023.4 409.4,1074.1 			"/>
			<polygon class="st1" points="307.7,1023.4 307.7,922.1 219.9,871.4 132.2,922.1 132.2,1023.4 219.9,1074.1 			"/>
			<polygon class="st1" points="1727.2,855.2 1727.2,753.9 1639.5,703.3 1551.7,753.9 1551.7,855.2 1639.5,905.9 			"/>
			<polygon class="st1" points="1537.7,855.2 1537.7,753.9 1450,703.3 1362.2,753.9 1362.2,855.2 1450,905.9 			"/>
			<polygon class="st1" points="1348.2,855.2 1348.2,753.9 1260.5,703.3 1172.7,753.9 1172.7,855.2 1260.5,905.9 			"/>
			<polygon class="st1" points="1158.7,855.2 1158.7,753.9 1071,703.3 983.2,753.9 983.2,855.2 1071,905.9 			"/>
			<polygon class="st1" points="969.2,855.2 969.2,753.9 881.5,703.3 793.7,753.9 793.7,855.2 881.5,905.9 			"/>
			<polygon class="st1" points="779.7,855.2 779.7,753.9 692,703.3 604.2,753.9 604.2,855.2 692,905.9 			"/>
			<polygon class="st1" points="590.2,855.2 590.2,753.9 502.5,703.3 414.7,753.9 414.7,855.2 502.5,905.9 			"/>
			<polygon class="st1" points="400.7,855.2 400.7,753.9 313,703.3 225.2,753.9 225.2,855.2 313,905.9 			"/>
		</g>
		<g>
			<polygon class="st1" points="1634.2,687.1 1634.2,585.8 1546.5,535.1 1458.7,585.8 1458.7,687.1 1546.5,737.8 			"/>
			<polygon class="st1" points="1444.7,687.1 1444.7,585.8 1357,535.1 1269.2,585.8 1269.2,687.1 1357,737.8 			"/>
			<polygon class="st1" points="1255.2,687.1 1255.2,585.8 1167.5,535.1 1079.7,585.8 1079.7,687.1 1167.5,737.8 			"/>
			<polygon class="st1" points="1065.7,687.1 1065.7,585.8 978,535.1 890.2,585.8 890.2,687.1 978,737.8 			"/>
			<polygon class="st1" points="876.2,687.1 876.2,585.8 788.4,535.1 700.7,585.8 700.7,687.1 788.4,737.8 			"/>
			<polygon class="st1" points="686.7,687.1 686.7,585.8 598.9,535.1 511.2,585.8 511.2,687.1 598.9,737.8 			"/>
			<polygon class="st1" points="497.2,687.1 497.2,585.8 409.4,535.1 321.7,585.8 321.7,687.1 409.4,737.8 			"/>
			<polygon class="st1" points="307.7,687.1 307.7,585.8 219.9,535.1 132.2,585.8 132.2,687.1 219.9,737.8 			"/>
			<polygon class="st1" points="1727.2,518.9 1727.2,417.6 1639.5,367 1551.7,417.6 1551.7,518.9 1639.5,569.6 			"/>
			<polygon class="st1" points="1537.7,518.9 1537.7,417.6 1450,367 1362.2,417.6 1362.2,518.9 1450,569.6 			"/>
			<polygon class="st1" points="1348.2,518.9 1348.2,417.6 1260.5,367 1172.7,417.6 1172.7,518.9 1260.5,569.6 			"/>
			<polygon class="st1" points="1158.7,518.9 1158.7,417.6 1071,367 983.2,417.6 983.2,518.9 1071,569.6 			"/>
			<polygon class="st1" points="969.2,518.9 969.2,417.6 881.5,367 793.7,417.6 793.7,518.9 881.5,569.6 			"/>
			<polygon class="st1" points="779.7,518.9 779.7,417.6 692,367 604.2,417.6 604.2,518.9 692,569.6 			"/>
			<polygon class="st1" points="590.2,518.9 590.2,417.6 502.5,367 414.7,417.6 414.7,518.9 502.5,569.6 			"/>
			<polygon class="st1" points="400.7,518.9 400.7,417.6 313,367 225.2,417.6 225.2,518.9 313,569.6 			"/>
		</g>
		<g>
			<polygon class="st1" points="1634.2,346.4 1634.2,245.1 1546.5,194.4 1458.7,245.1 1458.7,346.4 1546.5,397 			"/>
			<polygon class="st1" points="1444.7,346.4 1444.7,245.1 1357,194.4 1269.2,245.1 1269.2,346.4 1357,397 			"/>
			<polygon class="st1" points="1255.2,346.4 1255.2,245.1 1167.5,194.4 1079.7,245.1 1079.7,346.4 1167.5,397 			"/>
			<polygon class="st1" points="1065.7,346.4 1065.7,245.1 978,194.4 890.2,245.1 890.2,346.4 978,397 			"/>
			<polygon class="st1" points="876.2,346.4 876.2,245.1 788.4,194.4 700.7,245.1 700.7,346.4 788.4,397 			"/>
			<polygon class="st1" points="686.7,346.4 686.7,245.1 598.9,194.4 511.2,245.1 511.2,346.4 598.9,397 			"/>
			<polygon class="st1" points="497.2,346.4 497.2,245.1 409.4,194.4 321.7,245.1 321.7,346.4 409.4,397 			"/>
			<polygon class="st1" points="307.7,346.4 307.7,245.1 219.9,194.4 132.2,245.1 132.2,346.4 219.9,397 			"/>
			<polygon class="st1" points="1727.2,178.2 1727.2,76.9 1639.5,26.3 1551.7,76.9 1551.7,178.2 1639.5,228.9 			"/>
			<polygon class="st1" points="1537.7,178.2 1537.7,76.9 1450,26.3 1362.2,76.9 1362.2,178.2 1450,228.9 			"/>
			<polygon class="st1" points="1348.2,178.2 1348.2,76.9 1260.5,26.3 1172.7,76.9 1172.7,178.2 1260.5,228.9 			"/>
			<polygon class="st1" points="1158.7,178.2 1158.7,76.9 1071,26.3 983.2,76.9 983.2,178.2 1071,228.9 			"/>
			<polygon class="st1" points="969.2,178.2 969.2,76.9 881.5,26.3 793.7,76.9 793.7,178.2 881.5,228.9 			"/>
			<polygon class="st1" points="779.7,178.2 779.7,76.9 692,26.3 604.2,76.9 604.2,178.2 692,228.9 			"/>
			<polygon class="st1" points="590.2,178.2 590.2,76.9 502.5,26.3 414.7,76.9 414.7,178.2 502.5,228.9 			"/>
			<polygon class="st1" points="400.7,178.2 400.7,76.9 313,26.3 225.2,76.9 225.2,178.2 313,228.9 			"/>
		</g>
	</g>
</g>
<g id="Box_x5F_Red">
</g>
<g id="Box_x5F_gray">
</g>
<g id="Box_x5F_green">
</g>
<g id="Mic_x5F_red_x5F_001">
</g>
<g id="Mic_x5F_Green_x5F_001">
</g>
<g id="Mic_x5F_red_x5F_002">
</g>
<g id="Mic_x5F_Green_x5F_002">
</g>
<g id="Mic_x5F_red_x5F_003">
</g>
<g id="Mic_x5F_Green_x5F_003">
</g>
<g id="Camada_12">
</g>
<g id="Camada_13">
</g>
<g id="img_x5F_queijo_x5F_001_x5F_">
</g>
<g id="img_x5F_queijo_x5F_001_x5F_bg">
</g>
<g id="img_x5F_queijo_x5F_001_x5F_01">
</g>
<g id="img_x5F_queijo_x5F_001_x5F_02">
</g>
<g id="img_x5F_queijo_x5F_001_x5F_03">
</g>
<g id="img_x5F_Burger_x5F_001_x5F_">
</g>
<g id="img_x5F_Burger_x5F_001_x5F_bg">
</g>
<g id="img_x5F_Burger_x5F_001_x5F_01">
</g>
<g id="img_x5F_Burger_x5F_001_x5F_02">
</g>
<g id="img_x5F_Burger_x5F_001_x5F_03">
</g>
<g id="img_x5F_Burger_x5F_001_x5F_04">
</g>
<g id="img_x5F_Melancia_x5F_001_x5F_">
</g>
<g id="img_x5F_Melancia_x5F_001_x5F_bg">
</g>
<g id="img_x5F_Melancia_x5F_001_x5F_01">
</g>
<g id="img_x5F_Melancia_x5F_001_x5F_02">
</g>
<g id="img_x5F_Melancia_x5F_001_x5F_03">
</g>
<g id="img_x5F_Melancia_x5F_001_x5F_04">
</g>
<g id="img_x5F_Tanborin_x5F_001_x5F_">
</g>
<g id="img_x5F_Tanborin_x5F_001_x5F_bg">
</g>
<g id="img_x5F_Tanborin_x5F_001_x5F_02">
</g>
<g id="img_x5F_Tanborin_x5F_001_x5F_01">
</g>
<g id="img_x5F_Tanborin_x5F_001_x5F_03">
</g>
<g id="img_x5F_Tanborin_x5F_001_x5F_04">
</g>
<g id="img_x5F_Corasao_x5F_001_x5F_">
</g>
<g id="img_x5F_Corasao_x5F_001_x5F_bg">
</g>
<g id="img_x5F_Corasao_x5F_001_x5F_01">
</g>
<g id="img_x5F_Corasao_x5F_001_x5F_02">
</g>
<g id="img_x5F_Corasao_x5F_001_x5F_03">
</g>
<g id="img_x5F_Corasao_x5F_001_x5F_04">
</g>
<g id="img_x5F_Bicicleta_x5F_001_x5F_">
</g>
<g id="img_x5F_Bicicleta_x5F_001_x5F_bg">
</g>
<g id="img_x5F_Bicicleta_x5F_001_x5F_01">
</g>
<g id="img_x5F_Bicicleta_x5F_001_x5F_02">
</g>
<g id="img_x5F_Bicicleta_x5F_001_x5F_03">
</g>
<g id="img_x5F_Bicicleta_x5F_001_x5F_04">
</g>
<g id="Camada_39">
</g>
<g id="Camada_40">
</g>
<g id="Camada_1">
	<g>
		<path class="st2" d="M1841.5,982.3c0,20.3-16.5,36.8-36.8,36.8h-189c-20.3,0-36.8-16.5-36.8-36.8v-189c0-20.3,16.5-36.8,36.8-36.8
			h189c20.3,0,36.8,16.5,36.8,36.8V982.3z"/>
		<path class="st3" d="M1798.8,726.8h-175.5c-40.3,0-73.2,32.9-73.2,73.2v175.5c0,40.3,32.9,73.2,73.2,73.2h175.5
			c40.3,0,73.2-32.9,73.2-73.2V800C1872,759.8,1839,726.8,1798.8,726.8z M1833,975.6c0,18.9-15.3,34.2-34.2,34.2h-175.5
			c-18.9,0-34.2-15.3-34.2-34.2V800c0-18.9,15.3-34.2,34.2-34.2h175.5c18.9,0,34.2,15.3,34.2,34.2V975.6z"/>
		<g>
			<g>
				<path class="st4" d="M1798.8,727.1c-48.4-0.1-96.8,0.7-145.2,1.3l-18.2,0.2l-9.1,0.1c-1.5,0-3,0-4.5,0.1l-2.2,0.1l-2.2,0.2
					c-5.9,0.5-11.7,1.8-17.2,3.8c-5.6,1.9-10.8,4.6-15.8,7.8c-9.8,6.5-18,15.4-23.6,25.7c-2.8,5.2-5,10.7-6.5,16.3
					c-1.5,5.7-2.2,11.6-2.3,17.4l-0.7,72.6L1551,909l-0.2,36.3l0,18.2l0,9.1c0,1.5,0,3,0,4.5l0.1,2.2l0.2,2.2
					c0.5,6,1.8,11.9,3.7,17.5c1.9,5.7,4.7,11,7.9,16c3.3,5,7.2,9.5,11.6,13.6c4.4,4,9.4,7.5,14.6,10.3c5.3,2.8,10.9,5,16.6,6.4
					c5.8,1.4,11.7,2.1,17.7,2.1c48.4-0.5,96.8-0.8,145.2-1l18.2-0.1l9.1,0c1.5,0,3,0,4.5-0.1l2.2-0.1l2.2-0.2
					c5.8-0.5,11.6-1.7,17.1-3.7c5.5-1.9,10.8-4.6,15.7-7.8c9.8-6.4,17.9-15.3,23.5-25.5c2.8-5.1,4.9-10.6,6.4-16.3
					c1.4-5.7,2.1-11.5,2.2-17.3c0.1-24.2,0.1-48.4,0.3-72.6l0.1-18.2l0.2-18.2l0.4-36.3l0.2-18.2l0.1-9.1c0-1.5,0.1-3,0-4.5l0-2.2
					l-0.1-2.2c-0.4-5.9-1.6-11.8-3.5-17.5c-1.8-5.7-4.5-11.1-7.7-16.2c-6.4-10.1-15.5-18.6-26-24.4c-5.3-2.9-10.9-5.1-16.8-6.7
					C1810.8,727.9,1804.8,727.1,1798.8,727.1z M1798.8,726.6c6.1,0,12.1,0.8,18,2.2c5.9,1.5,11.6,3.8,17,6.6
					c5.3,2.9,10.4,6.4,14.9,10.5c1.1,1,2.2,2.1,3.3,3.2c0.5,0.6,1.1,1.1,1.6,1.7l1.5,1.7c1,1.1,1.9,2.4,2.9,3.5
					c0.9,1.2,1.8,2.4,2.7,3.7c3.4,5.1,6.2,10.5,8.3,16.3c2.1,5.8,3.4,11.8,4,17.9l0.2,2.3l0.1,2.3c0.1,1.5,0.1,3,0.1,4.6l0.1,9.1
					l0.2,18.2l0.4,36.3l0.2,18.2l0.1,18.2c0.2,24.2,0.2,48.4,0.3,72.6c0,6.3-0.8,12.5-2.3,18.6c-1.6,6.1-3.9,11.9-6.9,17.5
					c-3,5.5-6.7,10.6-10.9,15.2c-4.3,4.6-9.1,8.7-14.3,12.1c-5.2,3.4-10.9,6.2-16.8,8.2c-5.9,2-12.1,3.3-18.3,3.8l-2.3,0.2l-2.3,0.1
					c-1.6,0.1-3.1,0-4.6,0l-9.1,0l-18.2-0.1c-48.4-0.1-96.8-0.5-145.2-1c-6.2-0.1-12.3-0.9-18.3-2.4c-5.9-1.6-11.7-3.9-17.1-6.9
					c-10.7-6-19.9-14.6-26.6-24.8c-3.3-5.1-6.1-10.7-8-16.5c-2-5.8-3.3-11.8-3.7-17.9l-0.2-2.3l-0.1-2.3c-0.1-1.5,0-3,0-4.6l0-9.1
					l0-18.2L1549,909l-0.4-36.3L1548,800c0-6.2,0.7-12.4,2.2-18.5c1.5-6,3.8-11.9,6.8-17.4c3-5.5,6.6-10.6,10.9-15.2
					c4.2-4.6,9-8.6,14.2-12c10.4-6.8,22.6-11,35-11.8l2.3-0.2l2.3,0c1.6,0,3.1,0,4.6,0l9.1,0.1l18.2,0.2
					C1701.9,725.9,1750.4,726.6,1798.8,726.6z"/>
				<path class="st4" d="M1833.2,975.6c0,4.8-1,9.6-3,14c-2,4.4-4.9,8.4-8.4,11.6c-3.5,3.3-7.8,5.8-12.4,7.3c-1.1,0.4-2.3,0.6-3.5,1
					c-1.2,0.2-2.4,0.4-3.6,0.6l-3.6,0.2l-3.6,0.1l-57.3,0.9c-38.2,0.7-76.4,0.8-114.6,0.5c-5.1,0-10.1-1.2-14.7-3.3
					c-4.6-2.1-8.7-5.2-12-9c-3.3-3.8-5.8-8.2-7.3-13c-0.4-1.2-0.6-2.4-0.9-3.6c-0.2-1.2-0.4-2.5-0.5-3.7l-0.1-3.7l0-3.6l0.4-28.7
					l0.2-28.7c0-9.6,0.1-19.1,0-28.7l-0.1-28.7l-0.1-14.3l-0.1-14.3l-0.3-28.7c-0.1-5,1-10,2.9-14.5c2-4.6,5-8.7,8.6-12.1
					c3.7-3.4,8.1-6,12.8-7.6c1.2-0.4,2.4-0.7,3.6-1c1.2-0.2,2.5-0.4,3.7-0.6l3.8-0.2l3.6,0l57.3-0.4l57.3-0.2
					c19.1-0.1,38.2-0.1,57.3-0.1c5.1,0,10.3,1.1,14.9,3.3c4.7,2.1,8.9,5.2,12.3,9c3.4,3.8,6,8.3,7.6,13.2c0.4,1.2,0.7,2.5,1,3.7
					c0.2,1.3,0.4,2.5,0.6,3.8l0.2,3.8l0,3.6l-0.1,14.3l-0.2,14.3l-0.4,28.7C1834,899.1,1833.2,937.4,1833.2,975.6z M1832.7,975.6
					c0-38.2-0.7-76.4-1.4-114.6l-0.4-28.7l-0.2-14.3l-0.1-14.3l0-3.6l-0.2-3.3c-0.2-1.1-0.3-2.2-0.6-3.3c-0.3-1.1-0.5-2.2-0.9-3.2
					c-1.4-4.2-3.7-8.1-6.7-11.4c-3-3.3-6.6-5.9-10.7-7.7c-4-1.8-8.4-2.7-12.9-2.7c-19.1,0-38.2,0-57.3-0.1l-57.3-0.2l-57.3-0.4
					l-3.6,0l-3.4,0.1c-1.1,0.2-2.2,0.3-3.3,0.5c-1.1,0.3-2.2,0.5-3.3,0.9c-4.3,1.4-8.3,3.6-11.7,6.6c-3.4,3-6.2,6.7-8.1,10.9
					c-1.9,4.1-3,8.7-3,13.3l-0.3,28.7l-0.1,14.3l-0.1,14.3l-0.1,28.7c0,9.6,0,19.1,0,28.7l0.2,28.7l0.4,28.7l0,3.6l0.2,3.4
					c0.2,1.1,0.4,2.3,0.6,3.4c0.3,1.1,0.6,2.2,0.9,3.3c1.5,4.3,3.9,8.3,6.9,11.6c3.1,3.3,6.8,6,11,7.8c4.1,1.8,8.6,2.7,13.1,2.7
					c38.2-0.3,76.4-0.2,114.6,0.5l57.3,0.9l3.6,0.1l3.5-0.1c1.2-0.2,2.3-0.3,3.5-0.5c1.1-0.3,2.3-0.5,3.4-0.9
					c4.5-1.4,8.7-3.8,12.2-6.9C1828.5,994.5,1832.8,985.1,1832.7,975.6z"/>
			</g>
		</g>
		<g>
			<path class="st5" d="M1865.8,798.5L1865.8,798.5c-0.9-12.4-5.3-24.3-12-34.7l0,0c-6.8-10.3-16.3-18.9-27.2-24.7l0,0
				c-10.8-5.7-23.1-8.8-35.3-8.8l-0.4,0h0c-44.9,0.2-89.8,0.5-134.8,2l0,0l-8.2,0.2c-1,0-1.8,0.8-1.8,1.8c0,1,0.7,1.8,1.7,1.9
				l143,8.2l0.1,0c10.1,0,20.1,2.5,29.1,7.2c8.8,4.8,16.5,11.7,22.3,20c5.6,8.4,9.3,18.1,10.2,28.2c0.4,4.9,0.4,10.7,0.4,16.3v0
				l0.1,16.8l0,0.1l7.9,98.6c0.1,1,0.9,1.7,1.9,1.7c1,0,1.8-0.8,1.8-1.8c0.6-32.9,1.1-65.7,1.3-98.6v0l0.1-16.8v0
				c0-2.8,0.1-5.5,0.1-8.3C1866.1,804.7,1866,801.7,1865.8,798.5z"/>
			<path class="st5" d="M1724.7,1035.5l-96-6.2l-0.1,0c-10.3-0.1-20.4-2.9-29.5-7.6c-9-4.9-16.7-12-22.5-20.3
				c-5.6-8.5-9.4-18.3-10.5-28.5c-0.5-5-0.4-10.7-0.6-16.4l0,0l-0.5-16.8l0-0.1l-4.6-57.8c-0.1-1-0.9-1.7-1.9-1.7
				c-1,0-1.8,0.8-1.8,1.8c-0.5,19.3-1,38.5-1.5,57.8v0l-0.5,16.8c-0.1,3.4-0.2,6.8-0.2,10.4c0,2.2,0,4.6,0.2,6.9l0,0
				c0.8,12.2,5,24.1,11.7,34.3l0,0c6.8,10.2,16.1,18.6,26.9,24.4l0,0c10.6,5.6,22.6,8.4,34.5,8.5l0.8,0h0c32-0.5,64-1.4,96.1-1.9
				c1,0,1.8-0.8,1.8-1.8C1726.5,1036.4,1725.7,1035.6,1724.7,1035.5z"/>
		</g>
	</g>
	<g id="Queijo">
		<g>
			<g>
				<path class="st12" d="M1206.3,390.2c-135.7-44.7-259.1-17-259.1-17c66.3,14.8-267.5,148.2-330,138.8c0,1.3,2.4,27.9,5.9,65.5
					c4.6-0.1,9.3,0.3,14,1.4c24.4,5.6,34.7,16.3,30.2,35.6c-3.9,16.9-14.9,27.3-37.5,35.7c3.8,41.2,7.9,84.7,11.2,120.1
					c4.7-0.8,9.8-0.8,15,0.4c17.1,4,27.2,5.2,24.1,18.7c-3.1,13.3-16.6,28.7-34.4,30.4c1.4,15.4,2.3,24.7,2.3,24.7l661.7-56.4
					l29.3-317.7C1338.9,470.4,1342,434.9,1206.3,390.2z"/>
			</g>
			<g>
				<path class="st13" d="M1206.3,390.2c-135.7-44.7-259.1-17-259.1-17c109,15.6-230.6,124.9-330,138.8c-1.3,0.2,2.4,27.9,5.9,65.5
					c4.6-0.1,9.3,0.3,14,1.4c24.4,5.6,40.6,25.9,36.1,45.2c-3.9,16.9-22.4,27.5-43.4,26.1c3.8,41.2,7.9,84.7,11.2,120.1
					c4.7-0.8,9.8-0.8,15,0.4c17.1,4,28.4,18.1,25.3,31.6c-3.1,13.3-18.9,20.9-35.7,17.5c1.4,15.4,2.3,24.7,2.3,24.7l661.7-56.4
					l29.3-317.7C1338.9,470.4,1342,434.9,1206.3,390.2z"/>
			</g>
			<g>
				<path class="st14" d="M1309.7,788.1l-661.7,56.4c0,0-0.9-9.3-2.3-24.7c16.7,3.4,32.6-4.2,35.7-17.5c3.1-13.5-8.2-27.7-25.3-31.6
					c-5.2-1.2-10.3-1.2-15-0.4c-3.3-35.4-7.4-79-11.2-120.1c21,1.5,39.5-9.1,43.4-26.1c4.5-19.3-11.7-39.5-36.1-45.2
					c-4.8-1.1-9.5-1.5-14-1.4c-3.5-37.6-7.2-65.6-5.9-65.5c0,0,141,119,256.6,166.3C989.6,725.5,1309.7,788.1,1309.7,788.1z"/>
			</g>
			<path class="st12" d="M800.7,696.5c-11.1-26.6-37.9-40.7-59.8-31.6c-2.8,1.2-5.3,2.6-7.7,4.4c-16.1,12.1-21.6,37.1-11.9,60.4
				c9.7,23.2,31.4,37,51.3,33.9c2.9-0.4,5.7-1.2,8.5-2.4C803.1,752.1,811.8,723.1,800.7,696.5z"/>
			<path class="st15" d="M781.2,761.2c21.9-9.2,30.6-38.2,19.5-64.8c-11.1-26.6-37.9-40.7-59.8-31.6c-2.8,1.2-5.3,2.6-7.7,4.4
				c-16.1,12.1-21.6,37.1-11.9,60.4c0,0-5.5-12.6,3.2-29.1s46.3-24.2,56.5,6.7C791.4,738.1,781.2,761.2,781.2,761.2z"/>
			<g>
				<path class="st16" d="M1206.3,390.2c-135.7-44.7-259.1-17-259.1-17s-28,11.4-67.6,27.6c0.4,1.1,0.7,2.3,0.8,3.6
					c0.6,11.1-14.1,20.8-32.8,21.8c-8.1,0.4-15.6-0.9-21.6-3.3c-94.1,38.7-208.8,86.5-208.8,89.2l721.8-41.6
					C1338.9,470.4,1342,434.9,1206.3,390.2z"/>
			</g>
			<path class="st12" d="M1007,736.3c-2.2-13.3-9.9-26.4-22.5-35.6c-23.3-17-54.1-14.4-68.9,5.9c-3.7,5.1-6.1,10.8-7.1,16.8
				c-3.1,17.8,5.1,37.9,22.5,50.6c23.3,17,54.1,14.4,68.9-5.9C1006.6,758.9,1008.8,747.5,1007,736.3z"/>
			<path class="st15" d="M999.5,768.1c6.8-9.3,8.9-20.6,7.1-31.9c-2.2-13.3-9.9-26.4-22.5-35.6c-23.3-17-54.1-14.4-68.9,5.9
				c-3.7,5.1-6.1,10.8-7.1,16.8C950.8,699.5,982.8,709.8,999.5,768.1z"/>
			<g>
				<path class="st12" d="M1184.9,547.5c-23.3-17-54.1-14.4-68.9,5.9c-2.7,3.8-4.7,7.9-6,12.1c16.2-12.2,41.1-11.9,60.7,2.4
					c19,13.8,27.1,36.4,21.4,55.3c3.1-2.3,5.9-5.1,8.3-8.3C1215.1,594.7,1208.2,564.5,1184.9,547.5z"/>
				<path class="st14" d="M1170.7,568c-19.6-14.3-44.4-14.6-60.7-2.4c-5.6,18.8,2.5,41.4,21.4,55.3c19.6,14.3,44.4,14.6,60.7,2.4
					C1197.7,604.4,1189.6,581.8,1170.7,568z"/>
			</g>
			
				<ellipse transform="matrix(0.2251 -0.9743 0.9743 0.2251 163.4577 1410.4382)" class="st14" cx="968.5" cy="602.5" rx="38.2" ry="48.4"/>
			<g>
				<path class="st12" d="M977,564.2c-26-6-51,5.8-55.7,26.4c-0.4,1.8-0.6,3.6-0.7,5.5c0.9-1.2,1.8-2.3,2.9-3.4
					c14.9-14.9,42.3-11.7,61.2,7.2c9.6,9.6,15.1,21.3,16.3,32.6c7.3-4.9,12.6-11.7,14.5-20.1C1020.3,591.8,1003,570.2,977,564.2z"/>
			</g>
			<g>
				<path class="st12" d="M1270.9,709c-5-19.1-30-29.2-55.9-22.4c-17.3,4.5-30.5,15.4-35.9,27.8c5.8-4,12.8-7.2,20.5-9.2
					c25.8-6.8,50.6,2.2,55.2,20c2.1,8.2-0.4,16.8-6.3,24.4C1265.3,740,1274.8,724,1270.9,709z"/>
				<path class="st14" d="M1254.9,725.1c-4.7-17.8-29.4-26.7-55.2-20c-7.7,2-14.7,5.2-20.5,9.2c-2.7,6.2-3.5,12.7-1.8,19.1
					c5,19.1,30,29.2,55.9,22.4c5.6-1.5,10.8-3.7,15.5-6.3C1254.5,742,1257.1,733.3,1254.9,725.1z"/>
			</g>
			<ellipse class="st13" cx="957.7" cy="460.5" rx="57.8" ry="22.1"/>
			<path class="st17" d="M970,482.3c26-2.2,45.4-11,45.4-21.6c0-12.2-25.9-22.1-57.8-22.1c-13.7,0-26.3,1.8-36.2,4.9
				C959.1,454.5,978.7,467.1,970,482.3z"/>
			
				<ellipse transform="matrix(0.9986 -5.278660e-02 5.278660e-02 0.9986 -19.3074 53.1273)" class="st13" cx="996.1" cy="392.1" rx="46.2" ry="13.9"/>
			<path class="st17" d="M997.6,406c25.5-1.3,45.8-8.6,45.4-16.3c-0.4-7.6-21.4-12.7-46.9-11.4C1005.5,388,1005.9,397.3,997.6,406z"
				/>
			<ellipse class="st13" cx="1158.2" cy="424.4" rx="64.2" ry="20"/>
			<path class="st17" d="M1158.2,444.4c35.5,0,64.2-9,64.2-20s-28.7-20-64.2-20c-5.8,0-11.4,0.2-16.7,0.7
				C1159.5,418,1164.8,431.2,1158.2,444.4z"/>
		</g>
		<g>
			<path class="st18" d="M1042,364.8c45.8,0,103.9,5.5,164.4,25.5c131.5,43.3,132.7,78,132.6,80.1c0,0.1,0,0.1,0,0.1l-29.3,317.7
				c0,0,0.1,0,0.1,0l-661.7,56.4l0,0l-0.1,0c0,0-0.9-9.3-2.3-24.7c17.7-1.7,31.2-17,34.4-30.2c-3.6-8.7-12.4-16.2-24-18.9
				c-2.6-0.6-5.1-0.9-7.6-1c-0.2,0-0.5,0-0.7,0c-2.2,0-4.4,0.2-6.5,0.5c0,0,0,0,0,0c0,0-0.1,0-0.1,0c-3.3-35.4-7.4-79-11.2-120.1
				c22.6-8.3,33.6-18.7,37.5-35.7c1.6-6.9,1.2-12.7-0.9-17.6c-5.7-7.3-14.2-13.3-24.6-16.7c-1.5-0.4-3-0.9-4.7-1.3c0,0,0,0,0,0
				c-4.3-1-8.6-1.5-12.7-1.5c-0.4,0-0.9,0-1.3,0c-3.5-37.5-7.1-65.5-5.9-65.5c0,0,0,0,0,0c0,0,0.1,0,0.1,0l0,0l0,0L826,422.9
				c5.2,2.2,11.6,3.4,18.5,3.4c1,0,2,0,3.1-0.1c18.7-1,33.4-10.8,32.8-21.8c-0.1-1.2-0.3-2.4-0.8-3.6c39.6-16.2,67.6-27.6,67.6-27.6
				S985.1,364.8,1042,364.8 M1042,359.7c-56.7,0-94.2,8.3-95.8,8.6c-0.3,0.1-0.5,0.1-0.8,0.2c-0.3,0.1-28.4,11.6-67.6,27.6
				c-2.5,1-3.8,3.9-2.8,6.4c0.3,0.8,0.4,1.4,0.5,2.1c0.4,7.1-11.1,15.6-28,16.5c-0.9,0-1.9,0.1-2.8,0.1c-6.1,0-11.8-1.1-16.6-3
				c-0.6-0.3-1.3-0.4-1.9-0.4c-0.7,0-1.4,0.1-2,0.4l-208,88.9c-1,0.2-1.9,0.8-2.6,1.6c-1.7,1.9-1.7,4-1.1,11.9
				c0.4,4.9,1.1,11.6,2,20.1c1.1,10.3,2.4,23.2,3.7,37.3c0.2,2.6,2.4,4.6,5,4.6c0,0,0.1,0,0.1,0c0.4,0,0.8,0,1.2,0
				c3.8,0,7.7,0.4,11.5,1.3c0,0,0.1,0,0.1,0c1,0.2,2,0.5,3,0.8c0.4,0.1,0.9,0.3,1.3,0.4c8.8,2.8,16.5,8,21.7,14.4
				c1.5,3.8,1.7,8.4,0.4,13.9c-3.5,15.1-13.4,24.4-34.3,32c-2.2,0.8-3.5,2.9-3.3,5.2c3.8,41.2,7.9,84.7,11.2,120.1
				c0.1,1.4,0.8,2.7,2,3.5c0.9,0.7,2,1,3.1,1c0,0,0,0,0.1,0c0,0,0,0,0.1,0c0.3,0,0.6,0,0.8-0.1c1.9-0.3,3.8-0.5,5.7-0.5
				c0.2,0,0.4,0,0.6,0c2.2,0,4.4,0.3,6.6,0.8c8.9,2.1,16.4,7.5,19.8,14.4c-3.4,11.1-15.2,23.4-29.5,24.7c-2.8,0.3-4.8,2.7-4.6,5.5
				c1.4,15.4,2.3,24.7,2.3,24.7c0.2,2.6,2.4,4.6,5,4.6c0,0,0,0,0.1,0c0,0,0,0,0.1,0c0.1,0,0.3,0,0.4,0l661.7-56.4
				c2.5-0.2,4.5-2.2,4.6-4.8c0-0.3,0-0.6,0-1l29.2-316.5c0,0,0-0.1,0-0.3c0,0,0-0.1,0-0.1c0.1-2.9-1.1-13.4-18.8-28.6
				c-22.4-19.2-61.9-38.2-117.4-56.5C1156.2,368.4,1100.3,359.7,1042,359.7L1042,359.7z"/>
		</g>
	</g>
	<g id="Queijo_1_">
		<g>
			<g>
				<path class="st12" d="M1781.8,829.6c-40-13.2-76.4-5-76.4-5c19.5,4.4-78.8,43.7-97.3,40.9c0,0.4,0.7,8.2,1.7,19.3
					c1.3,0,2.7,0.1,4.1,0.4c7.2,1.7,10.2,4.8,8.9,10.5c-1.2,5-4.4,8.1-11.1,10.5c1.1,12.1,2.3,25,3.3,35.4c1.4-0.2,2.9-0.2,4.4,0.1
					c5,1.2,8,1.5,7.1,5.5c-0.9,3.9-4.9,8.4-10.1,9c0.4,4.6,0.7,7.3,0.7,7.3l195-16.6l8.6-93.6
					C1820.9,853.2,1821.8,842.8,1781.8,829.6z"/>
			</g>
			<g>
				<path class="st13" d="M1781.8,829.6c-40-13.2-76.4-5-76.4-5c32.1,4.6-68,36.8-97.3,40.9c-0.4,0.1,0.7,8.2,1.7,19.3
					c1.3,0,2.7,0.1,4.1,0.4c7.2,1.7,12,7.6,10.7,13.3c-1.2,5-6.6,8.1-12.8,7.7c1.1,12.1,2.3,25,3.3,35.4c1.4-0.2,2.9-0.2,4.4,0.1
					c5,1.2,8.4,5.3,7.5,9.3c-0.9,3.9-5.6,6.2-10.5,5.1c0.4,4.6,0.7,7.3,0.7,7.3l195-16.6l8.6-93.6
					C1820.9,853.2,1821.8,842.8,1781.8,829.6z"/>
			</g>
			<g>
				<path class="st14" d="M1812.3,946.8l-195,16.6c0,0-0.3-2.7-0.7-7.3c4.9,1,9.6-1.2,10.5-5.1c0.9-4-2.4-8.2-7.5-9.3
					c-1.5-0.4-3-0.4-4.4-0.1c-1-10.4-2.2-23.3-3.3-35.4c6.2,0.4,11.6-2.7,12.8-7.7c1.3-5.7-3.5-11.6-10.7-13.3
					c-1.4-0.3-2.8-0.5-4.1-0.4c-1-11.1-2.1-19.3-1.7-19.3c0,0,41.6,35.1,75.6,49C1717.9,928.4,1812.3,946.8,1812.3,946.8z"/>
			</g>
			<path class="st12" d="M1662.2,919.9c-3.3-7.8-11.2-12-17.6-9.3c-0.8,0.3-1.6,0.8-2.3,1.3c-4.8,3.6-6.4,10.9-3.5,17.8
				s9.3,10.9,15.1,10c0.8-0.1,1.7-0.4,2.5-0.7C1662.9,936.2,1665.5,927.7,1662.2,919.9z"/>
			<path class="st15" d="M1656.5,938.9c6.5-2.7,9-11.2,5.8-19.1s-11.2-12-17.6-9.3c-0.8,0.3-1.6,0.8-2.3,1.3
				c-4.8,3.6-6.4,10.9-3.5,17.8c0,0-1.6-3.7,1-8.6c2.6-4.8,13.6-7.1,16.7,2C1659.5,932.1,1656.5,938.9,1656.5,938.9z"/>
			<g>
				<path class="st16" d="M1781.8,829.6c-40-13.2-76.4-5-76.4-5s-8.2,3.4-19.9,8.1c0.1,0.3,0.2,0.7,0.2,1c0.2,3.3-4.2,6.1-9.7,6.4
					c-2.4,0.1-4.6-0.3-6.4-1c-27.7,11.4-61.5,25.5-61.5,26.3l212.7-12.3C1820.9,853.2,1821.8,842.8,1781.8,829.6z"/>
			</g>
			<path class="st12" d="M1723,931.6c-0.6-3.9-2.9-7.8-6.6-10.5c-6.9-5-16-4.2-20.3,1.7c-1.1,1.5-1.8,3.2-2.1,5
				c-0.9,5.2,1.5,11.2,6.6,14.9c6.9,5,16,4.2,20.3-1.7C1722.9,938.2,1723.6,934.9,1723,931.6z"/>
			<path class="st15" d="M1720.9,941c2-2.7,2.6-6.1,2.1-9.4c-0.6-3.9-2.9-7.8-6.6-10.5c-6.9-5-16-4.2-20.3,1.7
				c-1.1,1.5-1.8,3.2-2.1,5C1706.5,920.7,1715.9,923.8,1720.9,941z"/>
			<g>
				<path class="st12" d="M1775.5,875.9c-6.9-5-16-4.2-20.3,1.7c-0.8,1.1-1.4,2.3-1.8,3.6c4.8-3.6,12.1-3.5,17.9,0.7
					c5.6,4.1,8,10.7,6.3,16.3c0.9-0.7,1.7-1.5,2.4-2.4C1784.4,889.9,1782.4,881,1775.5,875.9z"/>
				<path class="st14" d="M1771.3,882c-5.8-4.2-13.1-4.3-17.9-0.7c-1.7,5.6,0.7,12.2,6.3,16.3c5.8,4.2,13.1,4.3,17.9,0.7
					C1779.3,892.7,1776.9,886,1771.3,882z"/>
			</g>
			
				<ellipse transform="matrix(0.2251 -0.9743 0.9743 0.2251 457.1266 2359.0542)" class="st14" cx="1711.7" cy="892.1" rx="11.3" ry="14.3"/>
			<g>
				<path class="st12" d="M1714.2,880.9c-7.7-1.8-15,1.7-16.4,7.8c-0.1,0.5-0.2,1.1-0.2,1.6c0.3-0.3,0.5-0.7,0.8-1
					c4.4-4.4,12.5-3.5,18,2.1c2.8,2.8,4.5,6.3,4.8,9.6c2.2-1.4,3.7-3.5,4.3-5.9C1727,889,1721.9,882.6,1714.2,880.9z"/>
			</g>
			<g>
				<path class="st12" d="M1800.8,923.5c-1.5-5.6-8.8-8.6-16.5-6.6c-5.1,1.3-9,4.5-10.6,8.2c1.7-1.2,3.8-2.1,6-2.7
					c7.6-2,14.9,0.6,16.3,5.9c0.6,2.4-0.1,5-1.8,7.2C1799.2,932.7,1802,928,1800.8,923.5z"/>
				<path class="st14" d="M1796.1,928.3c-1.4-5.2-8.7-7.9-16.3-5.9c-2.3,0.6-4.3,1.5-6,2.7c-0.8,1.8-1,3.8-0.5,5.6
					c1.5,5.6,8.8,8.6,16.5,6.6c1.7-0.4,3.2-1.1,4.6-1.9C1796,933.3,1796.8,930.7,1796.1,928.3z"/>
			</g>
			<ellipse class="st13" cx="1708.5" cy="850.3" rx="17" ry="6.5"/>
			<path class="st17" d="M1712.1,856.7c7.7-0.6,13.4-3.2,13.4-6.4c0-3.6-7.6-6.5-17-6.5c-4,0-7.7,0.5-10.7,1.4
				C1708.9,848.5,1714.7,852.2,1712.1,856.7z"/>
			
				<ellipse transform="matrix(0.9986 -5.278660e-02 5.278660e-02 0.9986 -41.4217 91.9416)" class="st13" cx="1719.8" cy="830.1" rx="13.6" ry="4.1"/>
			<path class="st17" d="M1720.3,834.2c7.5-0.4,13.5-2.5,13.4-4.8c-0.1-2.3-6.3-3.8-13.8-3.4
				C1722.6,828.9,1722.7,831.7,1720.3,834.2z"/>
			<ellipse class="st13" cx="1767.6" cy="839.7" rx="18.9" ry="5.9"/>
			<path class="st17" d="M1767.6,845.6c10.5,0,18.9-2.6,18.9-5.9s-8.5-5.9-18.9-5.9c-1.7,0-3.4,0.1-4.9,0.2
				C1768,837.8,1769.6,841.6,1767.6,845.6z"/>
		</g>
		<g>
			<path class="st18" d="M1733.4,822.1c13.5,0,30.6,1.6,48.5,7.5c38.8,12.8,39.1,23,39.1,23.6c0,0,0,0,0,0l-8.6,93.6c0,0,0,0,0,0
				l-195,16.6l0,0l0,0c0,0-0.3-2.7-0.7-7.3c5.2-0.5,9.2-5,10.1-8.9c-1-2.6-3.6-4.8-7.1-5.6c-0.8-0.2-1.5-0.3-2.3-0.3
				c-0.1,0-0.1,0-0.2,0c-0.7,0-1.3,0.1-1.9,0.2c0,0,0,0,0,0c0,0,0,0,0,0c-1-10.4-2.2-23.3-3.3-35.4c6.7-2.5,9.9-5.5,11.1-10.5
				c0.5-2,0.4-3.8-0.3-5.2c-1.7-2.2-4.2-3.9-7.2-4.9c-0.5-0.1-0.9-0.3-1.4-0.4c0,0,0,0,0,0c-1.3-0.3-2.5-0.4-3.7-0.4
				c-0.1,0-0.3,0-0.4,0c-1-11.1-2.1-19.3-1.7-19.3c0,0,0,0,0,0c0,0,0,0,0,0l0,0l0,0l61.5-26.3c1.5,0.6,3.4,1,5.5,1
				c0.3,0,0.6,0,0.9,0c5.5-0.3,9.8-3.2,9.7-6.4c0-0.4-0.1-0.7-0.2-1c11.7-4.8,19.9-8.1,19.9-8.1S1716.6,822.1,1733.4,822.1
				 M1733.4,820.6c-16.7,0-27.8,2.4-28.2,2.5c-0.1,0-0.2,0-0.2,0.1c0,0-8.2,3.4-19.9,8.1c-0.7,0.3-1.1,1.1-0.8,1.9
				c0.1,0.2,0.1,0.4,0.1,0.6c0.1,2.1-3.3,4.6-8.3,4.9c-0.3,0-0.6,0-0.8,0c-1.8,0-3.5-0.3-4.9-0.9c-0.2-0.1-0.4-0.1-0.6-0.1
				c-0.2,0-0.4,0-0.6,0.1l-61.3,26.2c-0.3,0.1-0.6,0.2-0.8,0.5c-0.6,0.7-0.6,0.7,0.3,9.4c0.3,3,0.7,6.8,1.1,11
				c0.1,0.8,0.7,1.4,1.5,1.4c0,0,0,0,0,0c0.1,0,0.2,0,0.4,0c1.1,0,2.3,0.1,3.4,0.4c0,0,0.1,0,0.1,0c0.3,0.1,0.6,0.1,0.8,0.2l0.4,0.1
				c2.6,0.8,4.9,2.3,6.4,4.3c0.5,1.1,0.5,2.5,0.1,4.1c-1,4.4-4,7.2-10.1,9.4c-0.6,0.2-1,0.9-1,1.5c1.1,12.1,2.3,25,3.3,35.4
				c0,0.4,0.2,0.8,0.6,1c0.3,0.2,0.6,0.3,0.9,0.3c0,0,0,0,0,0c0,0,0,0,0,0c0.1,0,0.2,0,0.2,0c0.6-0.1,1.1-0.1,1.7-0.1l0.2,0
				c0.7,0,1.3,0.1,1.9,0.2c2.6,0.6,4.8,2.2,5.8,4.2c-1,3.3-4.5,6.9-8.7,7.3c-0.8,0.1-1.4,0.8-1.3,1.6l0.7,7.3
				c0.1,0.8,0.7,1.4,1.5,1.4c0,0,0,0,0,0c0,0,0,0,0,0c0,0,0.1,0,0.1,0l195-16.6c0.7-0.1,1.3-0.7,1.4-1.4c0-0.1,0-0.2,0-0.3l8.6-93.3
				c0,0,0-0.1,0-0.1c0-2-1.7-12.4-40.1-25.1C1767,823.1,1750.5,820.6,1733.4,820.6L1733.4,820.6z"/>
		</g>
	</g>
</g>
</svg>
