<?xml version="1.0" encoding="utf-8"?>
<!-- Generator: Adobe Illustrator 21.0.0, SVG Export Plug-In . SVG Version: 6.00 Build 0)  -->
<svg version="1.1" xmlns="http://www.w3.org/2000/svg" xmlns:xlink="http://www.w3.org/1999/xlink" x="0px" y="0px"
	 viewBox="0 0 800 800" style="enable-background:new 0 0 800 800;" xml:space="preserve">
<style type="text/css">
	.st0{fill:#F2F0F0;}
	.st1{fill:#FFFFFF;}
	.st2{fill:#E2B5B5;}
	.st3{fill:#CE1B1B;}
	.st4{fill:#211915;}
	.st5{fill:#F46262;}
	.st6{fill:#D1D1D1;}
	.st7{fill:#ADADAD;}
	.st8{fill:#C3E0B6;}
	.st9{fill:#67D354;}
	.st10{fill:#98F482;}
	.st11{fill:none;stroke:#070707;stroke-width:6.0459;stroke-linecap:round;stroke-linejoin:round;stroke-miterlimit:10;}
	.st12{fill:#96842A;}
	.st13{fill:#DDCA47;}
	.st14{fill:#B4A135;}
	.st15{fill:#786724;}
	.st16{fill:#EDD974;}
	.st17{fill:#B8A63A;}
	.st18{fill:#150D16;}
	.st19{fill:#7A7A7A;}
	.st20{fill:#070707;}
	.st21{fill:#EAB447;}
	.st22{fill:#0C0903;}
	.st23{fill:#D8A127;}
	.st24{fill:#CC9423;}
	.st25{fill:#BC881E;}
	.st26{fill:#682C0F;}
	.st27{fill:#4C1D0A;}
	.st28{fill:#F7E93E;}
	.st29{fill:#E0CF38;}
	.st30{fill:#C90000;}
	.st31{fill:#B70000;}
	.st32{fill:#57A02B;}
	.st33{fill:#478420;}
	.st34{fill:#1A763D;}
	.st35{fill:#070208;}
	.st36{fill:#11582F;}
	.st37{fill:#0A090A;}
	.st38{fill:#0E5B31;}
	.st39{fill:#F8EEDF;}
	.st40{fill:#C12D1B;}
	.st41{fill:#1D0F10;}
	.st42{fill:#003E1E;}
	.st43{fill:#DBCFC1;}
	.st44{fill:#A0241A;}
	.st45{fill:#2D4484;}
	.st46{fill:#050502;}
	.st47{fill:#1B3163;}
	.st48{fill:#0B1938;}
	.st49{fill:#9C9CA0;}
	.st50{fill:#717177;}
	.st51{fill:#C9C39D;}
	.st52{fill:#FCF9D4;}
	.st53{fill:#F4EFC3;}
	.st54{fill:#C23517;}
	.st55{fill:#A0241B;}
	.st56{fill:#F3E4E5;}
	.st57{fill:#2D1423;}
	.st58{fill:#8A191D;}
	.st59{fill:#6E191C;}
	.st60{fill:#C85D56;}
	.st61{fill:none;}
	.st62{fill:#101B46;}
	.st63{fill:#50A8C9;}
	.st64{fill:#538795;}
	.st65{fill:#101B46;stroke:#070208;stroke-width:2.0705;stroke-miterlimit:10;}
	.st66{fill:#0C0C11;}
	.st67{fill:#7B8A7C;stroke:#0A080A;stroke-width:1.7794;stroke-linecap:round;stroke-linejoin:round;stroke-miterlimit:10;}
	.st68{fill:#7B8A7C;stroke:#0A080A;stroke-width:1.8591;stroke-linecap:round;stroke-linejoin:round;stroke-miterlimit:10;}
	.st69{fill:#87BED5;}
	.st70{fill:#7A7A7A;stroke:#070707;stroke-width:2.8529;stroke-linecap:round;stroke-linejoin:round;stroke-miterlimit:10;}
	.st71{fill:none;stroke:#CE1B1B;stroke-width:15.2467;stroke-linecap:round;stroke-linejoin:round;stroke-miterlimit:10;}
</style>
<g id="BG">
</g>
<g id="Box_x5F_Red">
</g>
<g id="Box_x5F_gray">
</g>
<g id="Box_x5F_green">
</g>
<g id="Mic_x5F_red_x5F_001">
</g>
<g id="Mic_x5F_Green_x5F_001">
</g>
<g id="Mic_x5F_red_x5F_002">
</g>
<g id="Mic_x5F_Green_x5F_002">
</g>
<g id="Mic_x5F_red_x5F_003">
</g>
<g id="Mic_x5F_Green_x5F_003">
</g>
<g id="Camada_12">
</g>
<g id="Camada_13">
</g>
<g id="img_x5F_queijo_x5F_001_x5F_">
</g>
<g id="img_x5F_queijo_x5F_001_x5F_bg">
</g>
<g id="img_x5F_queijo_x5F_001_x5F_01">
</g>
<g id="img_x5F_queijo_x5F_001_x5F_02">
</g>
<g id="img_x5F_queijo_x5F_001_x5F_03">
</g>
<g id="img_x5F_Burger_x5F_001_x5F_">
	<g id="Hambúrguer_1_">
		<g>
			<path class="st21" d="M401.6,623.8c-48.1,0-95.1-3.8-135.9-11.1c-7.2-1.3-14.2-2.7-20.9-4.1c-10.1-2.2-19.7-4.6-28.6-7.2
				c-50.5-14.8-78.3-34.8-78.4-56.4c-0.2-1.8-2.1-21.2-2.8-38c-0.4-12-0.1-19.8,0.9-23.8c0.5-1.8,1.2-2.8,1.9-3.5
				c0.1-1.1,0.3-2.2,0.5-3.4c-3.1-5.3-4.6-10.8-4.6-16.1c0-1.5,0.1-3.1,0.4-4.7c-0.3-1.6-0.4-3.2-0.4-4.7c0-1.3,0.1-2.6,0.3-4.2
				c0.1-0.4,0.1-0.9,0.2-1.3c0.2-0.8,0.3-1.6,0.6-2.4c-9.7,1.5-16.3,3.5-16.3,3.5c-0.3,0.1-0.5,0.1-0.8,0.1c-0.6,0-1.1-0.2-1.6-0.5
				c-0.7-0.5-1.1-1.3-1.1-2.1c-0.1-3.7,2.7-9.4,25.2-20.3l0-19.3c0.1-2.2,0.6-4.3,1.6-6.4c-6.7,1.1-14.1,2.3-21.5,3.4
				c-7.9,1.2-13.5,1.7-17.1,1.7c-2.5,0-4.1-0.3-5.2-0.9c-4.6-0.9-5.9-3.2-6.2-5c-1.1-6.7,12.9-17.6,41.5-32.4
				c0.4-7.9,1-15.6,1.8-22.9c5.7-48.5,22.2-85,50.3-111.6c0,0,0.1-0.1,0.1-0.1c2-1.9,4-3.7,6.2-5.5c0.9-0.8,1.9-1.6,2.8-2.3
				c1.1-0.9,2.2-1.7,3.2-2.5c38.6-29.4,94.7-43.1,176.8-43.1c10.3,0,21.3,0.2,32.9,0.6c82.3,3,137.3,14.6,178.3,37.7
				c50.8,28.6,77.9,74.9,82.8,141.4c1.2,0.4,2.3,0.7,3.2,0.9c11,2.6,14.7,4,15.3,7.4c0.6,3.4-2.6,5.7-9.2,10.2
				c-2.4,1.6-5.3,3.6-8.5,6.1l0,0.5c0,2.3,0,4.7-0.1,7c0,1.1-0.1,2.3-0.2,3.4c0,0.7-0.1,1.4-0.1,2.2c0,0.4-0.1,0.7-0.3,1
				c6.1,4.1,10.3,8.4,12.4,12.9c0,0,0.1,0,0.1,0c7.7,2.7,11.5,5.8,11.7,9.6c0.1,2.1-0.8,4-2.9,5.8c19.3,13.8,18.4,17.3,17.9,19.3
				c-1,3.7-6.2,6.6-19.3,10.3c-0.1,0.9-0.2,1.7-0.3,2.6c0.3,1.6,0.4,3.2,0.4,4.7c0,3-0.5,6.2-1.5,9.2c-0.3,0.9-0.7,1.8-1.1,2.7
				l-0.1,0.3c-0.1,0.1-0.1,0.3-0.2,0.4c-0.1,0.3-0.3,0.7-0.4,1c-0.4,0.8-0.9,1.6-1.3,2.4l-0.5,0.8c-0.2,0.4-0.4,0.8-0.7,1.2
				c-0.5,0.8-1.1,1.5-1.6,2.2l-0.5,0.7c-0.3,0.4-0.6,0.8-1,1.3c-0.6,0.8-1.3,1.6-2,2.3l-0.3,0.4c-0.4,0.5-0.8,0.9-1.3,1.4
				c-0.8,0.8-1.6,1.6-2.4,2.3l-0.1,0.1c-0.6,0.5-1.1,1-1.7,1.6c-0.9,0.8-1.9,1.6-2.7,2.2c-0.7,0.6-1.4,1.1-2.1,1.7
				c-0.6,0.5-1.3,0.9-1.9,1.4v49.1c0,19.2-21.2,36.9-61.4,51.1c-5.4,1.9-11.1,3.7-17,5.5c-8.9,2.6-18.5,5-28.6,7.2
				c-6.7,1.5-13.8,2.9-20.9,4.1C496.6,619.9,449.6,623.8,401.6,623.8z"/>
			<path class="st22" d="M374.6,179.1c10.7,0,21.7,0.2,32.8,0.6c137.1,5,249,35.2,258.7,178.4c1.9,0.7,3.6,1.2,5.1,1.6
				c22.3,5.3,13.8,5.9-4.4,19.7c0,2.9,0,5.8-0.1,8.8c-0.1,1.8-0.2,3.7-0.3,5.5c-0.5,0.6-1.1,1.1-1.7,1.7c7.5,4.5,12.5,9.4,14.5,14.4
				c0.4,0.1,0.8,0.2,1.2,0.4c12.3,4.3,12.3,9,5,12.7c12.8,8.9,20.8,15.9,20.1,18.7c-0.8,2.9-8.1,5.8-19.3,8.9c0,1.6-0.2,3.1-0.4,4.7
				c0.3,1.6,0.4,3.1,0.4,4.7c0,2.8-0.5,5.7-1.4,8.4v0l0,0c-0.3,0.9-0.7,1.9-1.1,2.8c-0.2,0.4-0.3,0.9-0.6,1.3
				c-0.4,0.8-0.9,1.7-1.4,2.5c-0.3,0.5-0.6,1-0.9,1.6c-0.5,0.8-1.1,1.6-1.7,2.4c-0.4,0.5-0.8,1.1-1.2,1.6c-0.6,0.8-1.3,1.5-2,2.3
				c-0.5,0.5-1,1.1-1.5,1.6c-0.7,0.7-1.5,1.5-2.3,2.2c-0.6,0.5-1.2,1.1-1.8,1.6c-0.8,0.7-1.7,1.4-2.6,2.1c-0.7,0.5-1.4,1.1-2.1,1.6
				c-0.9,0.7-1.9,1.4-2.9,2.1c0,0-0.1,0.1-0.1,0.1v50.5c0,18.5-22.4,35.4-59.7,48.6c-5.3,1.9-11,3.7-16.9,5.4
				c-8.9,2.6-18.4,5-28.4,7.2c-6.7,1.5-13.7,2.8-20.8,4.1c-39.5,7-85.9,11.1-135.5,11.1h0c-49.6,0-96-4-135.5-11.1
				c-7.2-1.3-14.1-2.7-20.8-4.1c-10.1-2.2-19.6-4.6-28.4-7.2c-47.3-13.8-76.5-32.9-76.5-54c0,0-2.1-20.3-2.8-38
				c-0.4-9.8-0.3-18.8,0.9-23c0.4-1.6,1-2.5,1.8-2.5c0,0,0.1,0,0.1,0c0-1.9,0.3-3.7,0.8-5.6c-3.1-5.1-4.8-10.3-4.8-15.7
				c0-1.6,0.2-3.1,0.4-4.7c-0.3-1.6-0.4-3.1-0.4-4.7c0-1.3,0.1-2.6,0.3-3.8c0.1-0.4,0.1-0.8,0.2-1.2c0.2-0.9,0.4-1.8,0.6-2.6
				c0.1-0.5,0.2-0.9,0.4-1.4c0.2-0.7,0.5-1.4,0.8-2.1c-12.4,1.6-21,4.2-21,4.2c0,0,0,0,0,0l0,0c-0.2-4.5,9.5-11.1,25.2-18.6l0.1-21
				c0.1-3.5,1.7-6.9,4.6-10c-9.1,1.5-18.4,3.1-27.6,4.4c-7.9,1.2-13.3,1.7-16.7,1.7c-2.4,0-3.7-0.3-4.2-0.8
				c-15.1-2.4,8.4-18.7,36.8-33.3c0.3-8.2,0.9-16.3,1.9-24.2c5.9-50,23.5-85.3,49.5-110c0,0,0,0,0,0c2-1.9,4-3.7,6.1-5.4
				c0.9-0.8,1.8-1.5,2.8-2.3c1-0.8,2.1-1.7,3.2-2.5C242.6,188.7,304.5,179.1,374.6,179.1 M374.6,173.8
				c-82.7,0-139.4,13.9-178.4,43.7c-1.1,0.9-2.2,1.7-3.3,2.5c-0.9,0.8-1.9,1.6-2.9,2.4c-2.2,1.8-4.3,3.7-6.3,5.6c0,0,0,0-0.1,0.1v0
				c-13.8,13.1-25.1,28.9-33.5,47.1c-8.8,19-14.7,41.2-17.7,66.1c-0.8,6.9-1.4,14.1-1.8,21.6c-11.1,5.8-20.6,11.5-27.6,16.4
				c-10.7,7.5-14.9,12.9-14,18.1c0.3,2.1,1.8,5.8,7.9,7.1c1.8,0.9,4,1,6.2,1c3.8,0,9.5-0.6,17.5-1.8c5.9-0.9,11.7-1.8,17.2-2.7
				c-0.2,1-0.3,1.9-0.3,2.9c0,0.1,0,0.1,0,0.2l0,17.7c-6.9,3.4-12.4,6.6-16.3,9.4c-3.9,2.8-9,7.1-8.8,12.6c0,1.6,0.8,3.2,2.1,4.1
				c0.9,0.7,2,1,3.2,1c0.5,0,1-0.1,1.5-0.2c0.1,0,4.8-1.4,12.2-2.8c0,0,0,0,0,0c-0.3,1.7-0.4,3.2-0.4,4.6c0,1.5,0.1,3.1,0.4,4.7
				c-0.2,1.6-0.4,3.2-0.4,4.7c0,5.5,1.5,11.1,4.5,16.6c-0.1,0.6-0.2,1.3-0.3,1.9c-0.8,0.9-1.4,2.2-1.9,4c-1.2,4.3-1.5,12.3-1,24.6
				c0.6,16.5,2.5,35.6,2.8,38.1c0.1,12.1,7.8,23.4,22.8,33.8c13.6,9.4,33,17.8,57.5,25c9,2.6,18.6,5.1,28.8,7.3
				c6.8,1.5,13.8,2.9,21,4.2c41,7.3,88.2,11.1,136.4,11.1c48.2,0,95.4-3.9,136.4-11.1c7.2-1.3,14.3-2.7,21-4.2
				c10.1-2.2,19.8-4.7,28.8-7.3c6-1.7,11.7-3.6,17.1-5.5c41.3-14.6,63.2-33.2,63.2-53.6v-47.8c0.3-0.2,0.6-0.4,0.9-0.7
				c0.8-0.6,1.6-1.2,2.2-1.7c1.1-0.9,2-1.6,2.7-2.3c0.6-0.5,1.2-1.1,1.7-1.6l0.2-0.2c0.8-0.8,1.7-1.5,2.5-2.4c0.5-0.5,0.9-1,1.4-1.5
				l0.3-0.3l0.1-0.1c0.7-0.8,1.4-1.6,2.1-2.4c0.4-0.5,0.7-1,1-1.4l0.3-0.4l0.2-0.3c0.6-0.8,1.1-1.5,1.7-2.4c0.3-0.5,0.6-0.9,0.8-1.3
				c0.1-0.2,0.2-0.3,0.3-0.5l0.2-0.3c0.4-0.8,0.9-1.6,1.4-2.5c0.2-0.5,0.4-0.9,0.5-1.2c0-0.1,0.1-0.2,0.1-0.4l0.1-0.3
				c0.4-0.9,0.8-1.8,1.1-2.9c0,0,0,0,0-0.1c1.1-3.3,1.6-6.7,1.6-10.1c0-1.5-0.1-3.1-0.4-4.7c0-0.2,0.1-0.4,0.1-0.6
				c13.2-3.9,18.2-7,19.4-11.7c1.1-4.5-2.5-8.5-6.5-12.3c-2.5-2.3-5.9-5-10-8.1c1.4-2,1.7-4,1.6-5.6c-0.4-6.2-7.2-9.6-12.6-11.6
				c-2.3-4.2-6.1-8.2-11.4-11.9c0-0.6,0.1-1.2,0.1-1.8c0.1-1.1,0.1-2.3,0.2-3.5c0.1-2.1,0.1-4.2,0.1-6.3c2.8-2,5.3-3.8,7.4-5.2
				c2.8-1.9,5-3.4,6.6-4.8c1.1-0.9,4.5-3.8,3.7-8c-1-5.4-6.9-7-17.3-9.5c-0.4-0.1-0.8-0.2-1.3-0.3c-2.7-33.7-11.4-62.8-25.7-86.4
				c-13.8-22.7-33.4-41.3-58.3-55.3c-22.4-12.6-49.2-21.8-81.8-28.1c-27.4-5.3-59.4-8.5-97.7-9.9C396,174,384.9,173.8,374.6,173.8
				L374.6,173.8z"/>
		</g>
		<g>
			<path class="st23" d="M662.9,544.5c0,42.2-117,76.4-261.3,76.4s-261.3-34.2-261.3-76.4c0,0-6.7-64.3,0-63.5
				c6.7,0.8,522.5,0,522.5,0V544.5z"/>
			<path class="st24" d="M662.9,544.5c0,42.2-117,76.4-261.3,76.4s-261.3-34.2-261.3-76.4c0,0-6.7-64.3,0-63.5
				c6.7,0.8,123.4,0,123.4,0C326.9,630.8,610.2,629,662.9,544.5z"/>
			<ellipse class="st25" cx="401.7" cy="481" rx="261.3" ry="76.4"/>
		</g>
		<g>
			<path class="st26" d="M686.3,450.4c0-46.9-123.1-84.9-275-84.9s-275,38-275,84.9c0,1.6,0.2,3.1,0.4,4.7c-0.3,1.6-0.4,3.1-0.4,4.7
				c0,46.9,123.1,84.9,275,84.9s275-38,275-84.9c0-1.6-0.2-3.1-0.4-4.7C686.1,453.5,686.3,451.9,686.3,450.4z"/>
			<g>
				<path class="st27" d="M145.9,444.5c0-1.6,0.2-3.1,0.4-4.7c-0.3-1.6-0.4-3.1-0.4-4.7c0-2.8,0.5-5.7,1.4-8.4
					c-7.1,7.5-10.9,15.5-10.9,23.7c0,1.6,0.2,3.1,0.4,4.7c-0.3,1.6-0.4,3.1-0.4,4.7c0,46.9,123.1,84.9,275,84.9
					c142.6,0,259.9-33.5,273.6-76.5c-33.2,35.4-138.8,61.2-264,61.2C269.1,529.4,145.9,491.4,145.9,444.5z"/>
			</g>
			<g>
				<ellipse class="st27" cx="169.7" cy="477.9" rx="4.2" ry="4.6"/>
			</g>
			<g>
				<ellipse class="st27" cx="181.1" cy="477.9" rx="4.2" ry="4.6"/>
			</g>
			<g>
				<ellipse class="st27" cx="189.5" cy="493.9" rx="4.2" ry="4.6"/>
			</g>
			<g>
				<ellipse class="st27" cx="202.4" cy="485.7" rx="4.2" ry="4.6"/>
			</g>
			<g>
				<ellipse class="st27" cx="218.8" cy="503.2" rx="4.2" ry="4.6"/>
			</g>
			<g>
				<ellipse class="st27" cx="233.1" cy="498.6" rx="4.2" ry="4.6"/>
			</g>
			<g>
				<ellipse class="st27" cx="250.6" cy="512.5" rx="4.2" ry="4.6"/>
			</g>
		</g>
		<path class="st28" d="M117.8,443.4c0,0,31.5-9.6,60.6-3.4c29,6.2,188.7,73.7,204.6,94.9c15.9,21.2,29.7,55.4,41.1,54.8
			c11.4-0.6,107.5-87.9,149.2-107.7c41.7-19.8,129.6-30,132.3-40.5c2.7-10.5-121-83.6-158.2-82.4s-133.4-6.3-191.7,0.9
			S116.9,424,117.8,443.4z"/>
		<path class="st29" d="M449.7,572.8c-13,10-22.5,16.7-25.6,16.9c-11.4,0.6-25.3-33.6-41.1-54.8c-15.9-21.2-175.6-88.7-204.6-94.9
			c-29-6.2-60.6,3.4-60.6,3.4c-0.9-19.4,179.7-76.3,237.9-83.5s154.5,0.4,191.7-0.9c0,0,11.9,115.5-7.1,118.8s-93.3,23.8-97.8,34.6
			c-4.4,10.8-40.9,21.9-21.9,45C439.5,580.5,449.7,572.8,449.7,572.8z"/>
		<g>
			<path class="st30" d="M411.7,437.3c0,22.4-60.2,40.5-134.4,40.5s-134.4-18.2-134.4-40.5l0.1-33.5l268.6,10.5L411.7,437.3z"/>
			<path class="st31" d="M411.6,414.3c-0.7,22.4-61.4,38.2-135.6,35.3s-133.7-23.4-133-45.8c0.7-22.4,61.4-38.2,135.6-35.3
				S412.3,392,411.6,414.3z"/>
		</g>
		<g>
			<path class="st30" d="M680.5,438.1c0,22.4-60.2,40.5-134.4,40.5s-134.4-18.2-134.4-40.5l0.1-33.5l268.6,10.5L680.5,438.1z"/>
			<path class="st31" d="M680.4,415.1c-0.7,22.4-61.4,38.2-135.6,35.3s-133.7-23.4-133-45.8s61.4-38.2,135.6-35.3
				C621.6,372.3,681.2,392.8,680.4,415.1z"/>
		</g>
		<path class="st32" d="M179.7,346.6c-43,15.2-125.9,61.2-61.9,51.6s131.1-26.9,109.8,1.2c-21.3,28.1-44.7,48.1-12.8,38.7
			s35.1-0.8,51,22.5c16,23.3,1.1,62,36.2,17.4s21.3-70.4,43.6-39.9c22.3,30.5,30.8,49.1,43.6,19.9c12.8-29.3-24.5-71,34-28.4
			s35.1,71.9,58.5,42.6c23.4-29.3-8.5-29.4,43.6-19.8c52.1,9.6,81.9,2.1,72.3-15.5c-9.6-17.6-49.6-28,1.8-13.4
			c51.4,14.6,116.1-1.3,81-13.6s-44.5-7-22.2-25.8c22.3-18.8,35.3-18.8,10.6-24.7s-104.2-58.7-187.2-49.3S197.1,340.5,179.7,346.6z"
			/>
		<path class="st33" d="M196.9,360.1c-43,15.2-141,47.7-76.9,38.2s131.1-26.9,109.8,1.2c-21.3,28.1-44.7,48.1-12.8,38.7
			s35.1-0.8,51,22.5s1.7,38.6,36.8-6s20.7-47,43-16.5s20.4,35.6,33.2,6.3c12.8-29.3-14-57.4,44.5-14.8s30.2,56.2,53.6,26.9
			c23.4-29.3-3.6-13.7,48.5-4.1c52.1,9.6,50.9,3.1,41.3-14.5c-9.6-17.6-18.6-29,32.8-14.4c51.4,14.6,80.5-0.3,45.3-12.5
			s-8.8-8.1,13.5-26.9c22.3-18.8,35.3-18.8,10.6-24.7S567,300.8,484,310.2S214.4,353.9,196.9,360.1z"/>
		<path class="st23" d="M666.3,360.5c-8.5-145.5-121-176-258.9-181c-137.9-5-252,17.2-269.1,161.8c-1.1,9-1.8,18.1-2.1,27.4
			c-0.1,1.8,0,3.7,0,5.5c26,33.6,133.7,61.9,263.4,66.6c129.7,4.7,238.9-15.7,266.8-47.3c0.1-1.8,0.2-3.7,0.3-5.5
			C667,378.7,666.9,369.6,666.3,360.5z"/>
		<path class="st24" d="M560.3,432.9c-45.2,7.2-101,10.4-161.1,8.2c-129.7-4.7-237.4-33-263.4-66.6c0-1.8,0-3.7,0-5.5
			c0.3-9.3,1-18.4,2.1-27.4c13.4-112.7,85.6-151,182.1-160.1C165.2,338.2,330.1,395.7,560.3,432.9z"/>
		<g>
			<path class="st21" d="M217,225.4l10.9-1.1c1.5-0.1,2.5-1.6,2.4-3.2c-0.1-1.6-1.4-2.8-2.9-2.6l-10.9,1.1c-1.5,0.1-2.5,1.6-2.4,3.2
				C214.3,224.3,215.5,225.5,217,225.4"/>
			<path class="st21" d="M257.7,242.3l16.3-13.7c1.2-1,1.4-2.8,0.5-4.1c-0.9-1.3-2.5-1.5-3.7-0.6l-16.3,13.7c-1.2,1-1.4,2.8-0.5,4.1
				C254.8,243.1,256.5,243.3,257.7,242.3"/>
			<path class="st21" d="M341.2,256.8l10.6,8.5c1.2,1,2.8,0.7,3.7-0.6c0.9-1.3,0.6-3.1-0.6-4.1l-10.6-8.5c-1.2-1-2.8-0.7-3.7,0.6
				C339.7,254,340,255.8,341.2,256.8"/>
			<path class="st21" d="M364.5,228.9l14.9-5c1.4-0.5,2.2-2.1,1.8-3.6c-0.4-1.5-1.9-2.4-3.3-1.9l-14.9,5c-1.4,0.5-2.2,2.1-1.8,3.6
				C361.6,228.5,363.1,229.4,364.5,228.9"/>
			<path class="st21" d="M405,221.9l14.1,9.8c1.2,0.9,2.9,0.5,3.6-0.9c0.8-1.4,0.4-3.2-0.8-4l-14.1-9.8c-1.2-0.9-2.9-0.5-3.6,0.9
				S403.8,221,405,221.9"/>
			<path class="st21" d="M441.6,237.7l9.5-6.4c1.2-0.8,1.6-2.6,0.9-4c-0.8-1.4-2.4-1.8-3.6-1l-9.5,6.4c-1.2,0.8-1.6,2.6-0.9,4
				C438.7,238.1,440.3,238.6,441.6,237.7"/>
			<path class="st21" d="M469.5,235.3l10,12.8c1,1.2,2.6,1.4,3.7,0.3c1.1-1.1,1.2-2.9,0.3-4.1l-10-12.8c-1-1.2-2.6-1.4-3.7-0.3
				C468.7,232.2,468.6,234.1,469.5,235.3"/>
			<path class="st21" d="M503.7,256.2l10.9-6.5c1.3-0.8,1.8-2.5,1.1-4c-0.7-1.4-2.3-1.9-3.6-1.2l-10.9,6.5c-1.3,0.8-1.8,2.5-1.1,4
				C500.8,256.5,502.4,257,503.7,256.2"/>
			<path class="st21" d="M534.2,237.3l12.3,0.7c1.5,0.1,2.7-1.1,2.8-2.8c0.1-1.6-1-3-2.5-3.1l-12.3-0.7c-1.5-0.1-2.7,1.1-2.8,2.8
				C531.7,235.8,532.8,237.2,534.2,237.3"/>
			<path class="st21" d="M555.7,259.1l6.8,5.3c1.2,0.9,2.8,0.6,3.7-0.7c0.8-1.3,0.6-3.1-0.6-4.1l-6.8-5.3c-1.2-0.9-2.8-0.6-3.7,0.7
				C554.2,256.4,554.5,258.2,555.7,259.1"/>
			<path class="st21" d="M577.5,231l11.5,0.7c1.5,0.1,2.7-1.1,2.8-2.8c0.1-1.6-1-3-2.5-3.1l-11.5-0.7c-1.5-0.1-2.7,1.1-2.8,2.8
				C574.9,229.5,576,230.9,577.5,231"/>
			<path class="st21" d="M539,218.8l-13.7-9.6c-1.2-0.9-2.9-0.5-3.7,0.9c-0.8,1.4-0.4,3.2,0.8,4l13.7,9.6c1.2,0.9,2.9,0.5,3.7-0.9
				C540.6,221.5,540.3,219.7,539,218.8"/>
			<path class="st21" d="M504.2,205.1l-10.7,1.6c-1.4,0.2-2.5,1.7-2.3,3.3c0.2,1.6,1.5,2.7,3,2.5l10.7-1.6c1.4-0.2,2.5-1.7,2.3-3.3
				C507,206,505.7,204.9,504.2,205.1"/>
			<path class="st21" d="M475.6,205.8l-11.9-13.5c-1-1.2-2.7-1.2-3.7,0c-1,1.1-1.1,3,0,4.1l11.9,13.5c1,1.2,2.7,1.2,3.7,0
				C476.6,208.8,476.6,206.9,475.6,205.8"/>
			<path class="st21" d="M441.3,208.9l-8.6-6.6c-1.2-0.9-2.8-0.6-3.7,0.7c-0.8,1.3-0.5,3.1,0.7,4.1l8.6,6.6c1.2,0.9,2.8,0.6,3.7-0.7
				C442.8,211.7,442.5,209.8,441.3,208.9"/>
			<path class="st21" d="M397.7,197l-8.4-0.5c-1.5-0.1-2.7,1.1-2.8,2.8c-0.1,1.6,1,3,2.5,3.1l8.4,0.5c1.5,0.1,2.7-1.1,2.8-2.8
				C400.3,198.4,399.2,197.1,397.7,197"/>
			<path class="st21" d="M357.7,204.7l1.4,10.4c0.2,1.6,1.6,2.7,3,2.4c1.4-0.2,2.4-1.7,2.2-3.3l-1.4-10.4c-0.2-1.6-1.6-2.7-3-2.4
				C358.5,201.7,357.5,203.2,357.7,204.7"/>
			<path class="st21" d="M326.4,208.6l-14.9-3.1c-1.4-0.3-2.8,0.7-3.1,2.3c-0.3,1.6,0.7,3.1,2.1,3.4l14.9,3.1
				c1.4,0.3,2.8-0.7,3.1-2.3C328.8,210.4,327.8,208.9,326.4,208.6"/>
			<path class="st21" d="M302.6,226.8l3.2,13.3c0.4,1.6,1.8,2.5,3.2,2.1c1.4-0.4,2.3-2,1.9-3.6l-3.2-13.3c-0.4-1.6-1.8-2.5-3.2-2.1
				C303,223.7,302.2,225.3,302.6,226.8"/>
			<path class="st21" d="M291.1,243.6l-12.3-0.7c-1.5-0.1-2.7,1.1-2.8,2.8c-0.1,1.6,1,3,2.5,3.1l12.3,0.7c1.5,0.1,2.7-1.1,2.8-2.8
				C293.7,245,292.6,243.7,291.1,243.6"/>
			<path class="st21" d="M253.8,257.4l-7.7-7.6c-1.1-1.1-2.8-1-3.7,0.2c-1,1.2-0.9,3,0.2,4.1l7.7,7.6c1.1,1.1,2.8,1,3.7-0.2
				C254.9,260.4,254.8,258.5,253.8,257.4"/>
			<path class="st21" d="M396.2,249.7l10.8,0.6c1.5,0.1,2.7-1.1,2.8-2.8c0.1-1.6-1-3-2.5-3.1l-10.8-0.6c-1.5-0.1-2.7,1.1-2.8,2.8
				C393.6,248.3,394.7,249.6,396.2,249.7"/>
			<path class="st21" d="M456.4,265.8l-9.5,11.9c-1,1.2-0.9,3.1,0.2,4.1c1.1,1.1,2.8,0.9,3.7-0.3l9.5-11.9c1-1.2,0.9-3.1-0.2-4.1
				C459,264.4,457.3,264.5,456.4,265.8"/>
			<path class="st21" d="M478,266.2l11.8,11.4c1.1,1.1,2.8,0.9,3.7-0.3c1-1.2,0.9-3.1-0.2-4.1l-11.8-11.4c-1.1-1.1-2.8-0.9-3.7,0.3
				C476.8,263.2,477,265.1,478,266.2"/>
			<path class="st21" d="M516,301.1l5.9-15.9c0.6-1.5-0.1-3.2-1.4-3.8c-1.4-0.6-2.9,0.1-3.4,1.6l-5.9,15.9c-0.6,1.5,0.1,3.2,1.4,3.8
				C513.9,303.3,515.4,302.6,516,301.1"/>
			<path class="st21" d="M542.7,278.1l8.3,11.7c0.9,1.3,2.6,1.5,3.7,0.5c1.2-1,1.4-2.8,0.5-4.1l-8.3-11.7c-0.9-1.3-2.6-1.5-3.7-0.5
				C542,275,541.8,276.9,542.7,278.1"/>
			<path class="st21" d="M563.8,295.4l14.2-7c1.3-0.7,1.9-2.4,1.3-3.9c-0.6-1.5-2.2-2.1-3.5-1.5l-14.2,7c-1.3,0.7-1.9,2.4-1.3,3.8
				S562.4,296.1,563.8,295.4"/>
			<path class="st21" d="M587.5,303.8l8.1-3.7c1.4-0.6,2-2.3,1.4-3.8c-0.6-1.5-2.1-2.2-3.5-1.6l-8.1,3.7c-1.4,0.6-2,2.3-1.4,3.8
				C584.6,303.7,586.2,304.4,587.5,303.8"/>
			<path class="st21" d="M603.2,294.8l2.3-12c0.3-1.6-0.6-3.1-2-3.5c-1.4-0.3-2.8,0.7-3.1,2.2l-2.3,12c-0.3,1.6,0.6,3.1,2,3.5
				C601.4,297.4,602.9,296.4,603.2,294.8"/>
			<path class="st21" d="M610.2,273.4l8.7-4.8c1.3-0.7,1.8-2.5,1.2-3.9c-0.7-1.4-2.2-2-3.6-1.3l-8.7,4.8c-1.3,0.7-1.8,2.5-1.2,3.9
				C607.3,273.5,608.9,274.1,610.2,273.4"/>
			<path class="st21" d="M426.6,293.8l-13.1,2.9c-1.4,0.3-2.4,1.9-2.1,3.4c0.3,1.6,1.7,2.6,3.1,2.3l13.1-2.9
				c1.4-0.3,2.4-1.9,2.1-3.4C429.4,294.5,428,293.5,426.6,293.8"/>
			<path class="st21" d="M383.1,312.3l-7.5-8.2c-1-1.1-2.7-1.1-3.7,0c-1,1.1-1,3,0,4.1l7.5,8.2c1,1.1,2.7,1.1,3.7,0
				C384.1,315.3,384.1,313.5,383.1,312.3"/>
			<path class="st21" d="M355,283.4l-15.2,4c-1.4,0.4-2.3,1.9-2,3.5s1.8,2.5,3.2,2.2l15.2-4c1.4-0.4,2.3-1.9,2-3.5
				S356.4,283,355,283.4"/>
			<path class="st21" d="M374.7,246.4l2.2,11.5c0.3,1.6,1.7,2.6,3.1,2.3c1.4-0.3,2.3-1.9,2.1-3.4l-2.2-11.5
				c-0.3-1.6-1.7-2.6-3.1-2.3C375.3,243.3,374.4,244.8,374.7,246.4"/>
			<path class="st21" d="M383.5,287.6l14.6,6c1.4,0.6,2.9-0.2,3.4-1.7c0.5-1.5-0.2-3.2-1.6-3.7l-14.6-6c-1.4-0.6-2.9,0.2-3.4,1.7
				C381.4,285.4,382.1,287.1,383.5,287.6"/>
			<path class="st21" d="M309.4,272.9l3.6,10.6c0.5,1.5,2,2.3,3.4,1.7c1.4-0.6,2.1-2.3,1.5-3.8l-3.6-10.6c-0.5-1.5-2-2.3-3.4-1.7
				C309.6,269.7,308.9,271.4,309.4,272.9"/>
			<path class="st21" d="M288.1,311l12.9-12.8c1.1-1.1,1.2-2.9,0.2-4.1c-1-1.2-2.6-1.3-3.7-0.2l-12.9,12.8c-1.1,1.1-1.2,2.9-0.2,4.1
				C285.3,311.9,287,312,288.1,311"/>
			<path class="st21" d="M274,302.6l0.9-14.3c0.1-1.6-1-3-2.5-3.1c-1.5-0.1-2.7,1.1-2.8,2.7l-0.9,14.3c-0.1,1.6,1,3,2.5,3.1
				C272.6,305.5,273.9,304.2,274,302.6"/>
			<path class="st21" d="M252.3,277.4l-15.2,2.9c-1.4,0.3-2.4,1.8-2.1,3.4c0.3,1.6,1.6,2.6,3.1,2.4l15.2-2.9
				c1.4-0.3,2.4-1.8,2.1-3.4C255.1,278.2,253.7,277.1,252.3,277.4"/>
			<path class="st21" d="M235.2,267.9l-9.2-0.5c-1.5-0.1-2.7,1.1-2.8,2.8s1,3,2.5,3.1l9.2,0.5c1.5,0.1,2.7-1.1,2.8-2.8
				C237.7,269.4,236.6,268,235.2,267.9"/>
			<path class="st21" d="M210,274.4l-7.3,13.7c-0.7,1.4-0.3,3.2,0.9,4c1.3,0.8,2.9,0.3,3.6-1l7.3-13.7c0.7-1.4,0.3-3.2-0.9-4
				C212.4,272.6,210.7,273,210,274.4"/>
			<path class="st21" d="M195.3,262.4l11-8.4c1.2-0.9,1.5-2.7,0.7-4.1c-0.8-1.3-2.5-1.7-3.7-0.7l-11,8.4c-1.2,0.9-1.5,2.7-0.7,4.1
				C192.5,263,194.1,263.3,195.3,262.4"/>
		</g>
	</g>
</g>
<g id="img_x5F_Burger_x5F_001_x5F_bg">
</g>
<g id="img_x5F_Burger_x5F_001_x5F_01">
</g>
<g id="img_x5F_Burger_x5F_001_x5F_02">
</g>
<g id="img_x5F_Burger_x5F_001_x5F_03">
</g>
<g id="img_x5F_Burger_x5F_001_x5F_04">
</g>
<g id="img_x5F_Melancia_x5F_001_x5F_">
</g>
<g id="img_x5F_Melancia_x5F_001_x5F_bg">
</g>
<g id="img_x5F_Melancia_x5F_001_x5F_01">
</g>
<g id="img_x5F_Melancia_x5F_001_x5F_02">
</g>
<g id="img_x5F_Melancia_x5F_001_x5F_03">
</g>
<g id="img_x5F_Melancia_x5F_001_x5F_04">
</g>
<g id="img_x5F_Tanborin_x5F_001_x5F_">
</g>
<g id="img_x5F_Tanborin_x5F_001_x5F_bg">
</g>
<g id="img_x5F_Tanborin_x5F_001_x5F_02">
</g>
<g id="img_x5F_Tanborin_x5F_001_x5F_01">
</g>
<g id="img_x5F_Tanborin_x5F_001_x5F_03">
</g>
<g id="img_x5F_Tanborin_x5F_001_x5F_04">
</g>
<g id="img_x5F_Corasao_x5F_001_x5F_">
</g>
<g id="img_x5F_Corasao_x5F_001_x5F_bg">
</g>
<g id="img_x5F_Corasao_x5F_001_x5F_01">
</g>
<g id="img_x5F_Corasao_x5F_001_x5F_02">
</g>
<g id="img_x5F_Corasao_x5F_001_x5F_03">
</g>
<g id="img_x5F_Corasao_x5F_001_x5F_04">
</g>
<g id="img_x5F_Bicicleta_x5F_001_x5F_">
</g>
<g id="img_x5F_Bicicleta_x5F_001_x5F_bg">
</g>
<g id="img_x5F_Bicicleta_x5F_001_x5F_01">
</g>
<g id="img_x5F_Bicicleta_x5F_001_x5F_02">
</g>
<g id="img_x5F_Bicicleta_x5F_001_x5F_03">
</g>
<g id="img_x5F_Bicicleta_x5F_001_x5F_04">
</g>
<g id="Camada_39">
</g>
<g id="Camada_40">
</g>
<g id="Camada_1">
</g>
</svg>
