<?xml version="1.0" encoding="utf-8"?>
<!-- Generator: Adobe Illustrator 21.0.0, SVG Export Plug-In . SVG Version: 6.00 Build 0)  -->
<svg version="1.1" xmlns="http://www.w3.org/2000/svg" xmlns:xlink="http://www.w3.org/1999/xlink" x="0px" y="0px"
	 viewBox="0 0 800 800" style="enable-background:new 0 0 800 800;" xml:space="preserve">
<style type="text/css">
	.st0{fill:#F2F0F0;}
	.st1{fill:#FFFFFF;}
	.st2{fill:#E2B5B5;}
	.st3{fill:#CE1B1B;}
	.st4{fill:#211915;}
	.st5{fill:#F46262;}
	.st6{fill:#D1D1D1;}
	.st7{fill:#ADADAD;}
	.st8{fill:#C3E0B6;}
	.st9{fill:#67D354;}
	.st10{fill:#98F482;}
	.st11{fill:none;stroke:#070707;stroke-width:6.0459;stroke-linecap:round;stroke-linejoin:round;stroke-miterlimit:10;}
	.st12{fill:#96842A;}
	.st13{fill:#DDCA47;}
	.st14{fill:#B4A135;}
	.st15{fill:#786724;}
	.st16{fill:#EDD974;}
	.st17{fill:#B8A63A;}
	.st18{fill:#150D16;}
	.st19{fill:#7A7A7A;}
	.st20{fill:#070707;}
	.st21{fill:#EAB447;}
	.st22{fill:#0C0903;}
	.st23{fill:#D8A127;}
	.st24{fill:#CC9423;}
	.st25{fill:#BC881E;}
	.st26{fill:#682C0F;}
	.st27{fill:#4C1D0A;}
	.st28{fill:#F7E93E;}
	.st29{fill:#E0CF38;}
	.st30{fill:#C90000;}
	.st31{fill:#B70000;}
	.st32{fill:#57A02B;}
	.st33{fill:#478420;}
	.st34{fill:#1A763D;}
	.st35{fill:#070208;}
	.st36{fill:#11582F;}
	.st37{fill:#0A090A;}
	.st38{fill:#0E5B31;}
	.st39{fill:#F8EEDF;}
	.st40{fill:#C12D1B;}
	.st41{fill:#1D0F10;}
	.st42{fill:#003E1E;}
	.st43{fill:#DBCFC1;}
	.st44{fill:#A0241A;}
	.st45{fill:#2D4484;}
	.st46{fill:#050502;}
	.st47{fill:#1B3163;}
	.st48{fill:#0B1938;}
	.st49{fill:#9C9CA0;}
	.st50{fill:#717177;}
	.st51{fill:#C9C39D;}
	.st52{fill:#FCF9D4;}
	.st53{fill:#F4EFC3;}
	.st54{fill:#C23517;}
	.st55{fill:#A0241B;}
	.st56{fill:#F3E4E5;}
	.st57{fill:#2D1423;}
	.st58{fill:#8A191D;}
	.st59{fill:#6E191C;}
	.st60{fill:#C85D56;}
	.st61{fill:none;}
	.st62{fill:#101B46;}
	.st63{fill:#50A8C9;}
	.st64{fill:#538795;}
	.st65{fill:#101B46;stroke:#070208;stroke-width:2.0705;stroke-miterlimit:10;}
	.st66{fill:#0C0C11;}
	.st67{fill:#7B8A7C;stroke:#0A080A;stroke-width:1.7794;stroke-linecap:round;stroke-linejoin:round;stroke-miterlimit:10;}
	.st68{fill:#7B8A7C;stroke:#0A080A;stroke-width:1.8591;stroke-linecap:round;stroke-linejoin:round;stroke-miterlimit:10;}
	.st69{fill:#87BED5;}
	.st70{fill:#7A7A7A;stroke:#070707;stroke-width:2.8529;stroke-linecap:round;stroke-linejoin:round;stroke-miterlimit:10;}
	.st71{fill:none;stroke:#CE1B1B;stroke-width:15.2467;stroke-linecap:round;stroke-linejoin:round;stroke-miterlimit:10;}
</style>
<g id="BG">
</g>
<g id="Box_x5F_Red">
</g>
<g id="Box_x5F_gray">
</g>
<g id="Box_x5F_green">
</g>
<g id="Mic_x5F_red_x5F_001">
</g>
<g id="Mic_x5F_Green_x5F_001">
</g>
<g id="Mic_x5F_red_x5F_002">
</g>
<g id="Mic_x5F_Green_x5F_002">
</g>
<g id="Mic_x5F_red_x5F_003">
</g>
<g id="Mic_x5F_Green_x5F_003">
</g>
<g id="Camada_12">
</g>
<g id="Camada_13">
</g>
<g id="img_x5F_queijo_x5F_001_x5F_">
</g>
<g id="img_x5F_queijo_x5F_001_x5F_bg">
</g>
<g id="img_x5F_queijo_x5F_001_x5F_01">
</g>
<g id="img_x5F_queijo_x5F_001_x5F_02">
</g>
<g id="img_x5F_queijo_x5F_001_x5F_03">
</g>
<g id="img_x5F_Burger_x5F_001_x5F_">
</g>
<g id="img_x5F_Burger_x5F_001_x5F_bg">
</g>
<g id="img_x5F_Burger_x5F_001_x5F_01">
</g>
<g id="img_x5F_Burger_x5F_001_x5F_02">
</g>
<g id="img_x5F_Burger_x5F_001_x5F_03">
</g>
<g id="img_x5F_Burger_x5F_001_x5F_04">
</g>
<g id="img_x5F_Melancia_x5F_001_x5F_">
</g>
<g id="img_x5F_Melancia_x5F_001_x5F_bg">
</g>
<g id="img_x5F_Melancia_x5F_001_x5F_01">
</g>
<g id="img_x5F_Melancia_x5F_001_x5F_02">
	<g>
		<path class="st34" d="M498.6,471.8c-1.9-6.8-3.3-14-4.5-21.6c-15.1-2.6-26.5-15.8-26.5-31.6c0-0.8,0-1.5,0.1-2.3
			c1.1-16.1,14.3-29,30.4-29.8h0c0.5,0,1.1,0,1.6,0c6.6,0,12.7,2,17.8,5.4c0.3,0.2,0.5,0.2,0.7,0.2c0.3,0,0.7-0.1,0.9-0.4
			c0.2-0.2,0.4-0.5,0.4-0.9v-11.3c-76.4,15.4-152.7,17.8-197,3.2c-6.8-16.7-10.3-34-10.8-51.3h-15.1
			C313.1,415.3,404.1,469.1,498.6,471.8z"/>
		<path class="st34" d="M280.7,331.5L280.7,331.5c-0.5,9.7-0.2,19.5,1,29.2C280.6,350.9,280.3,341.2,280.7,331.5z"/>
		<path class="st38" d="M498.6,471.8c-94.5-2.7-185.5-56.5-202-140.3h-15.9c-0.5,9.7-0.2,19.5,1,29.2c0.1,1.2,0.3,2.4,0.5,3.5
			c0.1,0.4,0.1,0.9,0.2,1.3c0.1,0.9,0.3,1.8,0.4,2.7c0.2,1,0.3,2,0.5,2.9c0.1,0.4,0.1,0.8,0.2,1.2c1.5,7.9,3.5,15.8,6.1,23.6
			c29.4,88.7,121.6,137.1,229.9,121.6v-2C510.1,503.3,503.2,488.7,498.6,471.8z"/>
		<path class="st36" d="M333.1,378.6L333.1,378.6l-10.6,4.2c44.3,14.6,120.6,12.2,197-3.2v-5.3C446.9,389.6,374.5,392.3,333.1,378.6
			z"/>
		<path class="st39" d="M519.5,374.3v-8.9c-63.5,13.3-127,15.6-163.4,4.1L458.7,329c0,0,0,0,0,0l-125.6,49.6
			C374.5,392.3,446.9,389.6,519.5,374.3z"/>
		<path class="st40" d="M519.5,365.4v-34h-56.2c-1.6,0-3-0.7-4-1.7c-0.2-0.2-0.4-0.5-0.6-0.8l-102.6,40.6
			C392.5,381.1,456,378.8,519.5,365.4z M481.1,345.7c4.4-0.8,7.5,4.8,7.4,6.3c-0.1,1.5-3.8,3.3-8.2,4.1c-4.4,0.8-7.9,0.2-7.8-1.2
			C472.6,353.3,476.7,346.5,481.1,345.7z M429.5,351.3c4.1-0.2,0.6,6.5-1,8.2c-1.6,1.6-6.3,3.2-10.4,3.4c-4.1,0.2-6.2-0.9-4.6-2.5
			C415.2,358.7,425.4,351.5,429.5,351.3z"/>
		<path class="st41" d="M480.3,356c4.4-0.8,8.1-2.6,8.2-4.1c0.1-1.5-3-7-7.4-6.3c-4.4,0.8-8.5,7.6-8.6,9.1
			C472.4,356.2,475.9,356.8,480.3,356z"/>
		<path class="st41" d="M418.1,362.9c4.1-0.2,8.8-1.8,10.4-3.4c1.6-1.6,5.1-8.4,1-8.2c-4.1,0.2-14.3,7.4-16,9.1
			C411.9,362,414,363.1,418.1,362.9z"/>
		<path class="st42" d="M333.1,378.6c-6.3-15.3-9.4-31.2-9.8-47.2h-11.6c0.5,17.3,4,34.6,10.8,51.3L333.1,378.6z"/>
		<path class="st43" d="M333.1,378.6L458.7,329l0,0l-102.6,40.6c-5.1-12.4-7.8-25.2-8.4-38.1h-24.4
			C323.7,347.4,326.8,363.3,333.1,378.6L333.1,378.6z"/>
		<path class="st44" d="M458.7,329c-0.6-0.9-0.9-1.9-0.9-3c0-1,0.3-2.1,0.9-3.1l0,0c2.9-4.4,4.7-9.7,4.7-15.4c0-0.5,0-0.9,0-1.4
			c-0.7-13.9-11.9-25.4-25.8-26.4c-0.7,0-1.3-0.1-2-0.1c-3.8,0-7.5,0.8-10.8,2.2c2.1,2.5,3.4,4.8,2.5,6c-1.2,1.6-6.2,0.9-11-0.4
			c-0.1,0.1-0.2,0.2-0.3,0.3c-5,5-8.2,12-8.2,19.7c0,5.7,1.7,11,4.7,15.4c0.6,1,0.9,2,0.9,3.1c0,1.4-0.6,2.8-1.5,3.8
			c-1,1-2.4,1.7-4,1.7h-60.1c0.6,12.9,3.3,25.7,8.4,38.1L458.7,329z"/>
		<path class="st41" d="M427.2,287.8c0.9-1.2-0.4-3.5-2.5-6c-3.2,1.3-6.1,3.3-8.5,5.6C421,288.7,426,289.4,427.2,287.8z"/>
		<path class="st42" d="M519.5,515.6v-30.7c-7.5-10.6-13.7-22-18.6-34.2c-0.4,0-0.8,0-1.2,0c-1.9,0-3.8-0.2-5.6-0.5
			c1.2,7.5,2.7,14.7,4.5,21.6C503.2,488.7,510.1,503.3,519.5,515.6z"/>
		<path class="st36" d="M519.5,462.2c-2.5-4.6-4.9-9.3-6.9-14.2c-3.6,1.6-7.5,2.5-11.7,2.7c4.9,12.2,11.1,23.7,18.6,34.2V462.2z"/>
		<path class="st39" d="M519.5,446.4c0-0.4-0.1-0.7-0.4-0.9c-0.2-0.2-0.6-0.4-0.9-0.4c-0.2,0-0.5,0.1-0.7,0.2
			c-1.5,1-3.2,1.9-4.9,2.6c2.1,4.9,4.4,9.6,6.9,14.2V446.4z"/>
	</g>
</g>
<g id="img_x5F_Melancia_x5F_001_x5F_03">
</g>
<g id="img_x5F_Melancia_x5F_001_x5F_04">
</g>
<g id="img_x5F_Tanborin_x5F_001_x5F_">
</g>
<g id="img_x5F_Tanborin_x5F_001_x5F_bg">
</g>
<g id="img_x5F_Tanborin_x5F_001_x5F_02">
</g>
<g id="img_x5F_Tanborin_x5F_001_x5F_01">
</g>
<g id="img_x5F_Tanborin_x5F_001_x5F_03">
</g>
<g id="img_x5F_Tanborin_x5F_001_x5F_04">
</g>
<g id="img_x5F_Corasao_x5F_001_x5F_">
</g>
<g id="img_x5F_Corasao_x5F_001_x5F_bg">
</g>
<g id="img_x5F_Corasao_x5F_001_x5F_01">
</g>
<g id="img_x5F_Corasao_x5F_001_x5F_02">
</g>
<g id="img_x5F_Corasao_x5F_001_x5F_03">
</g>
<g id="img_x5F_Corasao_x5F_001_x5F_04">
</g>
<g id="img_x5F_Bicicleta_x5F_001_x5F_">
</g>
<g id="img_x5F_Bicicleta_x5F_001_x5F_bg">
</g>
<g id="img_x5F_Bicicleta_x5F_001_x5F_01">
</g>
<g id="img_x5F_Bicicleta_x5F_001_x5F_02">
</g>
<g id="img_x5F_Bicicleta_x5F_001_x5F_03">
</g>
<g id="img_x5F_Bicicleta_x5F_001_x5F_04">
</g>
<g id="Camada_39">
</g>
<g id="Camada_40">
</g>
<g id="Camada_1">
</g>
</svg>
