<?xml version="1.0" encoding="utf-8"?>
<!-- Generator: Adobe Illustrator 21.0.0, SVG Export Plug-In . SVG Version: 6.00 Build 0)  -->
<svg version="1.1" xmlns="http://www.w3.org/2000/svg" xmlns:xlink="http://www.w3.org/1999/xlink" x="0px" y="0px"
	 viewBox="0 0 199.3 199.3" style="enable-background:new 0 0 199.3 199.3;" xml:space="preserve">
<style type="text/css">
	.st0{fill:#F2F0F0;}
	.st1{fill:#FFFFFF;}
	.st2{fill:#E2B5B5;}
	.st3{fill:#CE1B1B;}
	.st4{fill:#211915;}
	.st5{fill:#F46262;}
	.st6{fill:#D1D1D1;}
	.st7{fill:#ADADAD;}
	.st8{fill:#C3E0B6;}
	.st9{fill:#67D354;}
	.st10{fill:#98F482;}
	.st11{fill:none;stroke:#070707;stroke-width:6.0459;stroke-linecap:round;stroke-linejoin:round;stroke-miterlimit:10;}
	.st12{fill:#96842A;}
	.st13{fill:#DDCA47;}
	.st14{fill:#B4A135;}
	.st15{fill:#786724;}
	.st16{fill:#EDD974;}
	.st17{fill:#B8A63A;}
	.st18{fill:#150D16;}
	.st19{fill:#7A7A7A;}
	.st20{fill:#070707;}
	.st21{fill:#EAB447;}
	.st22{fill:#0C0903;}
	.st23{fill:#D8A127;}
	.st24{fill:#CC9423;}
	.st25{fill:#BC881E;}
	.st26{fill:#682C0F;}
	.st27{fill:#4C1D0A;}
	.st28{fill:#F7E93E;}
	.st29{fill:#E0CF38;}
	.st30{fill:#C90000;}
	.st31{fill:#B70000;}
	.st32{fill:#57A02B;}
	.st33{fill:#478420;}
	.st34{fill:#1A763D;}
	.st35{fill:#070208;}
	.st36{fill:#11582F;}
	.st37{fill:#0A090A;}
	.st38{fill:#0E5B31;}
	.st39{fill:#F8EEDF;}
	.st40{fill:#C12D1B;}
	.st41{fill:#1D0F10;}
	.st42{fill:#003E1E;}
	.st43{fill:#DBCFC1;}
	.st44{fill:#A0241A;}
	.st45{fill:#2D4484;}
	.st46{fill:#050502;}
	.st47{fill:#1B3163;}
	.st48{fill:#0B1938;}
	.st49{fill:#9C9CA0;}
	.st50{fill:#717177;}
	.st51{fill:#C9C39D;}
	.st52{fill:#FCF9D4;}
	.st53{fill:#F4EFC3;}
	.st54{fill:#C23517;}
	.st55{fill:#A0241B;}
	.st56{fill:#F3E4E5;}
	.st57{fill:#2D1423;}
	.st58{fill:#8A191D;}
	.st59{fill:#6E191C;}
	.st60{fill:#C85D56;}
	.st61{fill:none;}
	.st62{fill:#101B46;}
	.st63{fill:#50A8C9;}
	.st64{fill:#538795;}
	.st65{fill:#101B46;stroke:#070208;stroke-width:2.0705;stroke-miterlimit:10;}
	.st66{fill:#0C0C11;}
	.st67{fill:#7B8A7C;stroke:#0A080A;stroke-width:1.7794;stroke-linecap:round;stroke-linejoin:round;stroke-miterlimit:10;}
	.st68{fill:#7B8A7C;stroke:#0A080A;stroke-width:1.8591;stroke-linecap:round;stroke-linejoin:round;stroke-miterlimit:10;}
	.st69{fill:#87BED5;}
	.st70{fill:#7A7A7A;stroke:#070707;stroke-width:2.8529;stroke-linecap:round;stroke-linejoin:round;stroke-miterlimit:10;}
	.st71{fill:none;stroke:#CE1B1B;stroke-width:15.2467;stroke-linecap:round;stroke-linejoin:round;stroke-miterlimit:10;}
</style>
<g id="BG">
</g>
<g id="Box_x5F_Red">
</g>
<g id="Box_x5F_gray">
</g>
<g id="Box_x5F_green">
</g>
<g id="Mic_x5F_red_x5F_001">
	<g>
		<path class="st3" d="M120.4,92.6V50.7c0-11.4-9.3-20.7-20.7-20.7c-11.4,0-20.7,9.3-20.7,20.7v41.9c0,11.4,9.3,20.7,20.7,20.7
			C111,113.3,120.4,104,120.4,92.6z"/>
		<path class="st3" d="M78.9,92.6V50.7c0-11.4,9.3-20.7,20.7-20.7c11.4,0,20.7,9.3,20.7,20.7v41.9c0,11.4-9.3,20.7-20.7,20.7
			C88.2,113.3,78.9,104,78.9,92.6z"/>
		<g>
			<path class="st3" d="M139.4,92.6v-3.4c0-3.2-2.6-5.7-5.7-5.7h0c-3.2,0-5.7,2.6-5.7,5.7v2.5c0,15.3-11.7,28.5-27,29.2
				c-16.2,0.8-29.7-12.2-29.7-28.3v-3.4c0-3.2-2.6-5.7-5.7-5.7h0c-3.2,0-5.7,2.6-5.7,5.7v3.4c0,19.3,13.8,35.4,32.1,39
				c0,0,0.1,0,0.1,0.1V154c0,0,0,0.1-0.1,0.1H70.3c-3.2,0-5.7,2.6-5.7,5.7v3.8c0,3.2,2.6,5.7,5.7,5.7h58.6c3.2,0,5.7-2.6,5.7-5.7
				v-3.8c0-3.2-2.6-5.7-5.7-5.7h-21.6c0,0-0.1,0-0.1-0.1v-22.3c0,0,0-0.1,0.1-0.1C125.6,128,139.4,111.9,139.4,92.6z"/>
		</g>
	</g>
</g>
<g id="Mic_x5F_Green_x5F_001">
</g>
<g id="Mic_x5F_red_x5F_002">
</g>
<g id="Mic_x5F_Green_x5F_002">
</g>
<g id="Mic_x5F_red_x5F_003">
</g>
<g id="Mic_x5F_Green_x5F_003">
</g>
<g id="Camada_12">
</g>
<g id="Camada_13">
</g>
<g id="img_x5F_queijo_x5F_001_x5F_">
</g>
<g id="img_x5F_queijo_x5F_001_x5F_bg">
</g>
<g id="img_x5F_queijo_x5F_001_x5F_01">
</g>
<g id="img_x5F_queijo_x5F_001_x5F_02">
</g>
<g id="img_x5F_queijo_x5F_001_x5F_03">
</g>
<g id="img_x5F_Burger_x5F_001_x5F_">
</g>
<g id="img_x5F_Burger_x5F_001_x5F_bg">
</g>
<g id="img_x5F_Burger_x5F_001_x5F_01">
</g>
<g id="img_x5F_Burger_x5F_001_x5F_02">
</g>
<g id="img_x5F_Burger_x5F_001_x5F_03">
</g>
<g id="img_x5F_Burger_x5F_001_x5F_04">
</g>
<g id="img_x5F_Melancia_x5F_001_x5F_">
</g>
<g id="img_x5F_Melancia_x5F_001_x5F_bg">
</g>
<g id="img_x5F_Melancia_x5F_001_x5F_01">
</g>
<g id="img_x5F_Melancia_x5F_001_x5F_02">
</g>
<g id="img_x5F_Melancia_x5F_001_x5F_03">
</g>
<g id="img_x5F_Melancia_x5F_001_x5F_04">
</g>
<g id="img_x5F_Tanborin_x5F_001_x5F_">
</g>
<g id="img_x5F_Tanborin_x5F_001_x5F_bg">
</g>
<g id="img_x5F_Tanborin_x5F_001_x5F_02">
</g>
<g id="img_x5F_Tanborin_x5F_001_x5F_01">
</g>
<g id="img_x5F_Tanborin_x5F_001_x5F_03">
</g>
<g id="img_x5F_Tanborin_x5F_001_x5F_04">
</g>
<g id="img_x5F_Corasao_x5F_001_x5F_">
</g>
<g id="img_x5F_Corasao_x5F_001_x5F_bg">
</g>
<g id="img_x5F_Corasao_x5F_001_x5F_01">
</g>
<g id="img_x5F_Corasao_x5F_001_x5F_02">
</g>
<g id="img_x5F_Corasao_x5F_001_x5F_03">
</g>
<g id="img_x5F_Corasao_x5F_001_x5F_04">
</g>
<g id="img_x5F_Bicicleta_x5F_001_x5F_">
</g>
<g id="img_x5F_Bicicleta_x5F_001_x5F_bg">
</g>
<g id="img_x5F_Bicicleta_x5F_001_x5F_01">
</g>
<g id="img_x5F_Bicicleta_x5F_001_x5F_02">
</g>
<g id="img_x5F_Bicicleta_x5F_001_x5F_03">
</g>
<g id="img_x5F_Bicicleta_x5F_001_x5F_04">
</g>
<g id="Camada_39">
</g>
<g id="Camada_40">
</g>
<g id="Camada_1">
</g>
</svg>
