<?xml version="1.0" encoding="utf-8"?>
<!-- Generator: Adobe Illustrator 21.0.0, SVG Export Plug-In . SVG Version: 6.00 Build 0)  -->
<svg version="1.1" xmlns="http://www.w3.org/2000/svg" xmlns:xlink="http://www.w3.org/1999/xlink" x="0px" y="0px"
	 viewBox="0 0 800 800" style="enable-background:new 0 0 800 800;" xml:space="preserve">
<style type="text/css">
	.st0{fill:#F2F0F0;}
	.st1{fill:#FFFFFF;}
	.st2{fill:#E2B5B5;}
	.st3{fill:#CE1B1B;}
	.st4{fill:#211915;}
	.st5{fill:#F46262;}
	.st6{fill:#D1D1D1;}
	.st7{fill:#ADADAD;}
	.st8{fill:#C3E0B6;}
	.st9{fill:#67D354;}
	.st10{fill:#98F482;}
	.st11{fill:none;stroke:#070707;stroke-width:6.0459;stroke-linecap:round;stroke-linejoin:round;stroke-miterlimit:10;}
	.st12{fill:#96842A;}
	.st13{fill:#DDCA47;}
	.st14{fill:#B4A135;}
	.st15{fill:#786724;}
	.st16{fill:#EDD974;}
	.st17{fill:#B8A63A;}
	.st18{fill:#150D16;}
	.st19{fill:#7A7A7A;}
	.st20{fill:#070707;}
	.st21{fill:#EAB447;}
	.st22{fill:#0C0903;}
	.st23{fill:#D8A127;}
	.st24{fill:#CC9423;}
	.st25{fill:#BC881E;}
	.st26{fill:#682C0F;}
	.st27{fill:#4C1D0A;}
	.st28{fill:#F7E93E;}
	.st29{fill:#E0CF38;}
	.st30{fill:#C90000;}
	.st31{fill:#B70000;}
	.st32{fill:#57A02B;}
	.st33{fill:#478420;}
	.st34{fill:#1A763D;}
	.st35{fill:#070208;}
	.st36{fill:#11582F;}
	.st37{fill:#0A090A;}
	.st38{fill:#0E5B31;}
	.st39{fill:#F8EEDF;}
	.st40{fill:#C12D1B;}
	.st41{fill:#1D0F10;}
	.st42{fill:#003E1E;}
	.st43{fill:#DBCFC1;}
	.st44{fill:#A0241A;}
	.st45{fill:#2D4484;}
	.st46{fill:#050502;}
	.st47{fill:#1B3163;}
	.st48{fill:#0B1938;}
	.st49{fill:#9C9CA0;}
	.st50{fill:#717177;}
	.st51{fill:#C9C39D;}
	.st52{fill:#FCF9D4;}
	.st53{fill:#F4EFC3;}
	.st54{fill:#C23517;}
	.st55{fill:#A0241B;}
	.st56{fill:#F3E4E5;}
	.st57{fill:#2D1423;}
	.st58{fill:#8A191D;}
	.st59{fill:#6E191C;}
	.st60{fill:#C85D56;}
	.st61{fill:none;}
	.st62{fill:#101B46;}
	.st63{fill:#50A8C9;}
	.st64{fill:#538795;}
	.st65{fill:#101B46;stroke:#070208;stroke-width:2.0705;stroke-miterlimit:10;}
	.st66{fill:#0C0C11;}
	.st67{fill:#7B8A7C;stroke:#0A080A;stroke-width:1.7794;stroke-linecap:round;stroke-linejoin:round;stroke-miterlimit:10;}
	.st68{fill:#7B8A7C;stroke:#0A080A;stroke-width:1.8591;stroke-linecap:round;stroke-linejoin:round;stroke-miterlimit:10;}
	.st69{fill:#87BED5;}
	.st70{fill:#7A7A7A;stroke:#070707;stroke-width:2.8529;stroke-linecap:round;stroke-linejoin:round;stroke-miterlimit:10;}
	.st71{fill:none;stroke:#CE1B1B;stroke-width:15.2467;stroke-linecap:round;stroke-linejoin:round;stroke-miterlimit:10;}
</style>
<g id="BG">
</g>
<g id="Box_x5F_Red">
</g>
<g id="Box_x5F_gray">
</g>
<g id="Box_x5F_green">
</g>
<g id="Mic_x5F_red_x5F_001">
</g>
<g id="Mic_x5F_Green_x5F_001">
</g>
<g id="Mic_x5F_red_x5F_002">
</g>
<g id="Mic_x5F_Green_x5F_002">
</g>
<g id="Mic_x5F_red_x5F_003">
</g>
<g id="Mic_x5F_Green_x5F_003">
</g>
<g id="Camada_12">
</g>
<g id="Camada_13">
</g>
<g id="img_x5F_queijo_x5F_001_x5F_">
</g>
<g id="img_x5F_queijo_x5F_001_x5F_bg">
</g>
<g id="img_x5F_queijo_x5F_001_x5F_01">
</g>
<g id="img_x5F_queijo_x5F_001_x5F_02">
</g>
<g id="img_x5F_queijo_x5F_001_x5F_03">
	<g>
		<path class="st12" d="M567.4,297.3L567.4,297.3L567.4,297.3l-25.7,279.1l0,0L567.4,297.3c0,0,0-0.1,0-0.2
			C567.4,297.3,567.4,297.3,567.4,297.3z"/>
		<path class="st13" d="M326.8,311.2c12.1,13.8,21.3,30.1,26.3,49.9c2.5,9.3-4.2,15.2-10.1,19.4c-15.2,11-32.9,27-19.4,43
			c6.8,8.4,15.2,15.2,24.5,21.1c22.8,13.5,54.9,16.9,64.1,41.4c5.9,15.2-11.8,30.4-26.2,38.8c-8.1,5.1-18.1,8.4-27.8,11.9
			c93.6,22,180.1,39,183.5,39.7l25.7-279.1v0L326.8,311.2z M385.1,429.5c-16.7-12.2-23.8-32-18.8-48.6c1.1-3.8,2.9-7.4,5.3-10.7
			c13-17.8,40.1-20.1,60.5-5.2c20.5,14.9,26.5,41.5,13.6,59.2c-2.1,2.8-4.5,5.2-7.2,7.3C424.1,442.4,402.3,442.1,385.1,429.5z
			 M488.1,542.6c-4.1,2.3-8.6,4.3-13.6,5.6c-22.7,5.9-44.7-2.9-49.1-19.7c-1.5-5.6-0.8-11.4,1.6-16.8c4.8-10.9,16.4-20.4,31.5-24.4
			c22.7-5.9,44.7,2.9,49.1,19.7C511.1,520.1,502.7,534.3,488.1,542.6z"/>
		<path class="st14" d="M541.6,576.4c-3.4-0.7-89.9-17.6-183.5-39.7c-17.6,6.2-34.5,13-38.9,32c-2.1,9.2-2.2,18.1-0.7,26.7l223.2-19
			C541.7,576.5,541.7,576.4,541.6,576.4z"/>
		<path class="st16" d="M450.8,226.9c-98.1-32.3-188.8-21.5-217.9-16.7c-0.3,4.4-0.4,8.7-0.2,13.1c7.2-3.5,19.2-6.2,32.9-6.9
			c8.5-0.5,16.5-0.1,23.1,0.9c11.1,1.6,18.5,4.9,18.8,9.2c0.4,6.7-17.5,13.1-39.9,14.3c0,0,0.1-0.1,0.1-0.1c-0.3,0-0.5,0-0.8,0
			c-13.1,0.7-24.8-0.6-32.4-3.1c3.1,10.4,11,19.1,20.6,23.9c27.2,12.8,52.9,28.2,71.6,49.7l240.6-13.9h0c0,0,0-0.1,0-0.2
			C567.3,294.4,564.5,264.3,450.8,226.9z M444.5,270.5C444.5,270.5,444.5,270.5,444.5,270.5c-2.8,0.7-5.8,1.4-9,1.9
			c-8,1.4-17.2,2.1-26.9,2.1l0,0c-31.1,0-56.4-7.9-56.4-17.6c0-8.1,17.7-15,41.7-17c0,0,0,0,0,0c0.1,0,0.2,0,0.2,0
			c1.1-0.1,2.1-0.2,3.2-0.2c0.2,0,0.4,0,0.6,0c0.9-0.1,1.8-0.1,2.7-0.1c0.4,0,0.7,0,1.1,0c0.8,0,1.6-0.1,2.4-0.1c0.3,0,0.7,0,1,0
			c1.1,0,2.2,0,3.4,0c0,0,0,0,0,0c31.2,0,56.4,7.9,56.4,17.6C465,262.4,457,267.3,444.5,270.5z"/>
		<path class="st12" d="M432.1,365.1c-20.5-14.9-47.6-12.6-60.5,5.2c-2.4,3.3-4.2,6.9-5.3,10.7c14.3-10.8,36.1-10.4,53.3,2.1
			c16.7,12.2,23.8,32,18.8,48.6c2.7-2,5.2-4.4,7.2-7.3C458.6,406.6,452.6,380,432.1,365.1z"/>
		<path class="st14" d="M419.6,383.1c-17.2-12.5-39-12.9-53.3-2.1c-4.9,16.6,2.2,36.4,18.8,48.6c17.2,12.5,39,12.9,53.3,2.1
			C443.3,415.1,436.2,395.2,419.6,383.1z"/>
		<path class="st12" d="M427,511.7c5.1-3.5,11.2-6.3,18-8.1c22.7-5.9,44.4,1.9,48.5,17.5c1.9,7.2-0.3,14.8-5.5,21.5
			c14.6-8.4,23-22.5,19.6-35.6c-4.4-16.8-26.4-25.6-49.1-19.7C443.4,491.3,431.8,500.8,427,511.7z"/>
		<path class="st14" d="M493.6,521.2c-4.1-15.6-25.8-23.5-48.5-17.5c-6.8,1.8-12.9,4.6-18,8.1c-2.4,5.4-3.1,11.2-1.6,16.8
			c4.4,16.8,26.4,25.6,49.1,19.7c5-1.3,9.5-3.2,13.6-5.6C493.2,536,495.5,528.4,493.6,521.2z"/>
		<path class="st13" d="M266.9,240.7c0.3,0,0.5,0,0.8,0c7.2-7.7,6.8-15.7-1.4-24.2c8.2-0.4,15.9-0.1,22.4,0.8
			c-6.6-1-14.5-1.4-23.1-0.9c-13.7,0.7-25.7,3.4-32.9,6.9c0.1,2.3,0.2,4.7,0.4,7c0.2,2.5,0.6,4.9,1.3,7.3
			C242,240.1,253.8,241.4,266.9,240.7z"/>
		<path class="st17" d="M266.2,216.5c8.2,8.5,8.6,16.5,1.4,24.2c0,0-0.1,0.1-0.1,0.1c22.4-1.2,40.2-7.6,39.9-14.3
			c-0.2-4.2-7.7-7.6-18.8-9.2C282.2,216.4,274.5,216,266.2,216.5z"/>
		<path class="st13" d="M397.9,239.7c0.9-0.1,1.8-0.1,2.7-0.1C399.7,239.6,398.8,239.6,397.9,239.7z"/>
		<path class="st13" d="M401.7,239.5c0.8,0,1.6-0.1,2.4-0.1C403.3,239.4,402.5,239.4,401.7,239.5z"/>
		<path class="st13" d="M444.5,270.5c12.5-3.2,20.5-8.1,20.5-13.6l0,0C465,262.4,457,267.3,444.5,270.5z"/>
		<path class="st13" d="M405.2,239.4c1.1,0,2.2,0,3.4,0C407.4,239.3,406.3,239.4,405.2,239.4z"/>
		<path class="st13" d="M408.6,274.6c5.8-11.7,1.2-23.2-14.7-34.6c-24,2-41.7,8.9-41.7,17C352.2,266.7,377.4,274.6,408.6,274.6z"/>
		<path class="st13" d="M444.4,270.5c-2.8,0.7-5.8,1.3-9,1.9C438.7,271.9,441.7,271.3,444.4,270.5z"/>
		<path class="st13" d="M394.2,239.9c1.1-0.1,2.1-0.2,3.2-0.2C396.3,239.8,395.2,239.8,394.2,239.9z"/>
		<path class="st17" d="M408.6,239.3C408.6,239.3,408.6,239.3,408.6,239.3c-1.2,0-2.3,0-3.4,0c-0.4,0-0.7,0-1,0
			c-0.8,0-1.6,0-2.4,0.1c-0.4,0-0.7,0-1.1,0c-0.9,0-1.8,0.1-2.7,0.1c-0.2,0-0.4,0-0.6,0c-1.1,0.1-2.1,0.1-3.2,0.2
			c-0.1,0-0.2,0-0.2,0c0,0,0,0,0,0c15.8,11.4,20.5,22.9,14.7,34.6l0,0c9.7,0,18.9-0.8,26.9-2.1c3.2-0.5,6.2-1.2,9-1.9c0,0,0,0,0,0
			c12.5-3.2,20.5-8.1,20.5-13.6C465,247.2,439.7,239.3,408.6,239.3z"/>
	</g>
</g>
<g id="img_x5F_Burger_x5F_001_x5F_">
</g>
<g id="img_x5F_Burger_x5F_001_x5F_bg">
</g>
<g id="img_x5F_Burger_x5F_001_x5F_01">
</g>
<g id="img_x5F_Burger_x5F_001_x5F_02">
</g>
<g id="img_x5F_Burger_x5F_001_x5F_03">
</g>
<g id="img_x5F_Burger_x5F_001_x5F_04">
</g>
<g id="img_x5F_Melancia_x5F_001_x5F_">
</g>
<g id="img_x5F_Melancia_x5F_001_x5F_bg">
</g>
<g id="img_x5F_Melancia_x5F_001_x5F_01">
</g>
<g id="img_x5F_Melancia_x5F_001_x5F_02">
</g>
<g id="img_x5F_Melancia_x5F_001_x5F_03">
</g>
<g id="img_x5F_Melancia_x5F_001_x5F_04">
</g>
<g id="img_x5F_Tanborin_x5F_001_x5F_">
</g>
<g id="img_x5F_Tanborin_x5F_001_x5F_bg">
</g>
<g id="img_x5F_Tanborin_x5F_001_x5F_02">
</g>
<g id="img_x5F_Tanborin_x5F_001_x5F_01">
</g>
<g id="img_x5F_Tanborin_x5F_001_x5F_03">
</g>
<g id="img_x5F_Tanborin_x5F_001_x5F_04">
</g>
<g id="img_x5F_Corasao_x5F_001_x5F_">
</g>
<g id="img_x5F_Corasao_x5F_001_x5F_bg">
</g>
<g id="img_x5F_Corasao_x5F_001_x5F_01">
</g>
<g id="img_x5F_Corasao_x5F_001_x5F_02">
</g>
<g id="img_x5F_Corasao_x5F_001_x5F_03">
</g>
<g id="img_x5F_Corasao_x5F_001_x5F_04">
</g>
<g id="img_x5F_Bicicleta_x5F_001_x5F_">
</g>
<g id="img_x5F_Bicicleta_x5F_001_x5F_bg">
</g>
<g id="img_x5F_Bicicleta_x5F_001_x5F_01">
</g>
<g id="img_x5F_Bicicleta_x5F_001_x5F_02">
</g>
<g id="img_x5F_Bicicleta_x5F_001_x5F_03">
</g>
<g id="img_x5F_Bicicleta_x5F_001_x5F_04">
</g>
<g id="Camada_39">
</g>
<g id="Camada_40">
</g>
<g id="Camada_1">
</g>
</svg>
