<?xml version="1.0" encoding="utf-8"?>
<!-- Generator: Adobe Illustrator 21.0.0, SVG Export Plug-In . SVG Version: 6.00 Build 0)  -->
<svg version="1.1" xmlns="http://www.w3.org/2000/svg" xmlns:xlink="http://www.w3.org/1999/xlink" x="0px" y="0px"
	 viewBox="0 0 800 800" style="enable-background:new 0 0 800 800;" xml:space="preserve">
<style type="text/css">
	.st0{fill:#F2F0F0;}
	.st1{fill:#FFFFFF;}
	.st2{fill:#E2B5B5;}
	.st3{fill:#CE1B1B;}
	.st4{fill:#211915;}
	.st5{fill:#F46262;}
	.st6{fill:#D1D1D1;}
	.st7{fill:#ADADAD;}
	.st8{fill:#C3E0B6;}
	.st9{fill:#67D354;}
	.st10{fill:#98F482;}
	.st11{fill:none;stroke:#070707;stroke-width:6.0459;stroke-linecap:round;stroke-linejoin:round;stroke-miterlimit:10;}
	.st12{fill:#96842A;}
	.st13{fill:#DDCA47;}
	.st14{fill:#B4A135;}
	.st15{fill:#786724;}
	.st16{fill:#EDD974;}
	.st17{fill:#B8A63A;}
	.st18{fill:#150D16;}
	.st19{fill:#7A7A7A;}
	.st20{fill:#070707;}
	.st21{fill:#EAB447;}
	.st22{fill:#0C0903;}
	.st23{fill:#D8A127;}
	.st24{fill:#CC9423;}
	.st25{fill:#BC881E;}
	.st26{fill:#682C0F;}
	.st27{fill:#4C1D0A;}
	.st28{fill:#F7E93E;}
	.st29{fill:#E0CF38;}
	.st30{fill:#C90000;}
	.st31{fill:#B70000;}
	.st32{fill:#57A02B;}
	.st33{fill:#478420;}
	.st34{fill:#1A763D;}
	.st35{fill:#070208;}
	.st36{fill:#11582F;}
	.st37{fill:#0A090A;}
	.st38{fill:#0E5B31;}
	.st39{fill:#F8EEDF;}
	.st40{fill:#C12D1B;}
	.st41{fill:#1D0F10;}
	.st42{fill:#003E1E;}
	.st43{fill:#DBCFC1;}
	.st44{fill:#A0241A;}
	.st45{fill:#2D4484;}
	.st46{fill:#050502;}
	.st47{fill:#1B3163;}
	.st48{fill:#0B1938;}
	.st49{fill:#9C9CA0;}
	.st50{fill:#717177;}
	.st51{fill:#C9C39D;}
	.st52{fill:#FCF9D4;}
	.st53{fill:#F4EFC3;}
	.st54{fill:#C23517;}
	.st55{fill:#A0241B;}
	.st56{fill:#F3E4E5;}
	.st57{fill:#2D1423;}
	.st58{fill:#8A191D;}
	.st59{fill:#6E191C;}
	.st60{fill:#C85D56;}
	.st61{fill:none;}
	.st62{fill:#101B46;}
	.st63{fill:#50A8C9;}
	.st64{fill:#538795;}
	.st65{fill:#101B46;stroke:#070208;stroke-width:2.0705;stroke-miterlimit:10;}
	.st66{fill:#0C0C11;}
	.st67{fill:#7B8A7C;stroke:#0A080A;stroke-width:1.7794;stroke-linecap:round;stroke-linejoin:round;stroke-miterlimit:10;}
	.st68{fill:#7B8A7C;stroke:#0A080A;stroke-width:1.8591;stroke-linecap:round;stroke-linejoin:round;stroke-miterlimit:10;}
	.st69{fill:#87BED5;}
	.st70{fill:#7A7A7A;stroke:#070707;stroke-width:2.8529;stroke-linecap:round;stroke-linejoin:round;stroke-miterlimit:10;}
	.st71{fill:none;stroke:#CE1B1B;stroke-width:15.2467;stroke-linecap:round;stroke-linejoin:round;stroke-miterlimit:10;}
</style>
<g id="BG">
</g>
<g id="Box_x5F_Red">
</g>
<g id="Box_x5F_gray">
</g>
<g id="Box_x5F_green">
</g>
<g id="Mic_x5F_red_x5F_001">
</g>
<g id="Mic_x5F_Green_x5F_001">
</g>
<g id="Mic_x5F_red_x5F_002">
</g>
<g id="Mic_x5F_Green_x5F_002">
</g>
<g id="Mic_x5F_red_x5F_003">
</g>
<g id="Mic_x5F_Green_x5F_003">
</g>
<g id="Camada_12">
</g>
<g id="Camada_13">
</g>
<g id="img_x5F_queijo_x5F_001_x5F_">
</g>
<g id="img_x5F_queijo_x5F_001_x5F_bg">
</g>
<g id="img_x5F_queijo_x5F_001_x5F_01">
</g>
<g id="img_x5F_queijo_x5F_001_x5F_02">
</g>
<g id="img_x5F_queijo_x5F_001_x5F_03">
</g>
<g id="img_x5F_Burger_x5F_001_x5F_">
</g>
<g id="img_x5F_Burger_x5F_001_x5F_bg">
</g>
<g id="img_x5F_Burger_x5F_001_x5F_01">
</g>
<g id="img_x5F_Burger_x5F_001_x5F_02">
</g>
<g id="img_x5F_Burger_x5F_001_x5F_03">
</g>
<g id="img_x5F_Burger_x5F_001_x5F_04">
</g>
<g id="img_x5F_Melancia_x5F_001_x5F_">
	<g id="Melância_2_">
		<g>
			<path class="st34" d="M469.3,617.4c-67.6,0-111.5-15.1-138.1-47.3c-13.4,1.9-26.7,2.9-39.7,2.9c-93.2,0-167.2-48.4-193-126.2
				c-2-6.1-3.8-12.6-5.2-19.2c-0.1-0.4-0.2-0.9-0.3-1.3c-0.1-0.3-0.1-0.6-0.2-0.9c-0.4-2-0.9-4.4-1.3-6.8c-0.2-1.3-0.4-2.7-0.6-4
				l-0.3-2.1c-0.1-1-0.3-1.9-0.4-2.9c-0.3-2.4-0.5-4.8-0.6-6.8l-0.1-0.8c0-0.4-0.1-0.9-0.1-1.3c-0.2-2.6-0.3-5.2-0.3-8.2l0-0.7
				c-0.5-42.3,14.3-84.8,41.7-119.5c29.1-36.8,70.9-63.9,120.9-78.1c0.1,0,0.2,0,0.3-0.1c4.4-1.2,9.1-2.4,14.4-3.7
				c1.3-0.3,2.7-0.6,4-0.9l0.3-0.1c3.8-0.8,7.7-1.6,11.5-2.3c0.5-0.1,0.9-0.2,1.4-0.3c0.7-0.1,1.5-0.3,2.2-0.4
				c4.7-0.8,9.5-1.4,14.3-2c0.8-0.1,1.7-0.2,2.5-0.3c0.5,0,1-0.1,1.4-0.1c3.6-0.4,7.2-0.7,10.7-0.9l0.3,0c1.5-0.1,3-0.2,4.5-0.3
				c4.7-0.2,9-0.3,13-0.3h0.1c0.6,0,1.2,0,1.8,0l1,0c2.2,0,4.4,0.1,6.2,0.1c0.3,0,0.7,0,1,0l0.7,0c0.2,0,0.4,0,0.6,0
				c0.3,0,0.5,0,0.8,0c0.2,0,0.5,0,0.8,0c0.2,0,0.4,0,0.6,0c2,0.1,4.6,0.1,7.2,0.3c0.5,0,1,0.1,1.5,0.1l1,0.1
				c2.2,0.2,4.3,0.3,6.5,0.5c0.9,0.1,1.8,0.2,2.8,0.3l2.4,0.3c1.2,0.1,2.4,0.3,3.6,0.5c1.9,0.3,3.9,0.6,5.7,0.9l0.3,0.1
				c0.4,0.1,0.7,0.1,1.1,0.2c0.6,0.1,1.1,0.2,1.7,0.3l0.9,0.1c0.1,0,0.3,0.1,0.4,0.1c0.4,0.1,0.7,0.2,1.1,0.2
				c0.3,0.1,0.6,0.1,0.9,0.2c2.8,0.6,5,1.1,7.1,1.6c1,0.2,2,0.5,2.9,0.8l0.7,0.2c2.2,0.6,4.2,1.1,6.1,1.7c1.3,0.4,2.6,0.8,3.9,1.2
				c1.7,0.5,3.5,1.2,5.6,1.9l0.5,0.2c1.1,0.4,2.3,0.8,3.4,1.2c1.8,0.7,3.5,1.4,5.4,2.2l1.2,0.5c0.9,0.3,1.7,0.7,2.5,1.1
				c2,0.9,4.2,1.9,6.9,3.2c2,1,3.8,2,5.6,2.9l0.9,0.5c1.1,0.6,2.3,1.2,3.4,1.9c1.3,0.8,2.6,1.5,3.9,2.3l0.9,0.6
				c1.1,0.7,2.2,1.4,3.3,2.1c1.3,0.9,2.8,1.8,4.6,3.1c1.1,0.7,2.1,1.5,3.1,2.2c1.7,1.2,3.2,2.4,4.6,3.4c0.7,0.6,1.5,1.2,2.2,1.8
				l0.4,0.3c1.7,1.4,3.2,2.6,4.7,3.9c0.3,0.3,0.6,0.6,1,0.9c0.2,0.2,0.4,0.4,0.6,0.6c5.7,5.1,11,10.7,15.8,16.5
				c0.1,0.2,0.3,0.4,0.4,0.5c0.2,0.3,0.4,0.5,0.6,0.8c1.6,1.9,3.1,3.9,4.2,5.5l0.4,0.5c0.3,0.5,0.7,0.9,1,1.4
				c1.3,1.8,2.5,3.7,3.8,5.6c0.4,0.6,0.8,1.3,1.2,2c1.4,2.3,2.6,4.2,3.6,6.1c0.2,0.3,0.3,0.6,0.5,0.9l0.3,0.6
				c2.7,4.9,4.8,9.4,6.7,13.7c1.5,0.5,3,1.1,4.2,1.6l0.2,0.1c0.1,0,0.3,0.1,0.4,0.1c1.4,0.6,2.7,1.1,4.1,1.7l0.5,0.2
				c0.5,0.2,1,0.4,1.4,0.6c1.1,0.5,2.2,1.1,3.4,1.7c0.7,0.4,1.4,0.7,2,1.1c1.2,0.7,2.1,1.2,2.9,1.7c0.6,0.4,1.2,0.8,1.8,1.2l0.7,0.5
				c0.6,0.4,1.3,0.9,1.9,1.4c0.9,0.7,1.6,1.4,2.3,2l0.3,0.3c0.5,0.5,1,0.9,1.5,1.4c1,1,1.9,2,2.6,3c0.2,0.3,0.4,0.6,0.6,0.9
				c0.1,0.1,0.2,0.2,0.2,0.4c0.7,1,1.2,1.8,1.7,2.6c0.2,0.4,0.4,0.8,0.6,1.3l0,0.1c0.4,0.9,0.8,1.8,1.1,2.7l0,0.1
				c0.1,0.2,0.2,0.4,0.2,0.6l0,0.1c0.1,0.2,0.2,0.4,0.3,0.7c5.2,15.6,7.8,31.9,7.9,48.3c0.2,19.7-3.4,39.6-10.7,59.1l168.4-32.1
				l0.5,2.8l0,0.2c0.5,3.2,1,6.8,1.4,10.7c0.1,0.8,0.1,1.6,0.2,2.3l0.1,1.1c0.2,2.8,0.4,5.2,0.5,7.6c0,1.3,0.1,2.5,0.1,3.8
				c0,2.4,0,5-0.1,7.7l0,1.1c0,0.7,0,1.4-0.1,2.2c-0.2,3.9-0.5,7.4-0.8,10.8c0,0.1-0.1,0.6-0.1,0.6c-0.4,3.2-0.8,6.5-1.5,10.1
				c-0.1,0.7-0.3,1.5-0.4,2.2l-0.2,1c-0.5,2.6-1.1,5.2-1.6,7.6c-0.3,1.1-0.5,2.2-0.8,3.3c-0.7,2.5-1.4,5.1-2.2,7.8
				c-0.1,0.3-0.2,0.7-0.3,1c-0.2,0.5-0.3,1.1-0.5,1.6c-1.2,3.7-2.4,7.1-3.7,10.3c0,0.1-0.1,0.1-0.1,0.2c-1.2,3.1-2.6,6.3-4.2,9.8
				c-0.3,0.6-0.5,1.1-0.8,1.7l-0.4,0.8c-1.2,2.6-2.5,5.1-3.8,7.5c-0.5,0.9-0.9,1.8-1.4,2.6c-1.4,2.6-3,5.2-4.6,7.8
				c-0.1,0.2-0.3,0.4-0.4,0.7c-0.2,0.3-0.4,0.7-0.6,1c-3.9,6.3-8.3,12.5-13.1,18.4c-0.3,0.4-0.7,0.8-1,1.2l-0.5,0.6
				c-1.9,2.3-3.9,4.6-5.8,6.9l-0.2,0.2c-0.5,0.6-1,1.2-1.6,1.8c-2.3,2.5-4.6,4.9-6.9,7.2l-0.4,0.4c-0.2,0.2-0.4,0.4-0.6,0.6
				c-2.8,2.8-5.7,5.5-8.6,8l-0.1,0.1l-0.1,0.1c-2.2,2-4.4,4-7,6.1l-0.6,0.5c-2.2,1.9-4.6,3.7-7.2,5.7l-0.8,0.6
				c-2.3,1.7-4.8,3.5-7.5,5.3l-1,0.7c-2.5,1.7-5.1,3.3-7.9,5l-1,0.6c-2.7,1.6-5.5,3.2-8.4,4.7l-0.9,0.5c-2.9,1.5-5.9,3-8.9,4.4
				l-0.7,0.3c-3.2,1.5-6.4,2.9-9.6,4.2l-0.4,0.2c-3.3,1.3-6.6,2.6-9.9,3.7l-0.4,0.3h-0.5c-2.7,1-5.5,1.9-8.1,2.8l-0.6,0.2
				c-3.1,1-5.7,1.7-8.1,2.4c-0.6,0.2-1.1,0.3-1.7,0.4l-1.9,0.5c-1.8,0.5-3.6,1-5.5,1.4c-3.4,0.8-6.5,1.5-9.6,2.1
				c-3.1,0.6-6.3,1.1-9.7,1.6c-1.9,0.3-3.8,0.5-5.6,0.7c0,0-1.6,0.2-2,0.2c-0.6,0.1-1.1,0.1-1.7,0.2c-2.5,0.3-5.2,0.5-8.4,0.7
				l-0.6,0c-2.9,0.2-5.9,0.3-9,0.4c0,0-0.2,0-0.3,0c-0.2,0-0.4,0-0.6,0c-8.9,0.5-17.5,0.8-25.7,0.8
				C471.2,617.4,470.2,617.4,469.3,617.4z"/>
			<path class="st35" d="M332.9,185.4c0.9,0,1.9,0,2.8,0c2.1,0,4.1,0.1,6.2,0.1c0.6,0,1.2,0,1.8,0c0.4,0,0.9,0,1.3,0
				c0.5,0,0.9,0,1.4,0.1c2.4,0.1,4.8,0.2,7.1,0.3c0.8,0,1.6,0.1,2.4,0.2c2.1,0.2,4.3,0.3,6.4,0.5c1.3,0.1,2.6,0.3,3.9,0.5
				c1.6,0.2,3.2,0.4,4.8,0.6c2,0.3,4,0.6,5.9,1c0.9,0.2,1.9,0.3,2.8,0.5c0.2,0,0.4,0.1,0.6,0.1c0.1,0,0.2,0,0.3,0.1
				c0.1,0,0.1,0,0.2,0.1c0.7,0.1,1.4,0.3,2.1,0.5c2.4,0.5,4.7,1,7,1.6c1.2,0.3,2.4,0.6,3.6,0.9c2,0.5,4,1.1,6,1.7
				c1.3,0.4,2.6,0.8,3.8,1.2c1.9,0.6,3.7,1.2,5.5,1.9c1.3,0.5,2.6,0.9,3.9,1.4c1.8,0.7,3.6,1.4,5.4,2.2c1.2,0.5,2.5,1,3.7,1.5
				c2.3,1,4.5,2.1,6.8,3.2c1.9,0.9,3.7,1.9,5.5,2.8c1.4,0.8,2.9,1.5,4.3,2.3c1.5,0.9,3,1.8,4.4,2.7c1.2,0.7,2.4,1.4,3.5,2.2
				c1.5,1,3,2,4.5,3c1,0.7,2.1,1.4,3.1,2.2c1.5,1.1,3,2.2,4.5,3.4c0.9,0.7,1.7,1.4,2.6,2.1c1.6,1.3,3.1,2.5,4.6,3.9
				c0.5,0.5,1,1,1.6,1.4c5.6,5,10.8,10.5,15.5,16.2c0.4,0.4,0.7,0.8,1.1,1.3c1.4,1.8,2.8,3.6,4.1,5.4c0.5,0.6,0.9,1.2,1.4,1.9
				c1.3,1.8,2.5,3.6,3.7,5.5c0.4,0.6,0.8,1.3,1.2,2c1.2,1.9,2.4,3.9,3.5,5.9c0.3,0.5,0.5,1,0.8,1.5c2.6,4.7,4.9,9.5,7,14.6
				c1.9,0.6,3.6,1.3,5.3,1.9c0.2,0.1,0.4,0.1,0.6,0.2c1.4,0.5,2.7,1.1,4,1.7c0.6,0.3,1.2,0.5,1.8,0.8c1.1,0.5,2.2,1.1,3.3,1.7
				c0.7,0.3,1.3,0.7,1.9,1.1c0.9,0.5,1.9,1.1,2.7,1.6c0.7,0.4,1.3,0.9,1.9,1.3c0.7,0.5,1.5,1,2.2,1.6c0.8,0.6,1.5,1.3,2.2,2
				c0.5,0.5,1.1,1,1.6,1.5c0.9,0.9,1.7,1.8,2.4,2.8c0.3,0.4,0.5,0.8,0.8,1.1c0.5,0.8,1.1,1.6,1.5,2.4c0.2,0.4,0.4,0.8,0.6,1.2
				c0.4,0.8,0.7,1.6,1,2.4c0.1,0.2,0.2,0.4,0.3,0.7c0.1,0.2,0.2,0.4,0.3,0.7c5.2,15.7,7.7,31.6,7.8,47.4
				c0.2,21.3-4.1,42.4-12.2,62.6l159-30.3l3.7-0.7l7.8-1.5v0l0,0c0,0,0,0.1,0,0.1c0.6,3.5,1,7.1,1.4,10.6c0.1,1.1,0.2,2.3,0.3,3.4
				c0.2,2.5,0.4,5,0.5,7.5c0,1.2,0.1,2.5,0.1,3.7c0,2.5,0,5.1-0.1,7.6c0,1.1,0,2.1-0.1,3.2c-0.2,3.5-0.4,7.1-0.8,10.6
				c0,0.2-0.1,0.3-0.1,0.5c-0.4,3.3-0.9,6.7-1.5,10c-0.2,1-0.4,2.1-0.6,3.1c-0.5,2.5-1,5-1.6,7.4c-0.3,1.1-0.5,2.2-0.8,3.3
				c-0.7,2.6-1.4,5.2-2.2,7.7c-0.3,0.8-0.5,1.7-0.8,2.5c-1.1,3.4-2.3,6.8-3.6,10.2c0,0.1-0.1,0.2-0.1,0.2c-1.3,3.2-2.7,6.4-4.1,9.6
				c-0.4,0.8-0.8,1.7-1.2,2.5c-1.2,2.5-2.4,4.9-3.7,7.4c-0.5,0.9-0.9,1.7-1.4,2.6c-1.4,2.6-2.9,5.2-4.5,7.7c-0.3,0.5-0.6,1.1-1,1.6
				c-3.9,6.3-8.2,12.3-12.9,18.2c-0.5,0.6-1,1.2-1.5,1.9c-1.9,2.3-3.8,4.6-5.8,6.8c-0.6,0.6-1.2,1.3-1.7,1.9
				c-2.2,2.4-4.5,4.8-6.8,7.1c-0.3,0.3-0.6,0.6-0.9,0.9c-2.8,2.7-5.6,5.4-8.6,8c0,0,0,0,0,0l0,0c-2.3,2.1-4.6,4.1-7,6.1
				c-0.2,0.2-0.4,0.3-0.6,0.5c-2.3,1.9-4.7,3.8-7.1,5.6c-0.3,0.2-0.6,0.4-0.8,0.6c-2.4,1.8-4.9,3.5-7.4,5.2c-0.3,0.2-0.6,0.4-1,0.6
				c-2.5,1.7-5.1,3.3-7.8,4.9c-0.3,0.2-0.6,0.4-1,0.6c-2.7,1.6-5.4,3.1-8.3,4.6c-0.3,0.2-0.6,0.3-0.9,0.5c-2.9,1.5-5.8,3-8.8,4.4
				c-0.2,0.1-0.4,0.2-0.7,0.3c-3.1,1.4-6.3,2.8-9.5,4.1c-0.1,0.1-0.3,0.1-0.4,0.2c-3.3,1.3-6.7,2.6-10.2,3.8v0l0,0c0,0,0,0,0,0
				c-2.8,1-5.6,2-8.4,2.9c-0.2,0.1-0.4,0.1-0.6,0.2c-2.6,0.8-5.3,1.6-8,2.4c-0.9,0.2-1.8,0.5-2.7,0.7c-2.1,0.5-4.2,1.1-6.3,1.6
				c-3.1,0.7-6.3,1.4-9.5,2c-3.2,0.6-6.4,1.1-9.6,1.6c-2.1,0.3-4.3,0.6-6.4,0.8c-0.9,0.1-1.8,0.2-2.7,0.3c-2.8,0.3-5.5,0.5-8.3,0.7
				c-0.2,0-0.4,0-0.6,0c-3,0.2-5.9,0.3-8.9,0.4c-0.3,0-0.6,0.1-1,0.1c-8.9,0.5-17.4,0.8-25.6,0.8c-1,0-1.9,0-2.8,0
				c-68.6,0-111.8-16-137-47.5c-13.9,2.1-27.6,3.1-40.9,3.1c-90.7,0-164.7-46.7-190.4-124.4c-2.1-6.3-3.8-12.6-5.1-18.9
				c-0.2-0.7-0.3-1.5-0.4-2.2c-0.4-2.2-0.9-4.5-1.2-6.7c-0.3-1.6-0.5-3.3-0.7-4.9c-0.2-1.3-0.4-2.6-0.5-3.9
				c-0.3-2.2-0.4-4.5-0.6-6.7c0-0.7-0.1-1.4-0.2-2.1c-0.2-2.7-0.3-5.4-0.3-8.1c0-0.2,0-0.4,0-0.6c-1.1-83.7,57.2-165.4,160.6-195
				c0.1,0,0.2-0.1,0.3-0.1c4.7-1.4,9.5-2.5,14.3-3.6c1.4-0.3,2.8-0.6,4.3-0.9c3.8-0.8,7.6-1.6,11.4-2.2c1.2-0.2,2.4-0.4,3.5-0.6
				c4.7-0.8,9.5-1.4,14.2-2c1.3-0.2,2.6-0.3,3.9-0.4c3.6-0.4,7.1-0.6,10.6-0.9c1.6-0.1,3.2-0.2,4.8-0.3c4.3-0.2,8.6-0.3,12.9-0.3
				C332.8,185.4,332.8,185.4,332.9,185.4 M332.9,180l-0.1,0c-4.1,0-8.4,0.1-13.2,0.3c-1.6,0.1-3.1,0.2-4.6,0.3l-0.2,0
				c-3.5,0.2-7.2,0.5-10.8,0.9c-0.5,0-1,0.1-1.4,0.1c-0.9,0.1-1.7,0.2-2.6,0.3c-4.8,0.5-9.7,1.2-14.4,2c-0.7,0.1-1.5,0.3-2.2,0.4
				c-0.5,0.1-0.9,0.2-1.4,0.2c-3.9,0.7-7.8,1.4-11.6,2.3l-0.2,0.1c-1.4,0.3-2.7,0.6-4.1,0.9c-5.4,1.3-10.1,2.5-14.5,3.7
				c-0.1,0-0.3,0.1-0.4,0.1c-50.5,14.4-92.8,41.8-122.3,79.1c-14,17.7-24.7,37.1-31.9,57.8c-7.2,20.6-10.7,42-10.4,63.5
				c0,0.1,0,0.3,0,0.4l0,0.2c0,3,0.2,5.7,0.3,8.3c0,0.4,0.1,0.9,0.1,1.3c0,0.3,0,0.5,0.1,0.8c0.2,2.1,0.3,4.5,0.6,6.9
				c0.1,1,0.2,2,0.4,2.9l0.2,1.1l0.1,0.9c0.2,1.3,0.4,2.7,0.6,4.2c0.4,2.4,0.9,4.8,1.3,6.9c0.1,0.3,0.1,0.6,0.2,0.9
				c0.1,0.5,0.2,0.9,0.3,1.4c1.4,6.7,3.2,13.2,5.3,19.5c12.9,39,38.2,71.6,73,94.1c34.3,22.2,76.7,33.9,122.5,33.9
				c12.7,0,25.6-0.9,38.6-2.7c13.3,15.7,30.6,27.1,52.7,34.9c23.4,8.2,51.7,12.2,86.6,12.2c1,0,1.9,0,2.9,0
				c8.2-0.1,16.9-0.3,25.8-0.8c0.2,0,0.5,0,0.7-0.1c0.1,0,0.2,0,0.2,0c3.1-0.1,6.1-0.2,9-0.4l0.4,0l0.2,0c3.3-0.2,6-0.5,8.5-0.7
				c0.6-0.1,1.2-0.1,1.7-0.2c0.4,0,0.7-0.1,1-0.1l0.9-0.1c1.9-0.2,3.8-0.4,5.7-0.7c3.4-0.5,6.7-1,9.8-1.6c3.1-0.6,6.4-1.3,9.8-2.1
				c1.9-0.4,3.7-0.9,5.5-1.4l0.9-0.2c0.4-0.1,0.7-0.2,1-0.3c0.6-0.1,1.2-0.3,1.7-0.5c2.5-0.7,5.1-1.5,8.2-2.4l0.2-0.1
				c0.1,0,0.3-0.1,0.4-0.1c2.7-0.9,5.5-1.8,8.4-2.9l0.1,0l0.2-0.1c3.4-1.2,6.9-2.5,10.3-3.9l0.1-0.1l0.2-0.1
				c3.2-1.3,6.5-2.7,9.7-4.2l0.3-0.1l0.4-0.2c3-1.4,6.1-2.9,9.1-4.5l0.2-0.1c0.2-0.1,0.5-0.2,0.7-0.4c2.9-1.5,5.7-3.1,8.5-4.8
				c0.2-0.1,0.5-0.3,0.7-0.4l0.3-0.2c2.8-1.7,5.5-3.4,8-5.1c0.2-0.1,0.4-0.3,0.7-0.4l0.3-0.2c2.7-1.8,5.2-3.6,7.6-5.4
				c0.2-0.1,0.4-0.3,0.6-0.4l0.3-0.2c2.6-2,5-3.9,7.3-5.8c0.1-0.1,0.2-0.2,0.3-0.3c0.1-0.1,0.1-0.1,0.2-0.2c2.5-2.1,4.8-4.1,6.9-6.1
				l0,0l0.2-0.2c2.9-2.6,5.9-5.3,8.8-8.2c0.2-0.2,0.4-0.4,0.6-0.6c0.1-0.1,0.2-0.2,0.4-0.4c2.4-2.4,4.7-4.8,7-7.3
				c0.5-0.6,1-1.2,1.6-1.7l0.2-0.2c2-2.3,4-4.6,5.9-7l0.5-0.6c0.4-0.4,0.7-0.9,1.1-1.3c4.8-6,9.2-12.3,13.2-18.7
				c0.2-0.3,0.4-0.7,0.6-1c0.1-0.2,0.2-0.4,0.4-0.6c1.6-2.6,3.2-5.3,4.6-7.9c0.5-0.9,1-1.8,1.4-2.7c1.3-2.4,2.6-5,3.8-7.6l0.4-0.8
				c0.3-0.6,0.6-1.2,0.8-1.8c1.6-3.5,3-6.7,4.2-9.8c0.1-0.1,0.1-0.2,0.1-0.3c1.3-3.3,2.5-6.7,3.7-10.5c0.2-0.5,0.3-1.1,0.5-1.7
				c0.1-0.3,0.2-0.6,0.3-0.9c0.9-2.8,1.6-5.4,2.3-7.9c0.3-1.2,0.6-2.4,0.8-3.4c0.6-2.4,1.1-5,1.7-7.7l0.2-1c0.1-0.7,0.3-1.5,0.4-2.2
				c0.6-3.7,1.1-7,1.5-10.3l0-0.1c0-0.2,0-0.3,0.1-0.5c0.4-3.4,0.7-7,0.8-10.9c0-0.7,0.1-1.5,0.1-2.2c0-0.4,0-0.7,0-1.1
				c0.1-2.8,0.1-5.3,0.1-7.8c0-1.2-0.1-2.5-0.1-3.8c-0.1-2.4-0.2-4.9-0.5-7.7c0-0.4-0.1-0.7-0.1-1.1c-0.1-0.8-0.1-1.6-0.2-2.4
				c-0.4-4-0.9-7.5-1.4-10.8c0-0.1,0-0.1,0-0.2l-1-6.5l-5.8,2.1l-7.3,1.4l-3.7,0.7l-149.5,28.5c6.3-18.4,9.4-37,9.2-55.6
				c-0.1-16.7-2.8-33.2-8.1-49.1c-0.1-0.4-0.3-0.8-0.4-1c-0.1-0.3-0.2-0.5-0.3-0.6c-0.3-1-0.7-1.9-1.2-2.9l0-0.1
				c-0.2-0.4-0.4-0.9-0.7-1.4c-0.5-0.9-1.1-1.8-1.8-2.9c-0.1-0.1-0.1-0.2-0.2-0.3c-0.2-0.3-0.4-0.6-0.7-1c-0.8-1.1-1.8-2.1-2.9-3.3
				c-0.5-0.5-1.1-1-1.6-1.5l-0.2-0.2l-0.1,0c-0.8-0.7-1.6-1.4-2.5-2.2c-0.7-0.5-1.3-1-2-1.5l-0.4-0.3l-0.2-0.2
				c-0.6-0.4-1.2-0.8-1.9-1.3c-0.8-0.5-1.7-1.1-3-1.8c-0.7-0.4-1.4-0.8-2.1-1.1c-1.3-0.7-2.4-1.2-3.5-1.8c-0.5-0.2-1-0.4-1.5-0.7
				l-0.5-0.2c-1.4-0.6-2.7-1.2-4.2-1.8c-0.2-0.1-0.3-0.1-0.5-0.2l-0.1-0.1c-1-0.4-2.1-0.8-3.2-1.2c-1.8-4.1-3.8-8.3-6.3-12.8
				c-0.1-0.2-0.2-0.4-0.3-0.6c-0.2-0.3-0.4-0.7-0.5-1c-1-1.9-2.2-3.9-3.6-6.1c-0.4-0.7-0.8-1.4-1.3-2c-1.3-2-2.6-3.9-3.9-5.7
				c-0.3-0.5-0.7-1-1-1.4l-0.4-0.5c-1.1-1.5-2.6-3.6-4.3-5.6c-0.2-0.3-0.5-0.6-0.7-0.8c-0.1-0.2-0.3-0.3-0.4-0.5
				c-4.9-5.9-10.3-11.6-16.1-16.8c-0.2-0.2-0.4-0.4-0.6-0.5c-0.3-0.3-0.7-0.6-1-0.9c-1.6-1.4-3.2-2.7-4.8-4l-0.4-0.3
				c-0.8-0.6-1.5-1.2-2.3-1.8c-1.4-1.1-2.9-2.3-4.7-3.5c-1-0.7-2-1.5-3.2-2.3c-1.8-1.3-3.3-2.2-4.6-3.1c-1.1-0.7-2.2-1.4-3.3-2.1
				l-0.3-0.2l-0.6-0.4c-1.3-0.8-2.6-1.6-3.9-2.4c-1.2-0.7-2.3-1.3-3.5-1.9l-0.9-0.5c-1.7-0.9-3.7-1.9-5.7-2.9
				c-2.7-1.3-4.9-2.4-7-3.3c-0.9-0.4-1.8-0.8-2.6-1.1c-0.4-0.2-0.8-0.3-1.2-0.5c-1.8-0.8-3.7-1.5-5.5-2.2c-1.2-0.4-2.3-0.9-3.5-1.3
				l-0.5-0.2c-2.1-0.7-3.9-1.4-5.7-1.9c-1.3-0.4-2.6-0.8-4-1.2c-1.9-0.6-3.9-1.1-6.1-1.7l-0.7-0.2c-1-0.3-2-0.5-3-0.8
				c-2.1-0.5-4.4-1-7.2-1.6c-0.3-0.1-0.6-0.1-0.8-0.2c-0.4-0.1-0.7-0.2-1.1-0.2c-0.2-0.1-0.4-0.1-0.6-0.1c-0.1,0-0.2,0-0.3,0l0,0
				c-0.1,0-0.2,0-0.4-0.1l-0.1,0c-0.6-0.1-1.2-0.2-1.8-0.3c-0.4-0.1-0.7-0.1-1.1-0.2l-0.3,0c-1.9-0.3-3.8-0.7-5.8-1
				c-1.2-0.2-2.5-0.3-3.7-0.5l-1.2-0.1c-0.4,0-0.8-0.1-1.2-0.2c-0.9-0.1-1.9-0.2-2.8-0.3c-2.1-0.2-4.2-0.4-6.5-0.6
				c-0.3,0-0.6,0-0.9-0.1c-0.5,0-1-0.1-1.5-0.1c-2.1-0.1-4.4-0.2-7.3-0.3c-0.2,0-0.3,0-0.5,0c-0.3,0-0.6,0-0.8,0c-0.3,0-0.5,0-0.8,0
				c-0.2,0-0.3,0-0.5,0l-0.1,0l-0.1,0c-0.2,0-0.5,0-0.7,0c-0.4,0-0.7,0-1.1,0c-1.7-0.1-3.9-0.1-6.2-0.1l-1,0
				C334.1,180,333.5,180,332.9,180L332.9,180z"/>
		</g>
		<g id="Melância_3_">
			<g>
				<path class="st36" d="M291.1,571.7c-92.8,0-166.5-48.2-192.2-125.7c-15.6-47.2-11.2-97.9,12.5-142.8
					c27.4-51.8,77.2-90.2,140.3-108.3c26.6-7.6,53.9-11.5,81.1-11.5c3.9,0,7.9,0.1,11.8,0.2c12.1,0.3,24.1,1.5,35.5,3.8l0.3,0.1
					c0.1,0,0.2,0,0.3,0.1c28.5,5.6,54.9,17.2,76.4,33.4c22.4,16.9,39,38.2,49.3,63.2c19.4,6.5,31,15.6,34.6,26.9c0,0,0,0,0,0
					c0,0,0,0,0,0.1c0.1,0.2,0.2,0.4,0.2,0.6c13.8,41.5,9.2,87.3-12.8,128.9c-29.5,55.8-86.4,99.2-156.2,119.2
					C345.1,567.7,317.7,571.7,291.1,571.7C291.1,571.7,291.1,571.7,291.1,571.7z"/>
				<path class="st37" d="M332.9,185.3c3.9,0,7.9,0.1,11.8,0.2c12,0.3,23.8,1.5,35.3,3.7c0.1,0,0.2,0,0.3,0.1c0.1,0,0.1,0,0.2,0.1
					c56.4,11.1,103.9,45.1,124.8,96.3c19.8,6.5,30.9,15.5,34.2,26c0.1,0.2,0.2,0.4,0.3,0.7c33.1,99.8-42,209.8-167.7,245.8
					c-27.9,8-55.1,11.8-81,11.8c-90.8,0-164.7-46.8-190.4-124.4c-33.1-99.8,25.9-212.8,151.6-248.7
					C279.4,189,306.6,185.3,332.9,185.3 M332.9,181.6c-27.4,0-54.8,3.9-81.6,11.5c-63.6,18.2-113.9,57-141.4,109.2
					c-24,45.3-28.5,96.6-12.7,144.2c12.8,38.7,37.8,70.9,72.3,93.3c34,22,76.1,33.7,121.6,33.7c26.8,0,54.4-4,82-11.9
					c70.3-20.1,127.6-63.8,157.3-120.1c10.9-20.7,17.6-42.2,20-64c2.4-22.6,0-44.9-7.1-66.4c-0.1-0.4-0.3-0.6-0.3-0.8
					c-3.8-11.7-15.5-21-34.9-27.6c-10.5-25-27.2-46.2-49.6-63.2c-21.7-16.4-48.3-28.1-77-33.7c-0.1,0-0.3-0.1-0.5-0.1
					c-0.1,0-0.2,0-0.3,0l-0.1,0c-11.6-2.2-23.6-3.5-35.8-3.8C340.9,181.7,336.9,181.6,332.9,181.6L332.9,181.6z"/>
			</g>
			<g>
				<g>
					<path class="st34" d="M539.8,312.3c33.1,99.8-42,209.8-167.7,245.8s-238.3-12.9-271.4-112.7s25.9-212.8,151.6-248.7
						c43.7-12.5,87.7-14.4,128-7.4c31.8,5.5-6,121.2,19,137C433.8,348.2,527.3,274.6,539.8,312.3z"/>
					<path class="st38" d="M539.8,312.7c33.1,99.8-42,209.8-167.7,245.8s-238.3-12.9-271.4-112.7c-15.7-47.2-10.7-97.4,12.2-141
						C39.9,541.1,505.4,639.2,539.8,312.7z"/>
				</g>
				<g>
					<g>
						<path class="st36" d="M505.2,285.7c66.1,21.7,36.9,71.3-65.8,112s-239.7,56.6-305.8,34.9L505.2,285.7z"/>
						<path class="st39" d="M494.7,289.9c60.9,20.1,32.3,66.4-64.6,104.9s-225,53.8-285.9,33.7L494.7,289.9z"/>
						<path class="st40" d="M471.7,298.9c53.2,16.9,28,57.8-56.1,91.1s-195.1,46.1-248.3,29.2L471.7,298.9z"/>
						<g>
							<path class="st41" d="M360.7,385.2c1.6,1.1-0.5,3-4.6,4.2c-4.1,1.3-8.8,1.5-10.4,0.4s-4.9-6.6-0.8-7.9
								C349.1,380.7,359.2,384.1,360.7,385.2z"/>
							<path class="st41" d="M299.7,401.7c-0.1,1.5-3.8,3.3-8.2,4.1s-7.9,0.2-7.8-1.2c0.1-1.5,4.2-8.3,8.6-9.1
								S299.8,400.2,299.7,401.7z"/>
							<path class="st41" d="M239.6,409.2c-1.6,1.6-6.3,3.2-10.4,3.4c-4.1,0.2-6.2-0.9-4.6-2.5c1.6-1.6,11.8-8.8,16-9.1
								S241.3,407.6,239.6,409.2z"/>
							<path class="st41" d="M395.7,371.3c3.1,0.4,8.2-0.5,11.4-2.1c3.1-1.6,3.2-3.3,0-3.7c-3.1-0.4-19-1-22.1,0.6
								S392.6,370.9,395.7,371.3z"/>
							<path class="st41" d="M435.2,347.9c4.1-0.2,8.8-1.7,10.5-3.4s-0.2-2.8-4.3-2.6c-4.1,0.2-22.8,2.4-24.6,4.1
								C415.1,347.7,431.1,348.2,435.2,347.9z"/>
							<path class="st41" d="M449.6,325.9c4.4-0.8,8.2-2.6,8.4-4c0.2-1.5-3.2-2.1-7.6-1.3c-4.4,0.8-23.4,5.1-23.6,6.6
								C426.5,328.7,445.1,326.7,449.6,325.9z"/>
						</g>
					</g>
					<g>
						<path class="st42" d="M133.7,432.6c-35.5-86.9,18.9-190.2,121.5-230.7s214.6-3,250.1,83.9L133.7,432.6z"/>
						<path class="st43" d="M144.2,428.4c-32.7-80.1,19.2-176,116-214.3s201.8-4.3,234.5,75.7L144.2,428.4z"/>
						<path class="st44" d="M167.2,419.3c-28.4-69.6,16.7-152.9,100.8-186.2s175.3-3.8,203.7,65.8L167.2,419.3z"/>
						<g>
							<path class="st41" d="M305.4,275c-0.5-3.4,2.3-6.8,6.2-7.6c3.9-0.8,7.5,1.3,8,4.7c0.5,3.4-0.6,18.4-4.5,19.2
								S305.9,278.4,305.4,275z"/>
							<path class="st41" d="M361.4,269.3c1-3.4,5-5.8,8.8-5.2s6,3.8,5,7.2c-1,3.4-8.5,17.5-12.3,17
								C359,287.8,360.3,272.7,361.4,269.3z"/>
							<path class="st41" d="M410.8,284.5c2.3-3,6.7-4.1,9.9-2.4c3.2,1.7,4,5.5,1.7,8.6s-14.5,14.5-17.7,12.8
								S408.5,287.5,410.8,284.5z"/>
							<path class="st41" d="M270.4,288.9c-2-2.8-6.4-3.3-9.8-1.2c-3.4,2.1-4.5,6-2.4,8.8c2,2.8,13.4,12.9,16.8,10.8
								C278.4,305.1,272.5,291.6,270.4,288.9z"/>
							<path class="st41" d="M226,322.8c-3.2-1.8-7.6-0.8-10,2.2s-1.7,6.9,1.5,8.6c3.2,1.8,18.5,6.9,20.8,3.9
								C240.7,334.5,229.1,324.6,226,322.8z"/>
							<path class="st41" d="M201,367.4c-3.8-0.6-7.7,1.6-8.9,5c-1.1,3.4,1,6.7,4.8,7.4c3.8,0.6,20.7,0.6,21.8-2.8
								C219.9,373.5,204.8,368,201,367.4z"/>
						</g>
					</g>
				</g>
			</g>
			<g>
				<path class="st42" d="M705.8,389.9c4.6,103.6-55.2,215.4-208.4,223.9c-142.2,7.9-190.5-41-195.1-144.5L705.8,389.9z"/>
				<g>
					<path class="st36" d="M705.8,389.9c17,100.2-59.5,198.7-170.9,219.9s-215.4-42.8-232.4-143L705.8,389.9z"/>
					<path class="st39" d="M694.4,392.1c15.7,92.4-56.8,183.5-161.8,203.5c-105,20-202.9-38.7-218.5-131L694.4,392.1z"/>
					<path class="st40" d="M669.4,396.9c13.6,80.3-49.3,159.4-140.6,176.8S352.6,540.1,339,459.8L669.4,396.9z"/>
					<g>
						<path class="st41" d="M500.3,521c-0.2,3.7-3.7,6.7-7.8,6.7c-4.1,0-7.2-3-7-6.7c0.2-3.7,4.5-19.5,8.6-19.5
							S500.6,517.3,500.3,521z"/>
						<path class="st41" d="M443.1,515.1c-1.8,3.4-6.2,5.1-9.9,3.7c-3.7-1.4-5.2-5.4-3.5-8.8s12.3-16.9,16-15.5
							C449.4,495.9,444.8,511.6,443.1,515.1z"/>
						<path class="st41" d="M396.9,488.3c-2.9,2.7-7.6,2.9-10.5,0.4c-2.9-2.5-2.8-6.8,0.1-9.5s17.6-12.4,20.5-9.9
							C409.9,471.9,399.8,485.6,396.9,488.3z"/>
						<path class="st41" d="M538.3,513.8c1.4,3.4,5.7,4.9,9.5,3.4c3.8-1.5,5.8-5.5,4.3-8.9c-1.4-3.4-10.7-16.6-14.5-15.1
							C533.8,494.7,536.8,510.4,538.3,513.8z"/>
						<path class="st41" d="M590,487.1c2.8,2.6,7.5,2.5,10.5-0.2s3.1-6.9,0.4-9.5c-2.8-2.6-17-11.3-20-8.6S587.2,484.5,590,487.1z"
							/>
						<path class="st41" d="M624.5,444.9c3.6,1.5,8.1,0,10-3.4c1.9-3.4,0.4-7.4-3.2-8.9c-3.6-1.5-20.6-5.1-22.4-1.7
							C606.9,434.3,620.9,443.4,624.5,444.9z"/>
					</g>
				</g>
			</g>
			<g>
				<path class="st41" d="M705.8,389.9c10.7,62.9-15.5,125.1-64,168c-19.1,17.7-42.7,32.2-71.3,42.1c-11.4,4.1-23.2,7.5-35.5,9.8
					c-12.3,2.3-24.6,3.6-36.6,3.9c-0.3,0-0.6,0.1-1,0.1c-9.9,0.6-19.4,0.8-28.4,0.8c-120.3,0-162.5-49-166.7-145.4l0.8-0.2
					c-0.1-0.8-0.3-1.6-0.5-2.4l201.6-38.4l190.2-36.2L705.8,389.9 M708.8,385.6l-3.7,0.7l-11.5,2.2l-190.2,36.2l-201.6,38.4
					l-3.5,0.7l0.4,2.4l-0.3,0.1l0.1,3.2c1.1,25.4,4.8,46.4,11.1,64.4c6.8,19.2,16.6,34.5,29.9,46.9c13.7,12.8,30.8,22,52.1,28.2
					c21.5,6.3,46.8,9.3,77.2,9.3c9,0,18.7-0.3,28.6-0.8c0.2,0,0.4,0,0.6,0c0.1,0,0.2,0,0.3,0c12.6-0.3,25-1.7,37.1-4
					c12.1-2.3,24.2-5.6,36.1-10c27.9-9.6,52.3-24.1,72.5-42.8c51.3-45.3,75.7-109.4,65.2-171.3L708.8,385.6L708.8,385.6z"/>
			</g>
		</g>
	</g>
</g>
<g id="img_x5F_Melancia_x5F_001_x5F_bg">
</g>
<g id="img_x5F_Melancia_x5F_001_x5F_01">
</g>
<g id="img_x5F_Melancia_x5F_001_x5F_02">
</g>
<g id="img_x5F_Melancia_x5F_001_x5F_03">
</g>
<g id="img_x5F_Melancia_x5F_001_x5F_04">
</g>
<g id="img_x5F_Tanborin_x5F_001_x5F_">
</g>
<g id="img_x5F_Tanborin_x5F_001_x5F_bg">
</g>
<g id="img_x5F_Tanborin_x5F_001_x5F_02">
</g>
<g id="img_x5F_Tanborin_x5F_001_x5F_01">
</g>
<g id="img_x5F_Tanborin_x5F_001_x5F_03">
</g>
<g id="img_x5F_Tanborin_x5F_001_x5F_04">
</g>
<g id="img_x5F_Corasao_x5F_001_x5F_">
</g>
<g id="img_x5F_Corasao_x5F_001_x5F_bg">
</g>
<g id="img_x5F_Corasao_x5F_001_x5F_01">
</g>
<g id="img_x5F_Corasao_x5F_001_x5F_02">
</g>
<g id="img_x5F_Corasao_x5F_001_x5F_03">
</g>
<g id="img_x5F_Corasao_x5F_001_x5F_04">
</g>
<g id="img_x5F_Bicicleta_x5F_001_x5F_">
</g>
<g id="img_x5F_Bicicleta_x5F_001_x5F_bg">
</g>
<g id="img_x5F_Bicicleta_x5F_001_x5F_01">
</g>
<g id="img_x5F_Bicicleta_x5F_001_x5F_02">
</g>
<g id="img_x5F_Bicicleta_x5F_001_x5F_03">
</g>
<g id="img_x5F_Bicicleta_x5F_001_x5F_04">
</g>
<g id="Camada_39">
</g>
<g id="Camada_40">
</g>
<g id="Camada_1">
</g>
</svg>
