<?xml version="1.0" encoding="utf-8"?>
<!-- Generator: Adobe Illustrator 21.0.0, SVG Export Plug-In . SVG Version: 6.00 Build 0)  -->
<svg version="1.1" xmlns="http://www.w3.org/2000/svg" xmlns:xlink="http://www.w3.org/1999/xlink" x="0px" y="0px"
	 viewBox="0 0 622.4 441.8" style="enable-background:new 0 0 622.4 441.8;" xml:space="preserve">
<style type="text/css">
	.st0{fill:#F2F0F0;}
	.st1{fill:#FFFFFF;}
	.st2{fill:#E2B5B5;}
	.st3{fill:#CE1B1B;}
	.st4{fill:#211915;}
	.st5{fill:#F46262;}
	.st6{fill:#D1D1D1;}
	.st7{fill:#ADADAD;}
	.st8{fill:#C3E0B6;}
	.st9{fill:#67D354;}
	.st10{fill:#98F482;}
	.st11{fill:none;stroke:#070707;stroke-width:6.0459;stroke-linecap:round;stroke-linejoin:round;stroke-miterlimit:10;}
	.st12{fill:#96842A;}
	.st13{fill:#DDCA47;}
	.st14{fill:#B4A135;}
	.st15{fill:#786724;}
	.st16{fill:#EDD974;}
	.st17{fill:#B8A63A;}
	.st18{fill:#150D16;}
	.st19{fill:#7A7A7A;}
	.st20{fill:#070707;}
	.st21{fill:#EAB447;}
	.st22{fill:#0C0903;}
	.st23{fill:#D8A127;}
	.st24{fill:#CC9423;}
	.st25{fill:#BC881E;}
	.st26{fill:#682C0F;}
	.st27{fill:#4C1D0A;}
	.st28{fill:#F7E93E;}
	.st29{fill:#E0CF38;}
	.st30{fill:#C90000;}
	.st31{fill:#B70000;}
	.st32{fill:#57A02B;}
	.st33{fill:#478420;}
	.st34{fill:#1A763D;}
	.st35{fill:#070208;}
	.st36{fill:#11582F;}
	.st37{fill:#0A090A;}
	.st38{fill:#0E5B31;}
	.st39{fill:#F8EEDF;}
	.st40{fill:#C12D1B;}
	.st41{fill:#1D0F10;}
	.st42{fill:#003E1E;}
	.st43{fill:#DBCFC1;}
	.st44{fill:#A0241A;}
	.st45{opacity:0.48;fill:#897678;}
	.st46{fill:#FFFFFF;stroke:#211915;stroke-miterlimit:10;}
	.st47{opacity:0.48;fill:#1D0F10;}
	.st48{fill:#2D4484;}
	.st49{fill:#050502;}
	.st50{fill:#1B3163;}
	.st51{fill:#0B1938;}
	.st52{fill:#9C9CA0;}
	.st53{fill:#717177;}
	.st54{fill:#C9C39D;}
	.st55{fill:#FCF9D4;}
	.st56{fill:#F4EFC3;}
	.st57{fill:#C23517;}
	.st58{fill:#A0241B;}
	.st59{fill:#F3E4E5;}
	.st60{fill:#2D1423;}
	.st61{fill:#8A191D;}
	.st62{fill:#6E191C;}
	.st63{fill:#C85D56;}
	.st64{fill:none;}
	.st65{fill:#101B46;}
	.st66{fill:#50A8C9;}
	.st67{fill:#538795;}
	.st68{fill:#101B46;stroke:#070208;stroke-width:2.0705;stroke-miterlimit:10;}
	.st69{fill:#0C0C11;}
	.st70{fill:#7B8A7C;stroke:#0A080A;stroke-width:1.7794;stroke-linecap:round;stroke-linejoin:round;stroke-miterlimit:10;}
	.st71{fill:#7B8A7C;stroke:#0A080A;stroke-width:1.8591;stroke-linecap:round;stroke-linejoin:round;stroke-miterlimit:10;}
	.st72{fill:#87BED5;}
	.st73{fill:#7A7A7A;stroke:#070707;stroke-width:2.8529;stroke-linecap:round;stroke-linejoin:round;stroke-miterlimit:10;}
	.st74{fill:none;stroke:#CE1B1B;stroke-width:15.2467;stroke-linecap:round;stroke-linejoin:round;stroke-miterlimit:10;}
</style>
<g id="BG">
</g>
<g id="Box_x5F_Red">
</g>
<g id="Box_x5F_gray">
</g>
<g id="Box_x5F_green">
</g>
<g id="Mic_x5F_red_x5F_001">
</g>
<g id="Mic_x5F_Green_x5F_001">
</g>
<g id="Mic_x5F_red_x5F_002">
</g>
<g id="Mic_x5F_Green_x5F_002">
</g>
<g id="Mic_x5F_red_x5F_003">
</g>
<g id="Mic_x5F_Green_x5F_003">
</g>
<g id="Camada_12">
</g>
<g id="Camada_13">
</g>
<g id="img_x5F_queijo_x5F_001_x5F_">
</g>
<g id="img_x5F_queijo_x5F_001_x5F_bg">
</g>
<g id="img_x5F_queijo_x5F_001_x5F_01">
</g>
<g id="img_x5F_queijo_x5F_001_x5F_02">
</g>
<g id="img_x5F_queijo_x5F_001_x5F_03">
</g>
<g id="img_x5F_Burger_x5F_001_x5F_">
</g>
<g id="img_x5F_Burger_x5F_001_x5F_bg">
</g>
<g id="img_x5F_Burger_x5F_001_x5F_01">
</g>
<g id="img_x5F_Burger_x5F_001_x5F_02">
</g>
<g id="img_x5F_Burger_x5F_001_x5F_03">
</g>
<g id="img_x5F_Burger_x5F_001_x5F_04">
</g>
<g id="img_x5F_Melancia_x5F_001_x5F_">
	<g>
		<path class="st1" d="M466.9,134v0.5C467,134.3,467,134.2,466.9,134"/>
		<path class="st35" d="M194,125.8h-1.5c-0.3,4.7-0.4,9.5-0.4,14.3c0,0.1,0,0.3,0,0.4l0,0.2c0,3,0.1,5.7,0.3,8.3
			c0,0.4,0.1,0.9,0.1,1.3c0,0.3,0,0.5,0.1,0.8c0.2,2.1,0.3,4.5,0.6,6.9c0.1,1,0.2,2,0.4,2.9l0.2,1.1l0.1,0.9
			c0.2,1.3,0.4,2.7,0.6,4.2c0.4,2.4,0.9,4.8,1.3,6.9c0.1,0.3,0.1,0.6,0.2,0.9c0.1,0.5,0.2,0.9,0.3,1.4c1.4,6.7,3.2,13.2,5.3,19.5
			c12.9,39,38.2,71.6,73,94.1c34.3,22.2,76.7,33.9,122.5,33.9c12.7,0,25.6-0.9,38.6-2.7c8.6,10.2,19,18.6,31.2,25.4v-1.9
			c-8-4.5-15.2-9.7-21.6-15.7c-3.4-3.1-6.5-6.5-9.4-10c-13.2,1.8-26.2,2.8-39.1,2.8c-45.5,0-87.6-11.6-121.6-33.7
			c-34.5-22.3-59.5-54.6-72.3-93.3C195.4,172.3,192.5,148.9,194,125.8"/>
		<path class="st37" d="M197.7,125.8H194c-1.5,23.1,1.4,46.5,8.9,69c12.8,38.7,37.8,70.9,72.3,93.3c34,22,76.1,33.7,121.6,33.7
			c12.9,0,25.9-0.9,39.1-2.8c-0.8-1-1.6-2-2.4-3c-12.5,1.7-24.7,2.5-36.6,2.5c-90.8,0-164.7-46.8-190.4-124.4
			c-3-9-5.2-18.1-6.7-27.2C197.4,153.2,196.8,139.4,197.7,125.8"/>
		<path class="st34" d="M408,217.5c0,0.2,0,0.3,0,0.5C408,217.8,408,217.7,408,217.5 M408.7,217.4l-0.7,0.1l0,0L408.7,217.4
			L408.7,217.4 M197.8,125.8L197.8,125.8c-1,13.6-0.3,27.4,1.9,41C197.4,153.2,196.8,139.4,197.8,125.8 M228.5,125.8h-15.7
			c14.3,84.8,104.3,139.7,198.8,143.8c-4-15.1-6.4-32.2-7.3-52l-0.1-3.2l0.3-0.1L404,212l3.5-0.7l7.6-1.4
			c1.2-13.6,12.6-24.6,26.3-25.2c0.5,0,0.9,0,1.4,0c5.7,0,11,1.7,15.4,4.7c0.9,0.6,2,0.9,3.1,0.9c0,0,0,0,0,0c1.4,0,2.8-0.6,3.8-1.5
			c1-1,1.7-2.4,1.7-4v-14.1c-51.5,12.8-105,19.8-150.4,19.8c-30.3,0-57.1-3.1-77.2-9.8l10.6-4.2l0,0l-10.6,4.2
			C232,162.9,228.5,144.4,228.5,125.8"/>
		<path class="st38" d="M212.8,125.8h-15.1c-0.9,13.6-0.3,27.4,1.9,41c1.5,9.1,3.7,18.2,6.7,27.2c25.7,77.7,99.6,124.4,190.4,124.4
			c11.9,0,24.2-0.8,36.6-2.5c-7.5-9.7-13.4-20.9-18-33.9c-1.4-4-2.7-8.1-3.8-12.5C317.1,265.5,227.1,210.6,212.8,125.8"/>
		<path class="st36" d="M414.7,111.4l-164.8,65.2l0,0l-10.6,4.2c20.1,6.6,46.9,9.8,77.2,9.8c45.4,0,98.8-7,150.4-19.8v-5.6
			c-50.5,13.1-103,20.3-147,20.3c-27.6,0-51.8-2.8-70-8.8L414.7,111.4L414.7,111.4"/>
		<path class="st39" d="M414.7,111.4l-164.8,65.2c18.2,6,42.4,8.8,70,8.8c44,0,96.5-7.2,147-20.3v-9
			c-45.5,12.2-93.3,18.8-133.1,18.8c-24,0-45-2.4-60.9-7.4L414.7,111.4L414.7,111.4"/>
		<path class="st40" d="M333.9,160.9c-3.4,0-5-1.1-3.5-2.6c1.6-1.6,11.8-8.8,16-9.1c0.1,0,0.1,0,0.2,0c3.8,0,0.4,6.6-1.2,8.2
			c-1.6,1.6-6.3,3.2-10.4,3.4C334.5,160.9,334.2,160.9,333.9,160.9 M393.4,154.4c-2.5,0-4.1-0.6-4-1.6c0.1-1.5,4.2-8.3,8.6-9.1
			c0.3-0.1,0.6-0.1,0.9-0.1c4,0,6.7,5,6.6,6.3c-0.1,1.5-3.8,3.3-8.2,4.1C395.8,154.2,394.5,154.4,393.4,154.4 M414.7,111.4
			l-141.8,56.1c15.9,5,36.9,7.4,60.9,7.4c39.8,0,87.6-6.6,133.1-18.8v-21.6c-0.3,1-2.2,2.2-5.1,3.2c-2.3,0.7-4.8,1.1-6.9,1.1
			c-1.6,0-2.8-0.2-3.5-0.7c-1.6-1.1-4.9-6.6-0.8-7.9c0.6-0.2,1.4-0.3,2.3-0.3c4.8,0,12.2,2.6,13.5,3.5c0.3,0.2,0.4,0.4,0.5,0.6v-8.2
			h-32.1h-23.9l-0.2,0h0c-0.3,0-0.5-0.2-0.7-0.4c-0.2-0.2-0.4-0.6-0.4-0.9c0-0.2,0.1-0.5,0.2-0.7l0,0
			C412.3,120.1,414,115.9,414.7,111.4"/>
		<path class="st41" d="M452.9,129.9c-0.9,0-1.6,0.1-2.3,0.3c-4.1,1.3-0.8,6.8,0.8,7.9c0.7,0.5,2,0.7,3.5,0.7c2,0,4.5-0.4,6.9-1.1
			c3-0.9,4.9-2.1,5.1-3.2V134c-0.1-0.2-0.2-0.4-0.5-0.6C465.1,132.5,457.7,129.9,452.9,129.9"/>
		<path class="st41" d="M398.8,143.6c-0.3,0-0.6,0-0.9,0.1c-4.4,0.8-8.5,7.6-8.6,9.1c-0.1,1,1.6,1.6,4,1.6c1.1,0,2.4-0.1,3.8-0.4
			c4.4-0.8,8.1-2.6,8.2-4.1C405.5,148.5,402.8,143.6,398.8,143.6"/>
		<path class="st41" d="M346.5,149.2c-0.1,0-0.1,0-0.2,0c-4.1,0.2-14.3,7.4-16,9.1c-1.5,1.5,0.1,2.6,3.5,2.6c0.3,0,0.7,0,1.1,0
			c4.1-0.2,8.8-1.8,10.4-3.4C346.9,155.8,350.3,149.2,346.5,149.2"/>
		<path class="st42" d="M240.1,125.8h-11.5h-0.1c0.1,18.6,3.6,37.1,10.9,55l10.6-4.2C243.2,160.1,240,143,240.1,125.8"/>
		<path class="st43" d="M414.7,111.4l-141.8,56.1c-5.5-13.5-8.3-27.6-8.5-41.7h-5.1h-15.8h-3.4c-0.1,17.2,3.1,34.3,9.8,50.8l0,0l0,0
			L414.7,111.4C414.7,111.4,414.7,111.4,414.7,111.4"/>
		<path class="st44" d="M383.1,73.9c-5,0-9.7,1.1-13.9,3.2c-3.8,1.8-7.2,4.4-10,7.5c-5.1,5.7-8.2,13.2-8.2,21.4
			c0,6.6,2,12.7,5.4,17.8c0.2,0.3,0.2,0.5,0.2,0.7c0,0.3-0.1,0.7-0.4,0.9c-0.2,0.2-0.5,0.4-0.9,0.4h-0.2h-26.1H324
			c-1.9,1.9-9.5,2.5-15.3,2.5c-2.7,0-5-0.1-6.2-0.3c-1.7-0.3-3-1.1-3.9-2.2h-3.5h-24.3h-6.5c0.2,14.1,3,28.2,8.5,41.7l141.8-56.1
			c0.3-1.8,0.5-3.6,0.5-5.5c0-0.5,0-1.1,0-1.6c-0.8-16.1-13.7-29.3-29.8-30.4C384.6,73.9,383.9,73.9,383.1,73.9"/>
		<path class="st41" d="M324,125.8h-25.3c0.9,1.1,2.2,1.9,3.9,2.2c1.1,0.2,3.4,0.3,6.2,0.3C314.5,128.3,322.1,127.7,324,125.8"/>
		<path class="st42" d="M408.7,217.4l-0.7,0.1l0,0c0,0.2,0,0.3,0,0.5c2.7,58.4,19.3,99.3,58.9,122.4v-24.3
			C437.1,291.1,416,257.1,408.7,217.4"/>
		<path class="st36" d="M415,213.7l-6.8,1.3c0.1,0.8,0.3,1.6,0.5,2.4l0,0v0c7.3,39.8,28.4,73.7,58.2,98.7v-11.9v-5.1
			c-19.3-17.9-33.9-40-42.1-65.3c-0.6-0.5-1.1-1-1.7-1.6c-0.3-0.3-0.6-0.6-0.9-0.9C418,226.6,415.3,220.5,415,213.7"/>
		<path class="st39" d="M424.9,233.8c8.2,25.3,22.8,47.4,42.1,65.3v-15.9v-21.5c-5.2-7.3-9.6-15.1-13.3-23.4
			c-3.3,1.4-7,2.2-10.8,2.2c-4,0-7.7-0.8-11.1-2.3C429.2,237,426.9,235.5,424.9,233.8"/>
		<path class="st40" d="M461.4,234.8c-1,0-2.1,0.3-3.1,0.9c-1.5,1-3,1.8-4.6,2.5c3.6,8.3,8.1,16.1,13.3,23.4v-21.4
			c0-1.6-0.7-3-1.7-4C464.2,235.3,462.8,234.8,461.4,234.8C461.4,234.8,461.4,234.8,461.4,234.8"/>
		<path class="st41" d="M415.1,209.9l-7.6,1.4L404,212l0.4,2.4l-0.3,0.1l0.1,3.2c0.9,19.7,3.3,36.9,7.3,52c1.1,4.3,2.4,8.5,3.8,12.5
			c4.6,13,10.5,24.2,18,33.9c0.8,1,1.6,2,2.4,3c2.9,3.5,6.1,6.9,9.4,10c6.4,6,13.6,11.2,21.6,15.7v-4.3
			c-39.6-23.1-56.3-64.1-58.9-122.4c0-0.2,0-0.3,0-0.5l0,0l0,0l0.7-0.1l0,0c-0.1-0.8-0.3-1.6-0.5-2.4l0,0l6.8-1.3c0-0.4,0-0.8,0-1.2
			c0-0.7,0-1.3,0.1-2C415.1,210.3,415.1,210.1,415.1,209.9"/>
	</g>
</g>
<g id="img_x5F_Melancia_x5F_001_x5F_bg">
</g>
<g id="img_x5F_Melancia_x5F_001_x5F_01">
</g>
<g id="img_x5F_Melancia_x5F_001_x5F_02">
</g>
<g id="img_x5F_Melancia_x5F_001_x5F_03">
</g>
<g id="img_x5F_Melancia_x5F_001_x5F_04">
</g>
<g id="img_x5F_Tanborin_x5F_001_x5F_">
</g>
<g id="img_x5F_Tanborin_x5F_001_x5F_bg">
</g>
<g id="img_x5F_Tanborin_x5F_001_x5F_02">
</g>
<g id="img_x5F_Tanborin_x5F_001_x5F_01">
</g>
<g id="img_x5F_Tanborin_x5F_001_x5F_03">
</g>
<g id="img_x5F_Tanborin_x5F_001_x5F_04">
</g>
<g id="img_x5F_Corasao_x5F_001_x5F_">
</g>
<g id="img_x5F_Corasao_x5F_001_x5F_bg">
</g>
<g id="img_x5F_Corasao_x5F_001_x5F_01">
</g>
<g id="img_x5F_Corasao_x5F_001_x5F_02">
</g>
<g id="img_x5F_Corasao_x5F_001_x5F_03">
</g>
<g id="img_x5F_Corasao_x5F_001_x5F_04">
</g>
<g id="img_x5F_Bicicleta_x5F_001_x5F_">
</g>
<g id="img_x5F_Bicicleta_x5F_001_x5F_bg">
</g>
<g id="img_x5F_Bicicleta_x5F_001_x5F_01">
</g>
<g id="img_x5F_Bicicleta_x5F_001_x5F_02">
</g>
<g id="img_x5F_Bicicleta_x5F_001_x5F_03">
</g>
<g id="img_x5F_Bicicleta_x5F_001_x5F_04">
</g>
<g id="Camada_39">
</g>
<g id="Camada_40">
</g>
<g id="Camada_1">
</g>
</svg>
