<?xml version="1.0" encoding="utf-8"?>
<!-- Generator: Adobe Illustrator 21.0.0, SVG Export Plug-In . SVG Version: 6.00 Build 0)  -->
<svg version="1.1" xmlns="http://www.w3.org/2000/svg" xmlns:xlink="http://www.w3.org/1999/xlink" x="0px" y="0px"
	 viewBox="0 0 800 800" style="enable-background:new 0 0 800 800;" xml:space="preserve">
<style type="text/css">
	.st0{fill:#F2F0F0;}
	.st1{fill:#FFFFFF;}
	.st2{fill:#E2B5B5;}
	.st3{fill:#CE1B1B;}
	.st4{fill:#211915;}
	.st5{fill:#F46262;}
	.st6{fill:#D1D1D1;}
	.st7{fill:#ADADAD;}
	.st8{fill:#C3E0B6;}
	.st9{fill:#67D354;}
	.st10{fill:#98F482;}
	.st11{fill:none;stroke:#070707;stroke-width:6.0459;stroke-linecap:round;stroke-linejoin:round;stroke-miterlimit:10;}
	.st12{fill:#96842A;}
	.st13{fill:#DDCA47;}
	.st14{fill:#B4A135;}
	.st15{fill:#786724;}
	.st16{fill:#EDD974;}
	.st17{fill:#B8A63A;}
	.st18{fill:#150D16;}
	.st19{fill:#7A7A7A;}
	.st20{fill:#070707;}
	.st21{fill:#EAB447;}
	.st22{fill:#0C0903;}
	.st23{fill:#D8A127;}
	.st24{fill:#CC9423;}
	.st25{fill:#BC881E;}
	.st26{fill:#682C0F;}
	.st27{fill:#4C1D0A;}
	.st28{fill:#F7E93E;}
	.st29{fill:#E0CF38;}
	.st30{fill:#C90000;}
	.st31{fill:#B70000;}
	.st32{fill:#57A02B;}
	.st33{fill:#478420;}
	.st34{fill:#1A763D;}
	.st35{fill:#070208;}
	.st36{fill:#11582F;}
	.st37{fill:#0A090A;}
	.st38{fill:#0E5B31;}
	.st39{fill:#F8EEDF;}
	.st40{fill:#C12D1B;}
	.st41{fill:#1D0F10;}
	.st42{fill:#003E1E;}
	.st43{fill:#DBCFC1;}
	.st44{fill:#A0241A;}
	.st45{fill:#2D4484;}
	.st46{fill:#050502;}
	.st47{fill:#1B3163;}
	.st48{fill:#0B1938;}
	.st49{fill:#9C9CA0;}
	.st50{fill:#717177;}
	.st51{fill:#C9C39D;}
	.st52{fill:#FCF9D4;}
	.st53{fill:#F4EFC3;}
	.st54{fill:#C23517;}
	.st55{fill:#A0241B;}
	.st56{fill:#F3E4E5;}
	.st57{fill:#2D1423;}
	.st58{fill:#8A191D;}
	.st59{fill:#6E191C;}
	.st60{fill:#C85D56;}
	.st61{fill:none;}
	.st62{fill:#101B46;}
	.st63{fill:#50A8C9;}
	.st64{fill:#538795;}
	.st65{fill:#101B46;stroke:#070208;stroke-width:2.0705;stroke-miterlimit:10;}
	.st66{fill:#0C0C11;}
	.st67{fill:#7B8A7C;stroke:#0A080A;stroke-width:1.7794;stroke-linecap:round;stroke-linejoin:round;stroke-miterlimit:10;}
	.st68{fill:#7B8A7C;stroke:#0A080A;stroke-width:1.8591;stroke-linecap:round;stroke-linejoin:round;stroke-miterlimit:10;}
	.st69{fill:#87BED5;}
	.st70{fill:#7A7A7A;stroke:#070707;stroke-width:2.8529;stroke-linecap:round;stroke-linejoin:round;stroke-miterlimit:10;}
	.st71{fill:none;stroke:#CE1B1B;stroke-width:15.2467;stroke-linecap:round;stroke-linejoin:round;stroke-miterlimit:10;}
</style>
<g id="BG">
</g>
<g id="Box_x5F_Red">
</g>
<g id="Box_x5F_gray">
</g>
<g id="Box_x5F_green">
</g>
<g id="Mic_x5F_red_x5F_001">
</g>
<g id="Mic_x5F_Green_x5F_001">
</g>
<g id="Mic_x5F_red_x5F_002">
</g>
<g id="Mic_x5F_Green_x5F_002">
</g>
<g id="Mic_x5F_red_x5F_003">
</g>
<g id="Mic_x5F_Green_x5F_003">
</g>
<g id="Camada_12">
</g>
<g id="Camada_13">
</g>
<g id="img_x5F_queijo_x5F_001_x5F_">
</g>
<g id="img_x5F_queijo_x5F_001_x5F_bg">
</g>
<g id="img_x5F_queijo_x5F_001_x5F_01">
	<g>
		<path class="st12" d="M274.2,405.6c1.1,0.1,2.3,0.1,3.4,0.1c17,0,31.4-9.1,34.7-23c1.9-8.2-0.5-16.7-5.9-23.7
			c1.8,4.2,2.1,9.3,0.7,15.3c-3.4,14.9-13.1,24-32.9,31.3C274.1,405.6,274.2,405.6,274.2,405.6C274.2,405.6,274.2,405.6,274.2,405.6
			z"/>
		<path class="st12" d="M269.7,341.8C269.7,341.8,269.7,341.8,269.7,341.8c3.5,0,7.1,0.4,10.8,1.3c0,0,0,0,0,0c0,0,0,0,0,0
			C276.9,342.2,273.2,341.8,269.7,341.8z"/>
		<path class="st12" d="M268.2,341.8L268.2,341.8c0,0,0.1,0,0.1,0l0,0C268.3,341.8,268.2,341.8,268.2,341.8z"/>
		<path class="st12" d="M290.4,510.7C290.4,510.7,290.4,510.7,290.4,510.7c2.2,0,4.5,0.3,6.7,0.8c0,0,0,0,0,0c0,0,0,0,0,0
			C294.8,511,292.6,510.8,290.4,510.7z"/>
		<path class="st12" d="M288.1,554.7c2.3,0.5,4.6,0.7,6.8,0.7c12,0.1,22.2-6.3,24.4-16.1c0.9-3.8,0.4-7.7-1.1-11.4c0,0,0,0,0,0
			c-2.7,11.6-14.6,25.2-30.3,26.7C288.1,554.7,288.1,554.7,288.1,554.7C288.1,554.7,288.1,554.7,288.1,554.7z"/>
		<polygon class="st12" points="290.1,576.4 290.1,576.4 290.2,576.4 290.2,576.4 		"/>
		<path class="st12" d="M284,511.2L284,511.2c0,0,0.1,0,0.1,0c0,0,0,0,0,0C284,511.2,284,511.2,284,511.2z"/>
		<path class="st13" d="M312.3,382.8c-3.2,13.9-17.7,23-34.7,23c17,0,31.6-9,34.8-23c3.9-17-10.3-34.7-31.7-39.7
			c-3.7-0.9-7.3-1.3-10.9-1.3c3.5,0,7.1,0.4,10.8,1.3c0,0,0,0,0,0c11,2.5,20.1,8.5,25.8,15.9C311.8,366.1,314.2,374.5,312.3,382.8z"
			/>
		<path class="st13" d="M503.8,419.6c-15.2-7.6-26.2-18.6-37.1-30.4c-5.9-5.1-9.3-11-11-18.6c-0.8-5.1-0.8-9.3,2.5-13.5
			c12.7-13.5,35.4-20.3,39.7-38c-15.6-15.1-30.2-30.5-45.3-45.8L263,284.3c0,0,0,0,0,0c-1.1,0.2,2.1,24.5,5.2,57.5h0
			c0,0,0.1,0,0.1,0c-3-33-6.3-57.6-5.2-57.5c0,0,123.9,104.5,225.5,146.1c12.1,4.9,26.7,10.1,43.1,15.3
			C526.1,434.7,515.3,425.3,503.8,419.6z"/>
		<path class="st13" d="M319.4,539.3c-2.3,9.8-12.5,16.1-24.4,16.1c12,0.1,22.3-6.2,24.6-16.1c2.7-11.9-7.2-24.3-22.2-27.8
			c-2.3-0.5-4.6-0.8-6.9-0.8c2.2,0,4.5,0.3,6.7,0.8c0,0,0,0,0,0c10.2,2.3,18,8.8,21.2,16.4C319.8,531.6,320.2,535.5,319.4,539.3z"/>
		<path class="st13" d="M274.2,405.6c0,0-0.1,0-0.1,0c0,0,0,0,0,0c3.4,36.2,6.9,74.4,9.9,105.5c0,0,0,0,0,0c0,0,0.1,0,0.1,0
			C281.2,480.1,277.6,441.8,274.2,405.6z"/>
		<path class="st13" d="M288.2,554.7c0,0-0.1,0-0.1,0c0,0,0,0,0,0c1.3,13.6,2,21.7,2,21.7h0l0.1,0
			C290.2,576.3,289.4,568.2,288.2,554.7z"/>
		<path class="st14" d="M530.2,506.7c-9.4-10.7-13.5-24.3-11.3-36.7c0-0.1,0-0.1,0-0.2c-0.1,0.1-0.2,0.1-0.3,0.2
			c0.9-5.3,3-10.3,6.2-14.8c2.2-3,4.8-5.6,7.8-7.7c-0.3-0.6-0.6-1.3-0.9-1.9c-16.4-5.2-31-10.3-43.1-15.3
			C387,388.8,263.1,284.3,263.1,284.3c-1.1-0.1,2.1,24.5,5.2,57.5c0,0,0,0,0,0c0.5,0,0.9,0,1.4,0c0,0,0,0,0,0
			c3.6,0,7.2,0.4,10.9,1.3c21.5,5,35.7,22.7,31.7,39.7c-3.2,14-17.8,23-34.8,23c-1.1,0-2.2,0-3.4-0.1c0,0,0,0,0,0
			c3.4,36.2,6.9,74.4,9.9,105.5c0,0,0,0,0,0c0,0,0,0,0,0c2-0.3,4.2-0.5,6.3-0.5c0,0,0,0,0,0c2.2,0,4.5,0.3,6.9,0.8
			c15,3.5,25,15.9,22.2,27.8c-2.3,9.8-12.6,16.2-24.6,16.1c-2.2,0-4.5-0.3-6.8-0.7c0,0,0,0,0,0c1.3,13.5,2,21.6,2,21.7v0
			c0,0,0,0,0,0l211.7-18.1c0.7-0.9,1.3-1.9,1.9-2.9C513.7,540.2,523.8,523.8,530.2,506.7z M407.1,503.2c-2.4,1-4.9,1.7-7.5,2.1
			c-17.5,2.6-36.5-9.4-45.1-29.8c0,0,0-0.1-0.1-0.3c-8.4-20.3-3.6-42.2,10.5-52.8c2-1.5,4.3-2.8,6.7-3.8
			c19.2-8.1,42.8,4.4,52.5,27.7C434,469.7,426.4,495.2,407.1,503.2z"/>
		<path class="st12" d="M357.4,450c-7,13.1-3.6,23.4-2.9,25.2c0,0.1,0.1,0.2,0.1,0.3c8.5,20.4,27.6,32.5,45.1,29.8
			c2.5-0.4,5-1.1,7.5-2.1c0,0,9-20.3,0-47.4C398.1,428.7,365.1,435.5,357.4,450z"/>
		<path class="st15" d="M354.6,475.5c0-0.1-0.1-0.2-0.1-0.3C354.5,475.4,354.6,475.5,354.6,475.5z"/>
		<path class="st15" d="M371.7,418.6c-2.4,1-4.7,2.3-6.7,3.8c-14.1,10.6-18.9,32.4-10.5,52.8c-0.7-1.8-4-12.1,2.9-25.2
			c7.7-14.5,40.6-21.2,49.7,5.9c9,27.1,0,47.4,0,47.4c19.2-8.1,26.9-33.5,17.1-56.9C414.5,423,391,410.6,371.7,418.6z"/>
		<path class="st16" d="M423.6,244.9c-7.5-6.6-14.2-13.7-20-21.3C332.6,253,263,282.3,263,284.3h0l189.6-10.9
			C443.2,263.8,433.7,254.3,423.6,244.9z"/>
		<path class="st12" d="M536.5,462.1c-5.6,1.7-11.5,4.3-17.6,7.7c0,0.1,0,0.1,0,0.2c-2.2,12.4,1.9,26,11.3,36.7
			C535.7,492.2,538.6,477.2,536.5,462.1z"/>
		<path class="st15" d="M532.6,447.5c-2.9,2.1-5.5,4.7-7.8,7.7c-3.3,4.5-5.3,9.5-6.2,14.8c0.1-0.1,0.2-0.1,0.3-0.2
			c6.1-3.4,12-6,17.6-7.7c-0.5-3.5-1.2-7-2.3-10.5C533.8,450.3,533.2,448.9,532.6,447.5z"/>
	</g>
</g>
<g id="img_x5F_queijo_x5F_001_x5F_02">
</g>
<g id="img_x5F_queijo_x5F_001_x5F_03">
</g>
<g id="img_x5F_Burger_x5F_001_x5F_">
</g>
<g id="img_x5F_Burger_x5F_001_x5F_bg">
</g>
<g id="img_x5F_Burger_x5F_001_x5F_01">
</g>
<g id="img_x5F_Burger_x5F_001_x5F_02">
</g>
<g id="img_x5F_Burger_x5F_001_x5F_03">
</g>
<g id="img_x5F_Burger_x5F_001_x5F_04">
</g>
<g id="img_x5F_Melancia_x5F_001_x5F_">
</g>
<g id="img_x5F_Melancia_x5F_001_x5F_bg">
</g>
<g id="img_x5F_Melancia_x5F_001_x5F_01">
</g>
<g id="img_x5F_Melancia_x5F_001_x5F_02">
</g>
<g id="img_x5F_Melancia_x5F_001_x5F_03">
</g>
<g id="img_x5F_Melancia_x5F_001_x5F_04">
</g>
<g id="img_x5F_Tanborin_x5F_001_x5F_">
</g>
<g id="img_x5F_Tanborin_x5F_001_x5F_bg">
</g>
<g id="img_x5F_Tanborin_x5F_001_x5F_02">
</g>
<g id="img_x5F_Tanborin_x5F_001_x5F_01">
</g>
<g id="img_x5F_Tanborin_x5F_001_x5F_03">
</g>
<g id="img_x5F_Tanborin_x5F_001_x5F_04">
</g>
<g id="img_x5F_Corasao_x5F_001_x5F_">
</g>
<g id="img_x5F_Corasao_x5F_001_x5F_bg">
</g>
<g id="img_x5F_Corasao_x5F_001_x5F_01">
</g>
<g id="img_x5F_Corasao_x5F_001_x5F_02">
</g>
<g id="img_x5F_Corasao_x5F_001_x5F_03">
</g>
<g id="img_x5F_Corasao_x5F_001_x5F_04">
</g>
<g id="img_x5F_Bicicleta_x5F_001_x5F_">
</g>
<g id="img_x5F_Bicicleta_x5F_001_x5F_bg">
</g>
<g id="img_x5F_Bicicleta_x5F_001_x5F_01">
</g>
<g id="img_x5F_Bicicleta_x5F_001_x5F_02">
</g>
<g id="img_x5F_Bicicleta_x5F_001_x5F_03">
</g>
<g id="img_x5F_Bicicleta_x5F_001_x5F_04">
</g>
<g id="Camada_39">
</g>
<g id="Camada_40">
</g>
<g id="Camada_1">
</g>
</svg>
