<?xml version="1.0" encoding="utf-8"?>
<!-- Generator: Adobe Illustrator 21.0.0, SVG Export Plug-In . SVG Version: 6.00 Build 0)  -->
<svg version="1.1" xmlns="http://www.w3.org/2000/svg" xmlns:xlink="http://www.w3.org/1999/xlink" x="0px" y="0px"
	 viewBox="0 0 401.3 364.8" style="enable-background:new 0 0 401.3 364.8;" xml:space="preserve">
<style type="text/css">
	.st0{fill:#F2F0F0;}
	.st1{fill:#FFFFFF;}
	.st2{fill:#E2B5B5;}
	.st3{fill:#CE1B1B;}
	.st4{fill:#211915;}
	.st5{fill:#F46262;}
	.st6{fill:#D1D1D1;}
	.st7{fill:#ADADAD;}
	.st8{fill:#C3E0B6;}
	.st9{fill:#67D354;}
	.st10{fill:#98F482;}
	.st11{fill:none;stroke:#070707;stroke-width:6.0459;stroke-linecap:round;stroke-linejoin:round;stroke-miterlimit:10;}
	.st12{fill:#96842A;}
	.st13{fill:#DDCA47;}
	.st14{fill:#B4A135;}
	.st15{fill:#786724;}
	.st16{fill:#EDD974;}
	.st17{fill:#B8A63A;}
	.st18{fill:#150D16;}
	.st19{fill:#7A7A7A;}
	.st20{fill:#070707;}
	.st21{fill:#EAB447;}
	.st22{fill:#0C0903;}
	.st23{fill:#D8A127;}
	.st24{fill:#CC9423;}
	.st25{fill:#BC881E;}
	.st26{fill:#682C0F;}
	.st27{fill:#4C1D0A;}
	.st28{fill:#F7E93E;}
	.st29{fill:#E0CF38;}
	.st30{fill:#C90000;}
	.st31{fill:#B70000;}
	.st32{fill:#57A02B;}
	.st33{fill:#478420;}
	.st34{fill:#1A763D;}
	.st35{fill:#070208;}
	.st36{fill:#11582F;}
	.st37{fill:#0A090A;}
	.st38{fill:#0E5B31;}
	.st39{fill:#F8EEDF;}
	.st40{fill:#C12D1B;}
	.st41{fill:#1D0F10;}
	.st42{fill:#003E1E;}
	.st43{fill:#DBCFC1;}
	.st44{fill:#A0241A;}
	.st45{opacity:0.48;fill:#897678;}
	.st46{fill:#FFFFFF;stroke:#211915;stroke-miterlimit:10;}
	.st47{opacity:0.48;fill:#1D0F10;}
	.st48{fill:#2D4484;}
	.st49{fill:#050502;}
	.st50{fill:#1B3163;}
	.st51{fill:#0B1938;}
	.st52{fill:#9C9CA0;}
	.st53{fill:#717177;}
	.st54{fill:#C9C39D;}
	.st55{fill:#FCF9D4;}
	.st56{fill:#F4EFC3;}
	.st57{fill:#C23517;}
	.st58{fill:#A0241B;}
	.st59{fill:#F3E4E5;}
	.st60{fill:#2D1423;}
	.st61{fill:#8A191D;}
	.st62{fill:#6E191C;}
	.st63{fill:#C85D56;}
	.st64{fill:none;}
	.st65{fill:#101B46;}
	.st66{fill:#50A8C9;}
	.st67{fill:#538795;}
	.st68{fill:#101B46;stroke:#070208;stroke-width:2.0705;stroke-miterlimit:10;}
	.st69{fill:#0C0C11;}
	.st70{fill:#7B8A7C;stroke:#0A080A;stroke-width:1.7794;stroke-linecap:round;stroke-linejoin:round;stroke-miterlimit:10;}
	.st71{fill:#7B8A7C;stroke:#0A080A;stroke-width:1.8591;stroke-linecap:round;stroke-linejoin:round;stroke-miterlimit:10;}
	.st72{fill:#87BED5;}
	.st73{fill:#7A7A7A;stroke:#070707;stroke-width:2.8529;stroke-linecap:round;stroke-linejoin:round;stroke-miterlimit:10;}
	.st74{fill:none;stroke:#CE1B1B;stroke-width:15.2467;stroke-linecap:round;stroke-linejoin:round;stroke-miterlimit:10;}
</style>
<g id="BG">
</g>
<g id="Box_x5F_Red">
</g>
<g id="Box_x5F_gray">
</g>
<g id="Box_x5F_green">
</g>
<g id="Mic_x5F_red_x5F_001">
</g>
<g id="Mic_x5F_Green_x5F_001">
</g>
<g id="Mic_x5F_red_x5F_002">
</g>
<g id="Mic_x5F_Green_x5F_002">
</g>
<g id="Mic_x5F_red_x5F_003">
</g>
<g id="Mic_x5F_Green_x5F_003">
</g>
<g id="Camada_12">
</g>
<g id="Camada_13">
</g>
<g id="img_x5F_queijo_x5F_001_x5F_">
</g>
<g id="img_x5F_queijo_x5F_001_x5F_bg">
</g>
<g id="img_x5F_queijo_x5F_001_x5F_01">
</g>
<g id="img_x5F_queijo_x5F_001_x5F_02">
</g>
<g id="img_x5F_queijo_x5F_001_x5F_03">
</g>
<g id="img_x5F_Burger_x5F_001_x5F_">
</g>
<g id="img_x5F_Burger_x5F_001_x5F_bg">
</g>
<g id="img_x5F_Burger_x5F_001_x5F_01">
</g>
<g id="img_x5F_Burger_x5F_001_x5F_02">
</g>
<g id="img_x5F_Burger_x5F_001_x5F_03">
</g>
<g id="img_x5F_Burger_x5F_001_x5F_04">
</g>
<g id="img_x5F_Melancia_x5F_001_x5F_">
	<g>
		<path class="st35" d="M266.1,47.1h-0.1c-4.1,0-8.4,0.1-13.2,0.3c-1.6,0.1-3.1,0.2-4.6,0.3l-0.2,0c-3.5,0.2-7.2,0.5-10.8,0.9
			c-0.5,0-1,0.1-1.4,0.1c-0.9,0.1-1.7,0.2-2.6,0.3c-4.8,0.5-9.7,1.2-14.4,2c-0.7,0.1-1.5,0.3-2.2,0.4c-0.5,0.1-0.9,0.2-1.4,0.2
			c-3.9,0.7-7.8,1.4-11.6,2.3l-0.2,0.1c-1.4,0.3-2.7,0.6-4.1,0.9c-5.4,1.3-10.1,2.5-14.5,3.7c-0.1,0-0.3,0.1-0.4,0.1
			C133.8,73.2,91.5,100.5,62,137.8c-14,17.7-24.7,37.1-31.9,57.8c-5.6,16-8.9,32.5-10,49.2h1.5c1.7-25.8,8.9-51.3,21.5-75.2
			c27.6-52.2,77.8-91,141.4-109.2c26.8-7.6,54.2-11.5,81.6-11.5c4,0,7.9,0.1,11.9,0.2c5.5,0.1,11,0.5,16.4,1v-1.7
			c-1.6-0.1-3.2-0.3-5-0.4c-0.3,0-0.6,0-0.9-0.1c-0.5,0-1-0.1-1.5-0.1c-2.1-0.1-4.4-0.2-7.3-0.3c-0.2,0-0.3,0-0.5,0
			c-0.3,0-0.6,0-0.8,0c-0.3,0-0.5,0-0.8,0c-0.2,0-0.3,0-0.5,0l-0.1,0l-0.1,0c-0.2,0-0.5,0-0.7,0c-0.4,0-0.7,0-1.1,0
			c-1.7-0.1-3.9-0.1-6.2-0.1l-1,0C267.3,47.1,266.7,47.1,266.1,47.1"/>
		<path class="st37" d="M266.1,48.8c-27.4,0-54.8,3.9-81.6,11.5c-63.6,18.2-113.9,57-141.4,109.2c-12.6,23.9-19.9,49.4-21.5,75.2
			h3.6c5.3-78.6,62.7-153,160.3-180.9c27.1-7.7,54.3-11.4,80.6-11.4c3.7,0,7.3,0.1,10.9,0.2c5.8,0.1,11.6,0.5,17.4,1V50
			c-5.4-0.5-10.9-0.9-16.4-1C274.1,48.9,270.1,48.8,266.1,48.8"/>
		<path class="st34" d="M266.1,52.5c-26.4,0-53.6,3.7-80.6,11.4C87.9,91.8,30.5,166.2,25.2,244.7h0.1c1.7-25.2,8.8-49.9,20.8-72.8
			c-8.1,26.1-9.5,50.5-5.8,72.8H56C55.8,173,106.8,101.2,188.4,69c28.1-11.1,56.8-16.3,84.5-16.3c1.4,0,2.8,0,4.2,0
			C273.4,52.5,269.8,52.5,266.1,52.5"/>
		<path class="st38" d="M46.1,172c-12,22.9-19.1,47.6-20.8,72.8h15.1C36.6,222.4,38.1,198,46.1,172"/>
		<polyline class="st39" points="294.4,209.8 252.6,226.3 242.3,230.4 242.3,230.4 294.4,209.8 294.4,209.8 		"/>
		<path class="st40" d="M294.4,209.8l-52.2,20.6c-0.8,4.5-2.5,8.7-4.9,12.3l0,0c-0.2,0.3-0.2,0.5-0.2,0.7c0,0.3,0.1,0.7,0.4,0.9
			c0.2,0.2,0.4,0.3,0.7,0.4h0l0.2,0h56v-22.2v0V209.8"/>
		<path class="st42" d="M272.9,52.6c-27.7,0-56.4,5.3-84.5,16.3C106.8,101.2,55.8,173,56,244.7h0.1h11.5
			c0.3-66.3,48.9-133.1,125.8-163.5c27-10.7,54.7-15.7,81.2-15.7c6.7,0,13.3,0.3,19.9,1v-0.1V53.7c-5.7-0.6-11.5-0.9-17.4-1
			C275.7,52.6,274.3,52.6,272.9,52.6"/>
		<path class="st43" d="M294.4,209.8l-41.8,16.5L294.4,209.8L294.4,209.8 M274.6,65.5c-26.5,0-54.2,5.1-81.2,15.7
			C116.5,111.6,68,178.4,67.6,244.7H71h15.8h5.1c-0.9-58.4,41.5-117.7,109.2-144.4c23.5-9.3,47.5-13.7,70.5-13.7
			c7.7,0,15.3,0.5,22.7,1.5v-0.7V66.5C287.9,65.9,281.3,65.5,274.6,65.5"/>
		<path class="st44" d="M168.4,205.6c-5.3,0-15.2-3.4-17.7-4.8c-3.2-1.8-3.8-5.6-1.5-8.6c1.6-2,4-3.1,6.5-3.1c1.2,0,2.4,0.3,3.5,0.9
			c3.2,1.8,14.7,11.7,12.4,14.7C171,205.3,169.9,205.6,168.4,205.6 M207.1,174.6c-4.3,0-13.8-8.5-15.6-11.1c-2-2.8-0.9-6.7,2.4-8.8
			c1.4-0.9,2.9-1.3,4.4-1.3c2.1,0,4.2,0.9,5.4,2.5c2,2.8,7.9,16.3,4.6,18.4C207.9,174.6,207.5,174.6,207.1,174.6 M247.9,158.6
			c-3.9,0-8.8-13.1-9.3-16.4c-0.5-3.4,2.3-6.8,6.2-7.6c0.6-0.1,1.1-0.2,1.6-0.2c3.2,0,5.9,2,6.3,4.9c0.5,3.4-0.6,18.4-4.5,19.2
			C248.1,158.6,248,158.6,247.9,158.6 M271.7,86.6c-23,0-47.1,4.4-70.5,13.7c-67.7,26.8-110.2,86-109.2,144.4h6.5h24.3h3.5
			c-1.1-1.4-1.5-3.3-0.9-5.2c1-3,4.2-5.1,7.6-5.1c0.4,0,0.9,0,1.3,0.1c3.8,0.6,18.9,6.2,17.7,9.6c-0.1,0.2-0.2,0.4-0.4,0.6h5.1h26.1
			h0.2c0.4,0,0.7-0.1,0.9-0.4c0.2-0.2,0.4-0.6,0.4-0.9c0-0.2-0.1-0.5-0.2-0.7c-3.4-5.1-5.4-11.2-5.4-17.8c0-8.2,3.1-15.7,8.2-21.4
			c2.8-3.1,6.2-5.7,10-7.5c4.2-2,8.9-3.2,13.9-3.2c0.8,0,1.5,0,2.3,0.1c16.1,1.1,29,14.3,29.8,30.4c0,0.5,0,1.1,0,1.6
			c0,1.9-0.2,3.7-0.5,5.5l10.4-4.1l41.8-16.5v-24c0-1.6,0.7-3,1.7-4c1-1,2.4-1.5,3.8-1.5c0,0,0,0,0,0c1,0,2.1,0.3,3.1,0.9
			c4.4,2.9,9.7,4.7,15.4,4.7c0.5,0,0.9,0,1.4,0c11.2-0.5,20.7-7.8,24.6-17.9c-2.3,1.6-4.4,2.8-5.8,2.8c-0.3,0-0.6-0.1-0.8-0.2
			c-3.2-1.7,3.8-16,6.1-19c0.4-0.5,0.8-0.9,1.3-1.3c-1.2-4.2-3.3-7.9-6.2-11c-0.3-0.3-0.6-0.6-0.9-0.9c-2.4-2.4-5.3-4.4-8.6-5.8
			c-3.4-1.5-7.2-2.3-11.1-2.3c-4.2,0-8.2,0.9-11.8,2.6c1.6,1.4,2.3,3.5,1.6,5.7c-1,3.4-8.2,17-12.1,17c-0.1,0-0.2,0-0.2,0
			c-3.8-0.6-2.5-15.6-1.4-19c0.3-0.9,0.7-1.7,1.3-2.4c-0.9-1-1.5-2.3-1.5-3.8V88.1C287,87.1,279.4,86.6,271.7,86.6"/>
		<path class="st41" d="M246.4,134.5c-0.5,0-1.1,0.1-1.6,0.2c-3.9,0.8-6.7,4.2-6.2,7.6c0.5,3.3,5.4,16.4,9.3,16.4c0.1,0,0.2,0,0.3,0
			c3.9-0.8,5-15.8,4.5-19.2C252.3,136.4,249.6,134.5,246.4,134.5"/>
		<path class="st41" d="M306.7,132.8c-1.3,0.6-2.5,1.3-3.7,2.1c-0.9,0.6-2,0.9-3.1,0.9c0,0,0,0,0,0c-1.4,0-2.8-0.6-3.8-1.5
			c-0.1-0.1-0.1-0.1-0.2-0.2c-0.6,0.7-1.1,1.5-1.3,2.4c-1,3.4-2.4,18.5,1.4,19c0.1,0,0.1,0,0.2,0c3.9,0,11.1-13.6,12.1-17
			C309,136.3,308.3,134.2,306.7,132.8"/>
		<path class="st41" d="M345.2,150.3c-0.5,0.4-0.9,0.8-1.3,1.3c-2.3,3-9.3,17.3-6.1,19c0.2,0.1,0.5,0.2,0.8,0.2
			c1.4,0,3.5-1.2,5.8-2.8c1-2.5,1.6-5.2,1.8-8c0-0.7,0.1-1.3,0.1-2C346.3,155.3,345.9,152.7,345.2,150.3"/>
		<path class="st41" d="M198.3,153.5c-1.5,0-3,0.4-4.4,1.3c-3.4,2.1-4.5,6-2.4,8.8c1.8,2.5,11.4,11.1,15.6,11.1
			c0.4,0,0.8-0.1,1.1-0.3c3.4-2.1-2.5-15.6-4.6-18.4C202.4,154.4,200.4,153.5,198.3,153.5"/>
		<path class="st41" d="M155.7,189.1c-2.4,0-4.9,1.1-6.5,3.1c-2.3,3-1.7,6.9,1.5,8.6c2.5,1.4,12.4,4.8,17.7,4.8
			c1.5,0,2.6-0.3,3.1-0.9c2.3-3-9.2-12.9-12.4-14.7C158.1,189.4,156.9,189.1,155.7,189.1"/>
		<path class="st41" d="M132.9,234.4c-3.3,0-6.6,2.1-7.6,5.1c-0.6,1.9-0.2,3.8,0.9,5.2h25.3c0.2-0.2,0.3-0.4,0.4-0.6
			c1.1-3.4-14-8.9-17.7-9.6C133.8,234.5,133.3,234.4,132.9,234.4"/>
	</g>
</g>
<g id="img_x5F_Melancia_x5F_001_x5F_bg">
</g>
<g id="img_x5F_Melancia_x5F_001_x5F_01">
</g>
<g id="img_x5F_Melancia_x5F_001_x5F_02">
</g>
<g id="img_x5F_Melancia_x5F_001_x5F_03">
</g>
<g id="img_x5F_Melancia_x5F_001_x5F_04">
</g>
<g id="img_x5F_Tanborin_x5F_001_x5F_">
</g>
<g id="img_x5F_Tanborin_x5F_001_x5F_bg">
</g>
<g id="img_x5F_Tanborin_x5F_001_x5F_02">
</g>
<g id="img_x5F_Tanborin_x5F_001_x5F_01">
</g>
<g id="img_x5F_Tanborin_x5F_001_x5F_03">
</g>
<g id="img_x5F_Tanborin_x5F_001_x5F_04">
</g>
<g id="img_x5F_Corasao_x5F_001_x5F_">
</g>
<g id="img_x5F_Corasao_x5F_001_x5F_bg">
</g>
<g id="img_x5F_Corasao_x5F_001_x5F_01">
</g>
<g id="img_x5F_Corasao_x5F_001_x5F_02">
</g>
<g id="img_x5F_Corasao_x5F_001_x5F_03">
</g>
<g id="img_x5F_Corasao_x5F_001_x5F_04">
</g>
<g id="img_x5F_Bicicleta_x5F_001_x5F_">
</g>
<g id="img_x5F_Bicicleta_x5F_001_x5F_bg">
</g>
<g id="img_x5F_Bicicleta_x5F_001_x5F_01">
</g>
<g id="img_x5F_Bicicleta_x5F_001_x5F_02">
</g>
<g id="img_x5F_Bicicleta_x5F_001_x5F_03">
</g>
<g id="img_x5F_Bicicleta_x5F_001_x5F_04">
</g>
<g id="Camada_39">
</g>
<g id="Camada_40">
</g>
<g id="Camada_1">
</g>
</svg>
