<?xml version="1.0" encoding="utf-8"?>
<!-- Generator: Adobe Illustrator 21.0.0, SVG Export Plug-In . SVG Version: 6.00 Build 0)  -->
<svg version="1.1" xmlns="http://www.w3.org/2000/svg" xmlns:xlink="http://www.w3.org/1999/xlink" x="0px" y="0px"
	 viewBox="0 0 800 800" style="enable-background:new 0 0 800 800;" xml:space="preserve">
<style type="text/css">
	.st0{fill:#F2F0F0;}
	.st1{fill:#FFFFFF;}
	.st2{fill:#E2B5B5;}
	.st3{fill:#CE1B1B;}
	.st4{fill:#211915;}
	.st5{fill:#F46262;}
	.st6{fill:#D1D1D1;}
	.st7{fill:#ADADAD;}
	.st8{fill:#C3E0B6;}
	.st9{fill:#67D354;}
	.st10{fill:#98F482;}
	.st11{fill:none;stroke:#070707;stroke-width:6.0459;stroke-linecap:round;stroke-linejoin:round;stroke-miterlimit:10;}
	.st12{fill:#96842A;}
	.st13{fill:#DDCA47;}
	.st14{fill:#B4A135;}
	.st15{fill:#786724;}
	.st16{fill:#EDD974;}
	.st17{fill:#B8A63A;}
	.st18{fill:#150D16;}
	.st19{fill:#7A7A7A;}
	.st20{fill:#070707;}
	.st21{fill:#EAB447;}
	.st22{fill:#0C0903;}
	.st23{fill:#D8A127;}
	.st24{fill:#CC9423;}
	.st25{fill:#BC881E;}
	.st26{fill:#682C0F;}
	.st27{fill:#4C1D0A;}
	.st28{fill:#F7E93E;}
	.st29{fill:#E0CF38;}
	.st30{fill:#C90000;}
	.st31{fill:#B70000;}
	.st32{fill:#57A02B;}
	.st33{fill:#478420;}
	.st34{fill:#1A763D;}
	.st35{fill:#070208;}
	.st36{fill:#11582F;}
	.st37{fill:#0A090A;}
	.st38{fill:#0E5B31;}
	.st39{fill:#F8EEDF;}
	.st40{fill:#C12D1B;}
	.st41{fill:#1D0F10;}
	.st42{fill:#003E1E;}
	.st43{fill:#DBCFC1;}
	.st44{fill:#A0241A;}
	.st45{clip-path:url(#SVGID_2_);fill:#003E1E;}
	.st46{clip-path:url(#SVGID_2_);fill:#11582F;}
	.st47{clip-path:url(#SVGID_2_);fill:#F8EEDF;}
	.st48{clip-path:url(#SVGID_2_);fill:#C12D1B;}
	.st49{clip-path:url(#SVGID_2_);fill:#1D0F10;}
	.st50{clip-path:url(#SVGID_4_);fill:#003E1E;}
	.st51{clip-path:url(#SVGID_4_);fill:#11582F;}
	.st52{clip-path:url(#SVGID_4_);fill:#F8EEDF;}
	.st53{clip-path:url(#SVGID_4_);fill:#C12D1B;}
	.st54{clip-path:url(#SVGID_4_);fill:#1D0F10;}
	.st55{clip-path:url(#SVGID_6_);fill:#003E1E;}
	.st56{clip-path:url(#SVGID_6_);fill:#11582F;}
	.st57{clip-path:url(#SVGID_6_);fill:#F8EEDF;}
	.st58{clip-path:url(#SVGID_6_);fill:#C12D1B;}
	.st59{clip-path:url(#SVGID_6_);fill:#1D0F10;}
	.st60{clip-path:url(#SVGID_8_);fill:#003E1E;}
	.st61{clip-path:url(#SVGID_8_);fill:#11582F;}
	.st62{clip-path:url(#SVGID_8_);fill:#F8EEDF;}
	.st63{clip-path:url(#SVGID_8_);fill:#C12D1B;}
	.st64{clip-path:url(#SVGID_8_);fill:#1D0F10;}
	.st65{clip-path:url(#SVGID_10_);fill:#003E1E;}
	.st66{clip-path:url(#SVGID_10_);fill:#11582F;}
	.st67{clip-path:url(#SVGID_10_);fill:#F8EEDF;}
	.st68{clip-path:url(#SVGID_10_);fill:#C12D1B;}
	.st69{clip-path:url(#SVGID_10_);fill:#1D0F10;}
	.st70{clip-path:url(#SVGID_12_);fill:#003E1E;}
	.st71{clip-path:url(#SVGID_12_);fill:#11582F;}
	.st72{clip-path:url(#SVGID_12_);fill:#F8EEDF;}
	.st73{clip-path:url(#SVGID_12_);fill:#C12D1B;}
	.st74{clip-path:url(#SVGID_12_);fill:#1D0F10;}
	.st75{clip-path:url(#SVGID_14_);fill:#003E1E;}
	.st76{clip-path:url(#SVGID_14_);fill:#11582F;}
	.st77{clip-path:url(#SVGID_14_);fill:#F8EEDF;}
	.st78{clip-path:url(#SVGID_14_);fill:#C12D1B;}
	.st79{clip-path:url(#SVGID_14_);fill:#1D0F10;}
	.st80{clip-path:url(#SVGID_16_);fill:#003E1E;}
	.st81{clip-path:url(#SVGID_16_);fill:#11582F;}
	.st82{clip-path:url(#SVGID_16_);fill:#F8EEDF;}
	.st83{clip-path:url(#SVGID_16_);fill:#C12D1B;}
	.st84{clip-path:url(#SVGID_16_);fill:#1D0F10;}
	.st85{clip-path:url(#SVGID_18_);fill:#003E1E;}
	.st86{clip-path:url(#SVGID_18_);fill:#11582F;}
	.st87{clip-path:url(#SVGID_18_);fill:#F8EEDF;}
	.st88{clip-path:url(#SVGID_18_);fill:#C12D1B;}
	.st89{clip-path:url(#SVGID_20_);fill:#003E1E;}
	.st90{clip-path:url(#SVGID_20_);fill:#11582F;}
	.st91{clip-path:url(#SVGID_20_);fill:#F8EEDF;}
	.st92{clip-path:url(#SVGID_20_);fill:#C12D1B;}
	.st93{opacity:0.48;fill:#897678;}
	.st94{fill:#FFFFFF;stroke:#211915;stroke-miterlimit:10;}
	.st95{opacity:0.48;fill:#1D0F10;}
	.st96{fill:#2D4484;}
	.st97{fill:#050502;}
	.st98{fill:#1B3163;}
	.st99{fill:#0B1938;}
	.st100{fill:#9C9CA0;}
	.st101{fill:#717177;}
	.st102{fill:#C9C39D;}
	.st103{fill:#FCF9D4;}
	.st104{fill:#F4EFC3;}
	.st105{fill:#C23517;}
	.st106{fill:#A0241B;}
	.st107{fill:#F3E4E5;}
	.st108{fill:#2D1423;}
	.st109{fill:#8A191D;}
	.st110{fill:#6E191C;}
	.st111{fill:#C85D56;}
	.st112{fill:none;}
	.st113{fill:#101B46;}
	.st114{fill:#50A8C9;}
	.st115{fill:#538795;}
	.st116{fill:#101B46;stroke:#070208;stroke-width:2.0705;stroke-miterlimit:10;}
	.st117{fill:#0C0C11;}
	.st118{fill:#7B8A7C;stroke:#0A080A;stroke-width:1.7794;stroke-linecap:round;stroke-linejoin:round;stroke-miterlimit:10;}
	.st119{fill:#7B8A7C;stroke:#0A080A;stroke-width:1.8591;stroke-linecap:round;stroke-linejoin:round;stroke-miterlimit:10;}
	.st120{fill:#87BED5;}
	.st121{fill:#7A7A7A;stroke:#070707;stroke-width:2.8529;stroke-linecap:round;stroke-linejoin:round;stroke-miterlimit:10;}
	.st122{fill:none;stroke:#CE1B1B;stroke-width:15.2467;stroke-linecap:round;stroke-linejoin:round;stroke-miterlimit:10;}
</style>
<g id="BG">
</g>
<g id="Box_x5F_Red">
</g>
<g id="Box_x5F_gray">
</g>
<g id="Box_x5F_green">
</g>
<g id="Mic_x5F_red_x5F_001">
</g>
<g id="Mic_x5F_Green_x5F_001">
</g>
<g id="Mic_x5F_red_x5F_002">
</g>
<g id="Mic_x5F_Green_x5F_002">
</g>
<g id="Mic_x5F_red_x5F_003">
</g>
<g id="Mic_x5F_Green_x5F_003">
</g>
<g id="Camada_12">
</g>
<g id="Camada_13">
</g>
<g id="img_x5F_queijo_x5F_001_x5F_">
</g>
<g id="img_x5F_queijo_x5F_001_x5F_bg">
</g>
<g id="img_x5F_queijo_x5F_001_x5F_01">
</g>
<g id="img_x5F_queijo_x5F_001_x5F_02">
</g>
<g id="img_x5F_queijo_x5F_001_x5F_03">
</g>
<g id="img_x5F_Burger_x5F_001_x5F_">
</g>
<g id="img_x5F_Burger_x5F_001_x5F_bg">
</g>
<g id="img_x5F_Burger_x5F_001_x5F_01">
</g>
<g id="img_x5F_Burger_x5F_001_x5F_02">
</g>
<g id="img_x5F_Burger_x5F_001_x5F_03">
</g>
<g id="img_x5F_Burger_x5F_001_x5F_04">
</g>
<g id="img_x5F_Melancia_x5F_001_x5F_">
	<g>
		<g id="Melância_20_">
			<path class="st38" d="M563.3,307.3c-0.1-0.2-0.2-0.4-0.3-0.7c-3.3-10.5-14.5-19.5-34.2-26c-20.9-51.2-68.4-85.2-124.8-96.3
				c-0.1,0-0.1,0-0.2-0.1c-0.1,0-0.2,0-0.3-0.1c-11.4-2.2-23.3-3.5-35.3-3.7c-30-1.2-61.2,2.3-92.3,11.1
				C150.2,227.6,91.1,340.6,124.2,440.4C157.3,540.2,269.9,589,395.6,553C521.3,517.1,596.4,407.1,563.3,307.3z"/>
		</g>
		<g id="Melância_18_">
			<g id="Melância_19_">
				<g>
					<path class="st36" d="M314.7,566.6c-92.8,0-166.5-48.2-192.2-125.7c-15.6-47.2-11.2-97.9,12.5-142.8
						c27.4-51.8,77.2-90.2,140.3-108.3c26.6-7.6,53.9-11.5,81.1-11.5c3.9,0,7.9,0.1,11.8,0.2c12.1,0.3,24.1,1.5,35.5,3.8l0.3,0.1
						c0.1,0,0.2,0,0.3,0.1c28.5,5.6,54.9,17.2,76.4,33.4c22.4,16.9,39,38.2,49.3,63.2c19.4,6.5,31,15.6,34.6,26.9c0,0,0,0,0,0
						c0,0,0,0,0,0.1c0.1,0.2,0.2,0.4,0.2,0.6c13.8,41.5,9.2,87.3-12.8,128.9c-29.5,55.8-86.4,99.2-156.2,119.2
						C368.7,562.7,341.3,566.6,314.7,566.6C314.7,566.6,314.7,566.6,314.7,566.6z"/>
					<path class="st37" d="M356.5,180.3c3.9,0,7.9,0.1,11.8,0.2c12,0.3,23.8,1.5,35.3,3.7c0.1,0,0.2,0,0.3,0.1c0.1,0,0.1,0,0.2,0.1
						c56.4,11.1,103.9,45.1,124.8,96.3c19.8,6.5,30.9,15.5,34.2,26c0.1,0.2,0.2,0.4,0.3,0.7c33.1,99.8-42,209.8-167.7,245.8
						c-27.9,8-55.1,11.8-81,11.8c-90.8,0-164.7-46.8-190.4-124.4c-33.1-99.8,25.9-212.8,151.6-248.7
						C303,183.9,330.1,180.3,356.5,180.3 M356.5,176.6c-27.4,0-54.8,3.9-81.6,11.5c-63.6,18.2-113.9,57-141.4,109.2
						c-24,45.3-28.5,96.6-12.7,144.2c12.8,38.7,37.8,70.9,72.3,93.3c34,22,76.1,33.7,121.6,33.7c26.8,0,54.4-4,82-11.9
						c70.3-20.1,127.6-63.8,157.3-120.1c10.9-20.7,17.6-42.2,20-64c2.4-22.6,0-44.9-7.1-66.4c-0.1-0.4-0.3-0.6-0.3-0.8
						c-3.8-11.7-15.5-21-34.9-27.6c-10.5-25-27.2-46.2-49.6-63.2c-21.7-16.4-48.3-28.1-77-33.7c-0.1,0-0.3-0.1-0.5-0.1
						c-0.1,0-0.2,0-0.3,0l-0.1,0c-11.6-2.2-23.6-3.5-35.8-3.8C364.4,176.7,360.4,176.6,356.5,176.6L356.5,176.6z"/>
				</g>
				<g>
					<g>
						<path class="st34" d="M563.3,307.3c33.1,99.8-42,209.8-167.7,245.8s-238.3-12.9-271.4-112.7s25.9-212.8,151.6-248.7
							c43.7-12.5,87.7-14.4,128-7.4c31.8,5.5-6,121.2,19,137C457.4,343.2,550.8,269.5,563.3,307.3z"/>
						<path class="st38" d="M563.4,307.6c33.1,99.8-42,209.8-167.7,245.8s-238.3-12.9-271.4-112.7c-15.7-47.2-10.7-97.4,12.2-141
							C63.5,536,528.9,634.2,563.4,307.6z"/>
					</g>
					<g>
						<g>
							<path class="st36" d="M528.8,280.6c66.1,21.7,36.9,71.3-65.8,112s-239.7,56.6-305.8,34.9L528.8,280.6z"/>
							<path class="st39" d="M518.2,284.8c60.9,20.1,32.3,66.4-64.6,104.9s-225,53.8-285.9,33.7L518.2,284.8z"/>
							<path class="st40" d="M495.2,293.9c53.2,16.9,28,57.8-56.1,91.1S244,431.1,190.8,414.2L495.2,293.9z"/>
							<g>
								<path class="st41" d="M384.3,380.1c1.6,1.1-0.5,3-4.6,4.2c-4.1,1.3-8.8,1.5-10.4,0.4s-4.9-6.6-0.8-7.9
									S382.7,379.1,384.3,380.1z"/>
								<path class="st41" d="M323.2,396.6c-0.1,1.5-3.8,3.3-8.2,4.1c-4.4,0.8-7.9,0.2-7.8-1.2c0.1-1.5,4.2-8.3,8.6-9.1
									S323.4,395.2,323.2,396.6z"/>
								<path class="st41" d="M263.2,404.2c-1.6,1.6-6.3,3.2-10.4,3.4c-4.1,0.2-6.2-0.9-4.6-2.5c1.6-1.6,11.8-8.8,16-9.1
									C268.3,395.7,264.8,402.5,263.2,404.2z"/>
								<path class="st41" d="M419.3,366.3c3.1,0.4,8.2-0.5,11.4-2.1c3.1-1.6,3.2-3.3,0-3.7c-3.1-0.4-19-1-22.1,0.6
									C405.4,362.6,416.1,365.8,419.3,366.3z"/>
								<path class="st41" d="M458.7,342.9c4.1-0.2,8.8-1.7,10.5-3.4c1.7-1.7-0.2-2.8-4.3-2.6c-4.1,0.2-22.8,2.4-24.6,4.1
									C438.7,342.6,454.7,343.1,458.7,342.9z"/>
								<path class="st41" d="M473.1,320.9c4.4-0.8,8.2-2.6,8.4-4c0.2-1.5-3.2-2.1-7.6-1.3c-4.4,0.8-23.4,5.1-23.6,6.6
									C450.1,323.6,468.7,321.6,473.1,320.9z"/>
							</g>
						</g>
						<g>
							<path class="st42" d="M157.2,427.5c-35.5-86.9,18.9-190.2,121.5-230.7s214.6-3,250.1,83.9L157.2,427.5z"/>
							<path class="st43" d="M167.8,423.3c-32.7-80.1,19.2-176,116-214.3s201.8-4.3,234.5,75.7L167.8,423.3z"/>
							<path class="st44" d="M190.8,414.2c-28.4-69.6,16.7-152.9,100.8-186.2s175.3-3.8,203.7,65.8L190.8,414.2z"/>
							<g>
								<path class="st41" d="M328.9,270c-0.5-3.4,2.3-6.8,6.2-7.6c3.9-0.8,7.5,1.3,8,4.7c0.5,3.4-0.6,18.4-4.5,19.2
									S329.4,273.4,328.9,270z"/>
								<path class="st41" d="M384.9,264.3c1-3.4,5-5.8,8.8-5.2c3.8,0.6,6,3.8,5,7.2c-1,3.4-8.5,17.5-12.3,17
									C382.6,282.7,383.9,267.7,384.9,264.3z"/>
								<path class="st41" d="M434.3,279.4c2.3-3,6.7-4.1,9.9-2.4c3.2,1.7,4,5.5,1.7,8.6c-2.3,3-14.5,14.5-17.7,12.8
									C425,296.7,432.1,282.5,434.3,279.4z"/>
								<path class="st41" d="M294,283.8c-2-2.8-6.4-3.3-9.8-1.2c-3.4,2.1-4.5,6-2.4,8.8s13.4,12.9,16.8,10.8S296,286.6,294,283.8z"
									/>
								<path class="st41" d="M249.5,317.8c-3.2-1.8-7.6-0.8-10,2.2c-2.3,3-1.7,6.9,1.5,8.6c3.2,1.8,18.5,6.9,20.8,3.9
									S252.7,319.5,249.5,317.8z"/>
								<path class="st41" d="M224.6,362.3c-3.8-0.6-7.7,1.6-8.9,5c-1.1,3.4,1,6.7,4.8,7.4s20.7,0.6,21.8-2.8
									C243.4,368.5,228.3,363,224.6,362.3z"/>
							</g>
						</g>
					</g>
				</g>
			</g>
		</g>
	</g>
	<g>
		<g>
			<defs>
				<polyline id="SVGID_9_" points="34.4,56.7 767.9,56.7 767.9,634.1 34.4,634.1 34.4,56.7 				"/>
			</defs>
			<clipPath id="SVGID_2_">
				<use xlink:href="#SVGID_9_"  style="overflow:visible;"/>
			</clipPath>
			<path class="st45" d="M669.2,551.7c-20.6,18.4-45.3,33.4-72.9,43.3C625.7,585,649.8,570,669.2,551.7 M329.3,463.9l-0.7,0.1
				c4.3,96.3,46.4,145.4,166.7,145.4c9,0,18.4-0.3,28.2-0.8c-1.6,0-3.3,0.1-4.9,0.1C425.3,608.7,345.2,549.9,329.3,463.9"/>
			<path class="st46" d="M732.1,384.7l-11.5,2.2c15.7,92.4-56.8,183.5-161.8,203.5c-13.9,2.6-27.6,3.9-41.1,3.9
				c-88.4,0-163.8-54.8-177.4-135l-11.5,2.2c0.1,0.8,0.3,1.6,0.4,2.4c15.8,86,96,144.7,189.3,144.7c1.6,0,3.2,0,4.9-0.1
				c12.4-0.3,25-1.6,37.8-4c12.1-2.3,23.8-5.5,35-9.6c27.7-10,52.3-24.9,72.9-43.3C717,508.9,742.7,447.1,732.1,384.7"/>
			<path class="st47" d="M720.7,386.9l-24.7,4.7c1,3.9,1.6,8,1.6,12.2c0,1.2,0,2.5-0.1,3.7c3.5,74.6-57,144.7-142.3,161
				c-12.1,2.3-24,3.4-35.7,3.4c-64.8,0-121.7-34-144.9-86.5c-6.9-8.2-11.1-18.8-11.2-30.4l-23,4.4l0,0c13.6,80.2,89.1,135,177.4,135
				c13.5,0,27.2-1.3,41.1-3.9C663.9,570.4,736.3,479.3,720.7,386.9L720.7,386.9"/>
			<path class="st48" d="M518.8,522.5c-4.1,0-7.2-3-7-6.7c0.2-3.7,4.5-19.5,8.6-19.5c4.1,0,6.4,15.8,6.1,19.5
				S522.9,522.5,518.8,522.5 M697.4,407.5c-1.5,19.6-15,35.8-33.2,41.4c-4,22-23.3,38.6-46.4,38.6c-10.9,0-20.9-3.7-28.9-9.9
				c-5.1,6-11.6,10.7-19,13.6c3.7,3.8,7.6,9.7,8.5,11.8c1.4,3.4-0.5,7.4-4.3,8.9c-1,0.4-2,0.6-3,0.6c-2.8,0-5.4-1.5-6.5-4
				c-0.9-2.2-2.6-9.6-2.5-15c-3,0.6-6.1,0.9-9.3,0.9c-11.3,0-21.6-3.9-29.7-10.5c-8,14.7-23.6,24.8-41.6,24.8
				c-3.8,0-7.6-0.5-11.2-1.3c-0.4,1.1-0.7,1.9-1,2.5c-1.3,2.6-4.2,4.2-7.1,4.2c-0.9,0-1.9-0.2-2.8-0.5c-3.7-1.4-5.2-5.4-3.5-8.8
				c0.3-0.6,0.9-1.5,1.6-2.5c-5.7-3.3-10.6-7.8-14.4-13.2c-8.5,8.1-19.9,13.1-32.6,13.1c-14.5,0-27.4-6.5-36.1-16.7
				c23.2,52.5,80.1,86.5,144.9,86.5c11.7,0,23.6-1.1,35.7-3.4C640.4,552.2,700.9,482.1,697.4,407.5"/>
			<path class="st49" d="M520.5,496.3c-4.1,0-8.4,15.8-8.6,19.5c-0.2,3.7,2.9,6.7,7,6.7c4.1,0,7.6-3,7.8-6.7
				S524.6,496.3,520.5,496.3"/>
			<path class="st49" d="M457.6,502.2c-0.7,1-1.3,1.9-1.6,2.5c-1.8,3.4-0.2,7.4,3.5,8.8c0.9,0.3,1.8,0.5,2.8,0.5
				c2.9,0,5.8-1.6,7.1-4.2c0.3-0.5,0.6-1.4,1-2.5C465.8,506.3,461.6,504.5,457.6,502.2"/>
			<path class="st49" d="M569.9,491.3c-2.5,1-5.1,1.7-7.8,2.3c-0.1,5.3,1.6,12.7,2.5,15c1.1,2.5,3.7,4,6.5,4c1,0,2-0.2,3-0.6
				c3.8-1.5,5.8-5.5,4.3-8.9C577.5,501,573.6,495.1,569.9,491.3"/>
		</g>
	</g>
</g>
<g id="img_x5F_Melancia_x5F_001_x5F_bg">
</g>
<g id="img_x5F_Melancia_x5F_001_x5F_01">
</g>
<g id="img_x5F_Melancia_x5F_001_x5F_02">
</g>
<g id="img_x5F_Melancia_x5F_001_x5F_03">
</g>
<g id="img_x5F_Melancia_x5F_001_x5F_04">
</g>
<g id="img_x5F_Tanborin_x5F_001_x5F_">
</g>
<g id="img_x5F_Tanborin_x5F_001_x5F_bg">
</g>
<g id="img_x5F_Tanborin_x5F_001_x5F_02">
</g>
<g id="img_x5F_Tanborin_x5F_001_x5F_01">
</g>
<g id="img_x5F_Tanborin_x5F_001_x5F_03">
</g>
<g id="img_x5F_Tanborin_x5F_001_x5F_04">
</g>
<g id="img_x5F_Corasao_x5F_001_x5F_">
</g>
<g id="img_x5F_Corasao_x5F_001_x5F_bg">
</g>
<g id="img_x5F_Corasao_x5F_001_x5F_01">
</g>
<g id="img_x5F_Corasao_x5F_001_x5F_02">
</g>
<g id="img_x5F_Corasao_x5F_001_x5F_03">
</g>
<g id="img_x5F_Corasao_x5F_001_x5F_04">
</g>
<g id="img_x5F_Bicicleta_x5F_001_x5F_">
</g>
<g id="img_x5F_Bicicleta_x5F_001_x5F_bg">
</g>
<g id="img_x5F_Bicicleta_x5F_001_x5F_01">
</g>
<g id="img_x5F_Bicicleta_x5F_001_x5F_02">
</g>
<g id="img_x5F_Bicicleta_x5F_001_x5F_03">
</g>
<g id="img_x5F_Bicicleta_x5F_001_x5F_04">
</g>
<g id="Camada_39">
</g>
<g id="Camada_40">
</g>
<g id="Camada_1">
</g>
</svg>
